{
  "mappings" : [ {
    "id" : "e6120714-66ac-482a-b233-b0399a5e6812",
    "name" : "This call suppresses a listing violation for a specific listing. Only listing vi... - 500",
    "request" : {
      "urlPath" : "/suppress_listing_violation",
      "method" : "POST"
    },
    "response" : {
      "status" : 500
    },
    "uuid" : "e6120714-66ac-482a-b233-b0399a5e6812",
    "persistent" : true,
    "metadata" : {
      "mocklab" : {
        "created" : {
          "at" : "2023-03-06T18:10:41.497953Z",
          "via" : "OAS3_IMPORT"
        },
        "oas" : {
          "operationId" : "suppressViolation"
        }
      }
    }
  }, {
    "id" : "cffe0374-13cc-4599-8a88-9d6e3b895a0f",
    "name" : "This call suppresses a listing violation for a specific listing. Only listing vi... - 409",
    "request" : {
      "urlPath" : "/suppress_listing_violation",
      "method" : "POST"
    },
    "response" : {
      "status" : 409
    },
    "uuid" : "cffe0374-13cc-4599-8a88-9d6e3b895a0f",
    "persistent" : true,
    "metadata" : {
      "mocklab" : {
        "created" : {
          "at" : "2023-03-06T18:10:41.497935Z",
          "via" : "OAS3_IMPORT"
        },
        "oas" : {
          "operationId" : "suppressViolation"
        }
      }
    }
  }, {
    "id" : "5c3eba44-87b9-4f45-8181-55c8347ed5d7",
    "name" : "This call suppresses a listing violation for a specific listing. Only listing vi... - 400",
    "request" : {
      "urlPath" : "/suppress_listing_violation",
      "method" : "POST"
    },
    "response" : {
      "status" : 400
    },
    "uuid" : "5c3eba44-87b9-4f45-8181-55c8347ed5d7",
    "persistent" : true,
    "metadata" : {
      "mocklab" : {
        "created" : {
          "at" : "2023-03-06T18:10:41.497919Z",
          "via" : "OAS3_IMPORT"
        },
        "oas" : {
          "operationId" : "suppressViolation"
        }
      }
    }
  }, {
    "id" : "852004ab-af23-4c85-9e2e-92b84297a992",
    "name" : "This call suppresses a listing violation for a specific listing. Only listing vi... - 204",
    "request" : {
      "urlPath" : "/suppress_listing_violation",
      "method" : "POST"
    },
    "response" : {
      "status" : 204
    },
    "uuid" : "852004ab-af23-4c85-9e2e-92b84297a992",
    "persistent" : true,
    "metadata" : {
      "mocklab" : {
        "created" : {
          "at" : "2023-03-06T18:10:41.497903Z",
          "via" : "OAS3_IMPORT"
        },
        "oas" : {
          "operationId" : "suppressViolation"
        }
      }
    }
  }, {
    "id" : "7ba4743e-e43a-4d18-9421-fe3b8e33c985",
    "name" : "This call returns listing violation counts for a seller. A user can pass in one ... - 500",
    "request" : {
      "urlPath" : "/listing_violation_summary",
      "method" : "GET"
    },
    "response" : {
      "status" : 500
    },
    "uuid" : "7ba4743e-e43a-4d18-9421-fe3b8e33c985",
    "persistent" : true,
    "metadata" : {
      "mocklab" : {
        "created" : {
          "at" : "2023-03-06T18:10:41.49788Z",
          "via" : "OAS3_IMPORT"
        },
        "oas" : {
          "operationId" : "getListingViolationsSummary"
        }
      }
    }
  }, {
    "id" : "de67a9f1-dc90-4d7c-9f17-54cb3a6ddf4a",
    "name" : "This call returns listing violation counts for a seller. A user can pass in one ... - 400",
    "request" : {
      "urlPath" : "/listing_violation_summary",
      "method" : "GET"
    },
    "response" : {
      "status" : 400
    },
    "uuid" : "de67a9f1-dc90-4d7c-9f17-54cb3a6ddf4a",
    "persistent" : true,
    "metadata" : {
      "mocklab" : {
        "created" : {
          "at" : "2023-03-06T18:10:41.497862Z",
          "via" : "OAS3_IMPORT"
        },
        "oas" : {
          "operationId" : "getListingViolationsSummary"
        }
      }
    }
  }, {
    "id" : "720f6ba0-00dd-40ba-85a8-c03995fb6808",
    "name" : "This call returns listing violation counts for a seller. A user can pass in one ... - 204",
    "request" : {
      "urlPath" : "/listing_violation_summary",
      "method" : "GET"
    },
    "response" : {
      "status" : 204
    },
    "uuid" : "720f6ba0-00dd-40ba-85a8-c03995fb6808",
    "persistent" : true,
    "metadata" : {
      "mocklab" : {
        "created" : {
          "at" : "2023-03-06T18:10:41.497845Z",
          "via" : "OAS3_IMPORT"
        },
        "oas" : {
          "operationId" : "getListingViolationsSummary"
        }
      }
    }
  }, {
    "id" : "a539f236-a6c3-481b-b76d-0f5a19c5a804",
    "name" : "This call returns listing violation counts for a seller. A user can pass in one ... (application/json;charset=UTF-8)",
    "request" : {
      "urlPath" : "/listing_violation_summary",
      "method" : "GET",
      "headers" : {
        "Accept" : {
          "contains" : "application/json;charset=UTF-8"
        }
      }
    },
    "response" : {
      "status" : 200,
      "body" : "{\n  \"violationSummaries\" : [ {\n    \"marketplaceId\" : \"dl94\",\n    \"listingCount\" : 1257721014,\n    \"complianceType\" : \"nx5oerk4yxkl6qo6alya7yw9zaztyrks016idk8k0z7o8mhx2efn0m6paed3g3d30ld8io4x6jec574ec5gzxbdg8dk1gx9mco5fdssqom6p0h30e95mfrz5wacb0n8522vq1ggh7ya06orpy3tzwwze390gxfvwxwzuw4\"\n  } ]\n}",
      "headers" : {
        "Content-Type" : "application/json;charset=UTF-8"
      }
    },
    "uuid" : "a539f236-a6c3-481b-b76d-0f5a19c5a804",
    "persistent" : true,
    "metadata" : {
      "mocklab" : {
        "created" : {
          "at" : "2023-03-06T18:10:41.497816Z",
          "via" : "OAS3_IMPORT"
        },
        "oas" : {
          "operationId" : "getListingViolationsSummary",
          "schema" : {
            "description" : "This type is the base type for the getListingViolationsSummary response. The violationSummaries container contains an array of policy violation counts for each unique eBay marketplace and compliance type violation.",
            "properties" : {
              "violationSummaries" : {
                "description" : "This container is an array of one or more policy violation counts. A policy violation count is returned for each unique eBay marketplace and compliance type violation. As long as there is at least one non-compliant listing for the specified compliance type(s), this container will be returned. If no non-compliant listings are found for the specified compliance type(s), an HTTP status code of 204 No Content is returned, and there is no response body.",
                "items" : {
                  "$ref" : "#/components/schemas/ComplianceSummaryInfo"
                },
                "type" : "array"
              }
            },
            "type" : "object"
          }
        }
      }
    }
  }, {
    "id" : "43714530-76c0-4c23-b8a2-c7bc9b177e81",
    "name" : "This call returns specific listing violations for the supported listing complian... - 500",
    "request" : {
      "urlPath" : "/listing_violation",
      "method" : "GET"
    },
    "response" : {
      "status" : 500
    },
    "uuid" : "43714530-76c0-4c23-b8a2-c7bc9b177e81",
    "persistent" : true,
    "metadata" : {
      "mocklab" : {
        "created" : {
          "at" : "2023-03-06T18:10:41.497639Z",
          "via" : "OAS3_IMPORT"
        },
        "oas" : {
          "operationId" : "getListingViolations"
        }
      }
    }
  }, {
    "id" : "c7fb128b-c836-4f21-b158-bba23351d1ab",
    "name" : "This call returns specific listing violations for the supported listing complian... - 400",
    "request" : {
      "urlPath" : "/listing_violation",
      "method" : "GET"
    },
    "response" : {
      "status" : 400
    },
    "uuid" : "c7fb128b-c836-4f21-b158-bba23351d1ab",
    "persistent" : true,
    "metadata" : {
      "mocklab" : {
        "created" : {
          "at" : "2023-03-06T18:10:41.497621Z",
          "via" : "OAS3_IMPORT"
        },
        "oas" : {
          "operationId" : "getListingViolations"
        }
      }
    }
  }, {
    "id" : "9b87508d-dfb1-4172-a1a4-9f5d6a6bf950",
    "name" : "This call returns specific listing violations for the supported listing complian... - 204",
    "request" : {
      "urlPath" : "/listing_violation",
      "method" : "GET"
    },
    "response" : {
      "status" : 204
    },
    "uuid" : "9b87508d-dfb1-4172-a1a4-9f5d6a6bf950",
    "persistent" : true,
    "metadata" : {
      "mocklab" : {
        "created" : {
          "at" : "2023-03-06T18:10:41.497602Z",
          "via" : "OAS3_IMPORT"
        },
        "oas" : {
          "operationId" : "getListingViolations"
        }
      }
    }
  }, {
    "id" : "91302f9b-2361-45b8-9cb0-f711da4e6014",
    "name" : "This call returns specific listing violations for the supported listing complian... (application/json;charset=UTF-8)",
    "request" : {
      "urlPath" : "/listing_violation",
      "method" : "GET",
      "headers" : {
        "Accept" : {
          "contains" : "application/json;charset=UTF-8"
        }
      }
    },
    "response" : {
      "status" : 200,
      "body" : "{\n  \"next\" : \"9vrvoclpg873b02gg4c5i1dy9k86xfto2bf34s4hdew2c2kjhyzpvzg35or5ivplngjwwmu1cqb9xr2f0btsl5n7g8if45i9hmc959o2n3r6aqs5h3\",\n  \"total\" : 1284019393,\n  \"offset\" : 323351535,\n  \"prev\" : \"uac5g9zlyd758zlo7sp8xcpv1s6p939nz04izet0z4bdg8q25v067lrtsbdkldbvm2jd56onslogwlktjioidirpjm4rnm3xg5tw1iy5sflt9v38izahdhpag9pq2hemo1cg1k53n3zbgs4cgf6veoutncod0uct2y19rmcwt9lrk69w79rgz1ot\",\n  \"limit\" : 27381115,\n  \"href\" : \"21zq64qkkr26ee9nv39tb2esgz7k4twdhlqurouno29c789jnx8hntlmifl4tx876ym7sklt5vf7b\",\n  \"listingViolations\" : [ {\n    \"violations\" : [ {\n      \"correctiveRecommendations\" : {\n        \"productRecommendation\" : { },\n        \"aspectRecommendations\" : [ { }, { }, { }, { }, { }, { }, { }, { } ]\n      },\n      \"reasonCode\" : \"czt6bxeowqzrlc9oatnbppf3imo790ellv8exwrbeun7ojj5y2e89nhat15j6klp1gx2oi1cq6d4g14d0m5wfhu3e4evqaofu4mi6ui11cintnrh452ub42khy7y1ho3ed9nl9z8ybw7otslt9bjlwyasrv04ik46yw4sbjycfxs\",\n      \"violationData\" : [ { }, { }, { }, { }, { }, { }, { } ],\n      \"complianceState\" : \"Mississippi\",\n      \"message\" : \"Molestiae culpa provident est. Consequatur rerum dolores doloribus aut. Debitis maiores et consequatur. Perspiciatis hic blanditiis dignissimos corporis ut.\",\n      \"variation\" : {\n        \"variationAspects\" : [ { }, { }, { }, { }, { }, { }, { } ],\n        \"sku\" : \"820m9ln6v62ni6y71yuqc2uexhokgmj6anw01fts92cqbth9nbcu5sxag\"\n      }\n    } ],\n    \"offerId\" : \"7cxs\",\n    \"listingId\" : \"26ar\",\n    \"sku\" : \"x8iv5ukmq2facye3hqh4nppnddm2ph77durnsws1qkcnovln5ta8ebwzdyrt6u1a3r99osunjaf2jj7bx1tc1tyoqtwxvb3lm7v4nhlx03ffwiasd1sz86j4f6h8qguufurj4r9fn1papnh6kz1hjrj9s1dcmhs5dvzl2newk6tkt21\",\n    \"complianceType\" : \"lknf1t27gfymq00jfjigl3m6zw9f6sznwvnt4174l6hankq4gccgojj8zfg84ngsvzp79tkgwa8oyms1nomjz4wkeuztm4vfjwo0r13xltqp8ctwgn811kaeh9sih8kaw72pal8hvtnokupndhe7i8gpw4u0b2uv5qygqos1wczaemqco35g2zzfzshj6ntbn745oj\"\n  }, {\n    \"violations\" : [ {\n      \"correctiveRecommendations\" : {\n        \"productRecommendation\" : { },\n        \"aspectRecommendations\" : [ { }, { }, { }, { }, { } ]\n      },\n      \"reasonCode\" : \"7joykvgsjhlsz4h2ex0walr9vi00kbp76nal63p0xo1d2t2l9j8c06al780mpw2ohhdfn23ad2d9idlge5exz72f8meadbhyior7dv5szuqdjn8jgaxukcueltfmr6xbx4kqmxsh0wkkxtaa0f2wj9al34zlhqma16ecc1ddw9qej1\",\n      \"violationData\" : [ { }, { }, { }, { }, { }, { }, { }, { } ],\n      \"complianceState\" : \"Louisiana\",\n      \"message\" : \"Enim praesentium dolor eum. Asperiores inventore similique aut nisi quo eius cum. Tempore voluptatem accusantium.\",\n      \"variation\" : {\n        \"variationAspects\" : [ { }, { }, { }, { } ],\n        \"sku\" : \"cvnpol9rnub69k3h8ms1iv57ccbnpafwy6bvr39q7eeqq78kxfjm8yrmzxn1yeraevv0pcvyvs7vns03doq162m13hf9gwcpgpd1\"\n      }\n    }, {\n      \"correctiveRecommendations\" : {\n        \"productRecommendation\" : { },\n        \"aspectRecommendations\" : [ { }, { }, { }, { }, { }, { }, { } ]\n      },\n      \"reasonCode\" : \"os7jeu7gffhwoliszns9\",\n      \"violationData\" : [ { }, { }, { }, { } ],\n      \"complianceState\" : \"Missouri\",\n      \"message\" : \"Minima magni reprehenderit aut iusto sequi velit est. Harum aut et sit ut. Quo quam sint eaque voluptatem fugiat voluptatem iure. Nam aliquam eum. Pariatur dolore aut voluptas velit incidunt.\",\n      \"variation\" : {\n        \"variationAspects\" : [ { }, { }, { }, { }, { }, { }, { }, { } ],\n        \"sku\" : \"9vf6finz474bll0j7c64cawgah8krhd5t81qoe1cqj9lv8jgqlul0y0l0hx0joz7atoanjvyxdjp50t621xtcpo1h5mckg3ggkcadpzlmknmqofrx8qrwoi76earrkgdp0gbp9v4jmc44il5qyybm245xq5mzhc1qxggof5xe2zclnrllu0208n\"\n      }\n    } ],\n    \"offerId\" : \"m1m0\",\n    \"listingId\" : \"lmp9\",\n    \"sku\" : \"ywhhov1a7yx5yfnnxo6qrqvbldio2v55u7c2i8j3a7dx5x3xuxix87nid2\",\n    \"complianceType\" : \"0csal1c18s3qyoer6kk\"\n  } ]\n}",
      "headers" : {
        "Content-Type" : "application/json;charset=UTF-8"
      }
    },
    "uuid" : "91302f9b-2361-45b8-9cb0-f711da4e6014",
    "persistent" : true,
    "metadata" : {
      "mocklab" : {
        "created" : {
          "at" : "2023-03-06T18:10:41.497542Z",
          "via" : "OAS3_IMPORT"
        },
        "oas" : {
          "operationId" : "getListingViolations",
          "schema" : {
            "description" : "This type is the base response type of the getListingViolations method.",
            "properties" : {
              "href" : {
                "description" : "The URI of the getListingViolations call request that produced the current page of the result set.",
                "type" : "string"
              },
              "limit" : {
                "description" : "The maximum number of listing violations returned per page of the result set. The limit and offset query parameters are used to control the pagination of the output. Note: If this is the last or only page in the result set, it may contain fewer listing violations than the limit value. To determine the number of pages in the result set, divide this value into the value of total and round up to the next integer. Default: 50 Max: 200",
                "format" : "int32",
                "type" : "integer"
              },
              "listingViolations" : {
                "description" : "An array of listing violations that match the criteria in the call request, including pagination control {if set). As long as there is at least one listing violation that matches the input criteria, this container will be returned. If no listing violations are found for the seller, an HTTP status code of 204 No Content is returned, and there is no response body.",
                "items" : {
                  "$ref" : "#/components/schemas/ComplianceViolation"
                },
                "type" : "array"
              },
              "next" : {
                "description" : "The getListingViolations call URI to use to view the next page of the result set. For example, the following URI returns listing violations 21 thru 30 from the collection of policy violations: path/listing_violation?limit=10&amp;offset=20 This field is only returned if an additional page of listing violations exists.",
                "type" : "string"
              },
              "offset" : {
                "description" : "This integer value shows the offset of the current page of results. The offset value controls the first listing violation in the result set that will be displayed at the top of the response. The offset and limit query parameters are used to control the pagination of the output. For example, if offset is set to 10 and limit is set to 10, the call retrieves listing violations 11 thru 20 from the resulting collection of violations. Note: This feature employs a zero-based index, where the first item in the list has an offset of 0. Default: 0 {zero)",
                "format" : "int32",
                "type" : "integer"
              },
              "prev" : {
                "description" : "The getListingViolations call URI to use to view the previous page of the result set. For example, the following URI returns listing violations 1 thru 10 from the collection of policy violations: path/listing_violation?limit=10&amp;offset=0 This field is only returned if an previous page of listing violations exists.",
                "type" : "string"
              },
              "total" : {
                "description" : "The total number of listing violations in the result set. If this value is higher than the limit value, there are multiple pages in the result set to view.",
                "format" : "int32",
                "type" : "integer"
              }
            },
            "type" : "object"
          }
        }
      }
    }
  } ]
}