{
  "mappings" : [ {
    "id" : "3c43d8a5-bead-400d-93ed-f86b6798ccee",
    "name" : "Retrieve individual audit event",
    "request" : {
      "urlPath" : "/events/t0ia",
      "method" : "GET"
    },
    "response" : {
      "status" : 404,
      "body" : "{\n  \"error\" : \"Not Found\",\n  \"message\" : \"Event with provided id: aaaaaaaa-bbbb-cccc-dddd-0123456789ab was not found\",\n  \"status\" : 404\n}",
      "headers" : {
        "Content-Type" : "application/json"
      }
    },
    "uuid" : "3c43d8a5-bead-400d-93ed-f86b6798ccee",
    "persistent" : true,
    "metadata" : {
      "mocklab" : {
        "created" : {
          "at" : "2023-03-06T17:29:09.874047Z",
          "via" : "OAS3_IMPORT"
        },
        "oas" : {
          "operationId" : "getEvent",
          "schema" : {
            "properties" : {
              "error" : {
                "description" : "A human readable description of the error XXX",
                "example" : "Not Found",
                "type" : "string"
              },
              "message" : {
                "description" : "A longer description of the error YYY",
                "example" : "Event with provided id: aaaaaaaa-bbbb-cccc-dddd-0123456789ab was not found",
                "type" : "string"
              },
              "status" : {
                "description" : "The HTTP Status code of the error",
                "example" : 404,
                "type" : "integer"
              }
            },
            "type" : "object"
          }
        }
      }
    }
  }, {
    "id" : "57a39514-fd11-40e4-9e0d-16d7548aee63",
    "name" : "Retrieve individual audit event",
    "request" : {
      "urlPath" : "/events/9673",
      "method" : "GET"
    },
    "response" : {
      "status" : 401,
      "body" : "{\n  \"error\" : \"Unauthorized\",\n  \"message\" : \"Full authentication is required. JWT was not found in \\\"Authorization\\\" HTTP header.\",\n  \"status\" : 401\n}",
      "headers" : {
        "Content-Type" : "application/json"
      }
    },
    "uuid" : "57a39514-fd11-40e4-9e0d-16d7548aee63",
    "persistent" : true,
    "metadata" : {
      "mocklab" : {
        "created" : {
          "at" : "2023-03-06T17:29:09.873937Z",
          "via" : "OAS3_IMPORT"
        },
        "oas" : {
          "operationId" : "getEvent",
          "schema" : {
            "properties" : {
              "error" : {
                "description" : "A human readable description of the error",
                "example" : "Unauthorized",
                "type" : "string"
              },
              "message" : {
                "description" : "A longer description of the error",
                "example" : "Full authentication is required. JWT was not found in \"Authorization\" HTTP header.",
                "type" : "string"
              },
              "status" : {
                "description" : "The HTTP Status code of the error",
                "example" : 401,
                "type" : "integer"
              }
            },
            "type" : "object"
          }
        }
      }
    }
  }, {
    "id" : "c7d7504c-f206-446c-bac5-9be5ad2825e1",
    "name" : "Retrieve individual audit event",
    "request" : {
      "urlPath" : "/events/2vea",
      "method" : "GET"
    },
    "response" : {
      "status" : 200,
      "body" : "{\n  \"user_email\" : \"user@example.org\",\n  \"_links\" : {\n    \"self\" : {\n      \"href\" : \"https://api.nexmo.com/beta/audit/events/aaaaaaaa-bbbb-cccc-dddd-0123456789ab\"\n    }\n  },\n  \"created_at\" : \"2018-07-04T11:41:32\",\n  \"source\" : \"CD\",\n  \"source_ip\" : \"192.0.2.0\",\n  \"account_id\" : \"abcd1234\",\n  \"event_type\" : \"APP_CREATE\",\n  \"source_country\" : \"GB\",\n  \"user_id\" : 1234567,\n  \"context\" : {\n    \"created\" : {\n      \"accountId\" : \"abcdef01\",\n      \"answer_url\" : {\n        \"method\" : \"GET\",\n        \"url\" : \"https://example.org/call\"\n      },\n      \"appId\" : \"aaaaaaaa-bbbb-cccc-dddd-0123456789ab\",\n      \"event_url\" : {\n        \"method\" : \"POST\",\n        \"url\" : \"https://example.org/event\"\n      },\n      \"name\" : \"My voice app\",\n      \"type\" : \"voice\"\n    }\n  },\n  \"id\" : \"aaaaaaaa-bbbb-cccc-dddd-0123456789ab\",\n  \"event_type_description\" : \"Application created.\",\n  \"source_description\" : \"Customer Dashboard\"\n}",
      "headers" : {
        "Content-Type" : "application/json"
      }
    },
    "uuid" : "c7d7504c-f206-446c-bac5-9be5ad2825e1",
    "persistent" : true,
    "metadata" : {
      "mocklab" : {
        "created" : {
          "at" : "2023-03-06T17:29:09.873801Z",
          "via" : "OAS3_IMPORT"
        },
        "oas" : {
          "operationId" : "getEvent",
          "schema" : {
            "properties" : {
              "_links" : {
                "$ref" : "#/components/schemas/EventLink"
              },
              "account_id" : {
                "description" : "The NEXMO_API_KEY of the Vonage API account that the audit event is associated with.",
                "example" : "abcd1234",
                "type" : "string"
              },
              "context" : {
                "description" : "A valid JSON object with information detailing the context of the audit event.",
                "example" : {
                  "created" : {
                    "accountId" : "abcdef01",
                    "answer_url" : {
                      "method" : "GET",
                      "url" : "https://example.org/call"
                    },
                    "appId" : "aaaaaaaa-bbbb-cccc-dddd-0123456789ab",
                    "event_url" : {
                      "method" : "POST",
                      "url" : "https://example.org/event"
                    },
                    "name" : "My voice app",
                    "type" : "voice"
                  }
                },
                "oneOf" : [ {
                  "$ref" : "#/components/schemas/ContextAppCreate"
                }, {
                  "$ref" : "#/components/schemas/ContextNumberLinking"
                }, {
                  "$ref" : "#/components/schemas/ContextNumberUpdate"
                } ],
                "type" : "object"
              },
              "created_at" : {
                "description" : "When the audit event was created.",
                "example" : "2018-07-04T11:41:32",
                "format" : "date",
                "type" : "string"
              },
              "event_type" : {
                "$ref" : "#/components/schemas/EventTypes"
              },
              "event_type_description" : {
                "description" : "A description of the event type",
                "example" : "Application created.",
                "type" : "string"
              },
              "id" : {
                "description" : "UUID of the audit event",
                "example" : "aaaaaaaa-bbbb-cccc-dddd-0123456789ab",
                "type" : "string"
              },
              "source" : {
                "description" : "The source of the event.\nCD: Customer Dashboard DEVAPI: via Developer API\n",
                "enum" : [ "CD", "DEVAPI" ],
                "example" : "CD",
                "type" : "string"
              },
              "source_country" : {
                "description" : "ISO 3166-1 Alpha-2 country code recorded for the event.",
                "example" : "GB",
                "type" : "string"
              },
              "source_description" : {
                "description" : "Description of the audit event source.",
                "enum" : [ "Customer Dashboard", "Developer API" ],
                "example" : "Customer Dashboard",
                "format" : "A human readable description of the `source`.",
                "type" : "string"
              },
              "source_ip" : {
                "description" : "The IP address used to make the account change.",
                "example" : "192.0.2.0",
                "format" : "ipv4",
                "type" : "string"
              },
              "user_email" : {
                "description" : "Email of the user whose account the audit event is associated with.",
                "example" : "user@example.org",
                "format" : "email",
                "type" : "string"
              },
              "user_id" : {
                "description" : "The ID of the user that the audit event is associated with.",
                "example" : 1234567,
                "type" : "integer"
              }
            },
            "type" : "object"
          }
        }
      }
    }
  }, {
    "id" : "0b55ac50-8e73-44bd-978d-2e7d0b2b7b18",
    "name" : "Retrieve audit event types",
    "request" : {
      "urlPath" : "/events",
      "method" : "OPTIONS"
    },
    "response" : {
      "status" : 403,
      "body" : "{\n  \"error\" : \"Forbidden\",\n  \"message\" : \"An example goes here\",\n  \"status\" : 403\n}",
      "headers" : {
        "Content-Type" : "application/json"
      }
    },
    "uuid" : "0b55ac50-8e73-44bd-978d-2e7d0b2b7b18",
    "persistent" : true,
    "metadata" : {
      "mocklab" : {
        "created" : {
          "at" : "2023-03-06T17:29:09.873539Z",
          "via" : "OAS3_IMPORT"
        },
        "oas" : {
          "operationId" : "getEventsOptions",
          "schema" : {
            "properties" : {
              "error" : {
                "description" : "A human readable description of the error",
                "example" : "Forbidden",
                "type" : "string"
              },
              "message" : {
                "description" : "A longer description of the error",
                "example" : "An example goes here",
                "type" : "string"
              },
              "status" : {
                "description" : "The HTTP Status code of the error",
                "example" : 403,
                "type" : "integer"
              }
            },
            "type" : "object"
          }
        }
      }
    }
  }, {
    "id" : "887a99df-eb72-4646-863f-7b068bfa42d0",
    "name" : "Retrieve audit event types",
    "request" : {
      "urlPath" : "/events",
      "method" : "OPTIONS"
    },
    "response" : {
      "status" : 401,
      "body" : "{\n  \"error\" : \"Unauthorized\",\n  \"message\" : \"Full authentication is required. JWT was not found in \\\"Authorization\\\" HTTP header.\",\n  \"status\" : 401\n}",
      "headers" : {
        "Content-Type" : "application/json"
      }
    },
    "uuid" : "887a99df-eb72-4646-863f-7b068bfa42d0",
    "persistent" : true,
    "metadata" : {
      "mocklab" : {
        "created" : {
          "at" : "2023-03-06T17:29:09.873491Z",
          "via" : "OAS3_IMPORT"
        },
        "oas" : {
          "operationId" : "getEventsOptions",
          "schema" : {
            "properties" : {
              "error" : {
                "description" : "A human readable description of the error",
                "example" : "Unauthorized",
                "type" : "string"
              },
              "message" : {
                "description" : "A longer description of the error",
                "example" : "Full authentication is required. JWT was not found in \"Authorization\" HTTP header.",
                "type" : "string"
              },
              "status" : {
                "description" : "The HTTP Status code of the error",
                "example" : 401,
                "type" : "integer"
              }
            },
            "type" : "object"
          }
        }
      }
    }
  }, {
    "id" : "126f808a-8b9a-4dc8-8c38-b12da76dbf0a",
    "name" : "Retrieve audit event types",
    "request" : {
      "urlPath" : "/events",
      "method" : "OPTIONS"
    },
    "response" : {
      "status" : 204,
      "body" : "{\n  \"error\" : \"No Content\",\n  \"message\" : \"No content\",\n  \"status\" : 204\n}",
      "headers" : {
        "Content-Type" : "application/json"
      }
    },
    "uuid" : "126f808a-8b9a-4dc8-8c38-b12da76dbf0a",
    "persistent" : true,
    "metadata" : {
      "mocklab" : {
        "created" : {
          "at" : "2023-03-06T17:29:09.873444Z",
          "via" : "OAS3_IMPORT"
        },
        "oas" : {
          "operationId" : "getEventsOptions",
          "schema" : {
            "properties" : {
              "error" : {
                "description" : "A human readable description of the error AAA",
                "example" : "No Content",
                "type" : "string"
              },
              "message" : {
                "description" : "A longer description of the error BBB",
                "example" : "No content",
                "type" : "string"
              },
              "status" : {
                "description" : "The HTTP Status code of the error",
                "example" : 204,
                "type" : "integer"
              }
            },
            "type" : "object"
          }
        }
      }
    }
  }, {
    "id" : "155a7fb6-f92b-4569-9b60-fb80a4d28125",
    "name" : "Retrieve audit event types",
    "request" : {
      "urlPath" : "/events",
      "method" : "OPTIONS"
    },
    "response" : {
      "status" : 200,
      "body" : "{\n  \"eventTypes\" : [ {\n    \"description\" : \"Application created.\",\n    \"type\" : \"APP_CREATE\"\n  }, {\n    \"description\" : \"Application created.\",\n    \"type\" : \"APP_CREATE\"\n  }, {\n    \"description\" : \"Application created.\",\n    \"type\" : \"APP_CREATE\"\n  }, {\n    \"description\" : \"Application created.\",\n    \"type\" : \"APP_CREATE\"\n  }, {\n    \"description\" : \"Application created.\",\n    \"type\" : \"APP_CREATE\"\n  } ]\n}",
      "headers" : {
        "Content-Type" : "application/json"
      }
    },
    "uuid" : "155a7fb6-f92b-4569-9b60-fb80a4d28125",
    "persistent" : true,
    "metadata" : {
      "mocklab" : {
        "created" : {
          "at" : "2023-03-06T17:29:09.873392Z",
          "via" : "OAS3_IMPORT"
        },
        "oas" : {
          "operationId" : "getEventsOptions",
          "schema" : {
            "properties" : {
              "eventTypes" : {
                "description" : "An array of audit event types.",
                "items" : {
                  "$ref" : "#/components/schemas/AuditEventType"
                },
                "type" : "array"
              }
            },
            "type" : "object"
          }
        }
      }
    }
  }, {
    "id" : "da37c658-381b-4667-973b-067b7304045c",
    "name" : "Retrieve audit events",
    "request" : {
      "urlPath" : "/events",
      "method" : "GET"
    },
    "response" : {
      "status" : 404,
      "body" : "{\n  \"error\" : \"Not Found\",\n  \"message\" : \"Event with provided id: aaaaaaaa-bbbb-cccc-dddd-0123456789ab was not found\",\n  \"status\" : 404\n}",
      "headers" : {
        "Content-Type" : "application/json"
      }
    },
    "uuid" : "da37c658-381b-4667-973b-067b7304045c",
    "persistent" : true,
    "metadata" : {
      "mocklab" : {
        "created" : {
          "at" : "2023-03-06T17:29:09.873317Z",
          "via" : "OAS3_IMPORT"
        },
        "oas" : {
          "operationId" : "getEvents",
          "schema" : {
            "properties" : {
              "error" : {
                "description" : "A human readable description of the error XXX",
                "example" : "Not Found",
                "type" : "string"
              },
              "message" : {
                "description" : "A longer description of the error YYY",
                "example" : "Event with provided id: aaaaaaaa-bbbb-cccc-dddd-0123456789ab was not found",
                "type" : "string"
              },
              "status" : {
                "description" : "The HTTP Status code of the error",
                "example" : 404,
                "type" : "integer"
              }
            },
            "type" : "object"
          }
        }
      }
    }
  }, {
    "id" : "401df6b3-abf1-439d-befa-e7d6d3b73ca2",
    "name" : "Retrieve audit events",
    "request" : {
      "urlPath" : "/events",
      "method" : "GET"
    },
    "response" : {
      "status" : 403,
      "body" : "{\n  \"error\" : \"Forbidden\",\n  \"message\" : \"An example goes here\",\n  \"status\" : 403\n}",
      "headers" : {
        "Content-Type" : "application/json"
      }
    },
    "uuid" : "401df6b3-abf1-439d-befa-e7d6d3b73ca2",
    "persistent" : true,
    "metadata" : {
      "mocklab" : {
        "created" : {
          "at" : "2023-03-06T17:29:09.873259Z",
          "via" : "OAS3_IMPORT"
        },
        "oas" : {
          "operationId" : "getEvents",
          "schema" : {
            "properties" : {
              "error" : {
                "description" : "A human readable description of the error",
                "example" : "Forbidden",
                "type" : "string"
              },
              "message" : {
                "description" : "A longer description of the error",
                "example" : "An example goes here",
                "type" : "string"
              },
              "status" : {
                "description" : "The HTTP Status code of the error",
                "example" : 403,
                "type" : "integer"
              }
            },
            "type" : "object"
          }
        }
      }
    }
  }, {
    "id" : "ff6acb73-caa7-45e1-ab7b-0e1677923a6d",
    "name" : "Retrieve audit events",
    "request" : {
      "urlPath" : "/events",
      "method" : "GET"
    },
    "response" : {
      "status" : 401,
      "body" : "{\n  \"error\" : \"Unauthorized\",\n  \"message\" : \"Full authentication is required. JWT was not found in \\\"Authorization\\\" HTTP header.\",\n  \"status\" : 401\n}",
      "headers" : {
        "Content-Type" : "application/json"
      }
    },
    "uuid" : "ff6acb73-caa7-45e1-ab7b-0e1677923a6d",
    "persistent" : true,
    "metadata" : {
      "mocklab" : {
        "created" : {
          "at" : "2023-03-06T17:29:09.8732Z",
          "via" : "OAS3_IMPORT"
        },
        "oas" : {
          "operationId" : "getEvents",
          "schema" : {
            "properties" : {
              "error" : {
                "description" : "A human readable description of the error",
                "example" : "Unauthorized",
                "type" : "string"
              },
              "message" : {
                "description" : "A longer description of the error",
                "example" : "Full authentication is required. JWT was not found in \"Authorization\" HTTP header.",
                "type" : "string"
              },
              "status" : {
                "description" : "The HTTP Status code of the error",
                "example" : 401,
                "type" : "integer"
              }
            },
            "type" : "object"
          }
        }
      }
    }
  }, {
    "id" : "42e968b9-7dbe-487d-91b6-c1f2e5864282",
    "name" : "Retrieve audit events",
    "request" : {
      "urlPath" : "/events",
      "method" : "GET"
    },
    "response" : {
      "status" : 200,
      "body" : "{\n  \"_embedded\" : {\n    \"events\" : [ {\n      \"user_email\" : \"user@example.org\",\n      \"_links\" : {\n        \"self\" : {\n          \"href\" : \"https://api.nexmo.com/beta/audit/events/aaaaaaaa-bbbb-cccc-dddd-0123456789ab\"\n        }\n      },\n      \"created_at\" : \"2018-07-04T11:41:32\",\n      \"source\" : \"CD\",\n      \"source_ip\" : \"192.0.2.0\",\n      \"account_id\" : \"abcd1234\",\n      \"event_type\" : \"APP_CREATE\",\n      \"source_country\" : \"GB\",\n      \"user_id\" : 1234567,\n      \"context\" : {\n        \"created\" : {\n          \"accountId\" : \"abcdef01\",\n          \"answer_url\" : {\n            \"method\" : \"GET\",\n            \"url\" : \"https://example.org/call\"\n          },\n          \"appId\" : \"aaaaaaaa-bbbb-cccc-dddd-0123456789ab\",\n          \"event_url\" : {\n            \"method\" : \"POST\",\n            \"url\" : \"https://example.org/event\"\n          },\n          \"name\" : \"My voice app\",\n          \"type\" : \"voice\"\n        }\n      },\n      \"id\" : \"aaaaaaaa-bbbb-cccc-dddd-0123456789ab\",\n      \"event_type_description\" : \"Application created.\",\n      \"source_description\" : \"Customer Dashboard\"\n    }, {\n      \"user_email\" : \"user@example.org\",\n      \"_links\" : {\n        \"self\" : {\n          \"href\" : \"https://api.nexmo.com/beta/audit/events/aaaaaaaa-bbbb-cccc-dddd-0123456789ab\"\n        }\n      },\n      \"created_at\" : \"2018-07-04T11:41:32\",\n      \"source\" : \"CD\",\n      \"source_ip\" : \"192.0.2.0\",\n      \"account_id\" : \"abcd1234\",\n      \"event_type\" : \"APP_CREATE\",\n      \"source_country\" : \"GB\",\n      \"user_id\" : 1234567,\n      \"context\" : {\n        \"created\" : {\n          \"accountId\" : \"abcdef01\",\n          \"answer_url\" : {\n            \"method\" : \"GET\",\n            \"url\" : \"https://example.org/call\"\n          },\n          \"appId\" : \"aaaaaaaa-bbbb-cccc-dddd-0123456789ab\",\n          \"event_url\" : {\n            \"method\" : \"POST\",\n            \"url\" : \"https://example.org/event\"\n          },\n          \"name\" : \"My voice app\",\n          \"type\" : \"voice\"\n        }\n      },\n      \"id\" : \"aaaaaaaa-bbbb-cccc-dddd-0123456789ab\",\n      \"event_type_description\" : \"Application created.\",\n      \"source_description\" : \"Customer Dashboard\"\n    }, {\n      \"user_email\" : \"user@example.org\",\n      \"_links\" : {\n        \"self\" : {\n          \"href\" : \"https://api.nexmo.com/beta/audit/events/aaaaaaaa-bbbb-cccc-dddd-0123456789ab\"\n        }\n      },\n      \"created_at\" : \"2018-07-04T11:41:32\",\n      \"source\" : \"CD\",\n      \"source_ip\" : \"192.0.2.0\",\n      \"account_id\" : \"abcd1234\",\n      \"event_type\" : \"APP_CREATE\",\n      \"source_country\" : \"GB\",\n      \"user_id\" : 1234567,\n      \"context\" : {\n        \"created\" : {\n          \"accountId\" : \"abcdef01\",\n          \"answer_url\" : {\n            \"method\" : \"GET\",\n            \"url\" : \"https://example.org/call\"\n          },\n          \"appId\" : \"aaaaaaaa-bbbb-cccc-dddd-0123456789ab\",\n          \"event_url\" : {\n            \"method\" : \"POST\",\n            \"url\" : \"https://example.org/event\"\n          },\n          \"name\" : \"My voice app\",\n          \"type\" : \"voice\"\n        }\n      },\n      \"id\" : \"aaaaaaaa-bbbb-cccc-dddd-0123456789ab\",\n      \"event_type_description\" : \"Application created.\",\n      \"source_description\" : \"Customer Dashboard\"\n    }, {\n      \"user_email\" : \"user@example.org\",\n      \"_links\" : {\n        \"self\" : {\n          \"href\" : \"https://api.nexmo.com/beta/audit/events/aaaaaaaa-bbbb-cccc-dddd-0123456789ab\"\n        }\n      },\n      \"created_at\" : \"2018-07-04T11:41:32\",\n      \"source\" : \"CD\",\n      \"source_ip\" : \"192.0.2.0\",\n      \"account_id\" : \"abcd1234\",\n      \"event_type\" : \"APP_CREATE\",\n      \"source_country\" : \"GB\",\n      \"user_id\" : 1234567,\n      \"context\" : {\n        \"created\" : {\n          \"accountId\" : \"abcdef01\",\n          \"answer_url\" : {\n            \"method\" : \"GET\",\n            \"url\" : \"https://example.org/call\"\n          },\n          \"appId\" : \"aaaaaaaa-bbbb-cccc-dddd-0123456789ab\",\n          \"event_url\" : {\n            \"method\" : \"POST\",\n            \"url\" : \"https://example.org/event\"\n          },\n          \"name\" : \"My voice app\",\n          \"type\" : \"voice\"\n        }\n      },\n      \"id\" : \"aaaaaaaa-bbbb-cccc-dddd-0123456789ab\",\n      \"event_type_description\" : \"Application created.\",\n      \"source_description\" : \"Customer Dashboard\"\n    } ]\n  },\n  \"_links\" : {\n    \"next\" : {\n      \"href\" : \"http://api.nexmo.com/beta/audit/events?page=2&size=30\"\n    },\n    \"last\" : {\n      \"href\" : \"http://api.nexmo.com/beta/audit/events?page=2&size=30\"\n    },\n    \"self\" : {\n      \"href\" : \"http://api.nexmo.com/beta/audit/events\"\n    }\n  },\n  \"page\" : {\n    \"number\" : 1,\n    \"size\" : 100,\n    \"totalPages\" : 2,\n    \"totalElements\" : 120\n  }\n}",
      "headers" : {
        "Content-Type" : "application/json"
      }
    },
    "uuid" : "42e968b9-7dbe-487d-91b6-c1f2e5864282",
    "persistent" : true,
    "metadata" : {
      "mocklab" : {
        "created" : {
          "at" : "2023-03-06T17:29:09.873106Z",
          "via" : "OAS3_IMPORT"
        },
        "oas" : {
          "operationId" : "getEvents",
          "schema" : {
            "properties" : {
              "_embedded" : {
                "description" : "Container containing the `events` array.",
                "properties" : {
                  "events" : {
                    "items" : {
                      "$ref" : "#/components/schemas/AuditEvent"
                    },
                    "type" : "array"
                  }
                },
                "type" : "object"
              },
              "_links" : {
                "$ref" : "#/components/schemas/PaginationLinks"
              },
              "page" : {
                "$ref" : "#/components/schemas/PaginationData"
              }
            },
            "type" : "object"
          }
        }
      }
    }
  } ]
}