{
  "mappings" : [ {
    "id" : "ed6fa2c6-3a92-426b-a9fb-283ac5fe47c4",
    "name" : "Get user data by account ID and user ID",
    "request" : {
      "urlPath" : "/api/accounts/2fby/users/1.2393602530932349E308",
      "method" : "GET"
    },
    "response" : {
      "status" : 404,
      "body" : "{\n  \"msg\" : \"zg8sjjix7pcdjq9x0ibljavjiznryblcm8nd12sm2dbul84mmvszbzd2b03li4x74aptxq7k6k1ywhwwlfaug05br20po65t5i0kk22lzxaqletnb3oq6y1lqgqbett13b92hn2d1mqfqxkx2r2rwka5ksp76ed\",\n  \"status\" : 1.3656777098837882E308\n}",
      "headers" : {
        "Content-Type" : "application/json"
      }
    },
    "uuid" : "ed6fa2c6-3a92-426b-a9fb-283ac5fe47c4",
    "persistent" : true,
    "metadata" : {
      "mocklab" : {
        "created" : {
          "at" : "2023-03-28T09:24:34.055561Z",
          "via" : "OAS3_IMPORT"
        },
        "oas" : {
          "operationId" : "UserCtrl.getUserByID",
          "schema" : {
            "properties" : {
              "msg" : {
                "description" : "Error message",
                "type" : "string"
              },
              "status" : {
                "description" : "Http Response Code",
                "type" : "number"
              }
            },
            "type" : "object"
          }
        }
      }
    },
    "insertionIndex" : 0
  }, {
    "id" : "a2ee988c-c48f-47c0-be7e-318ba9a66e2b",
    "name" : "Get user data by account ID and user ID",
    "request" : {
      "urlPath" : "/api/accounts/98d5/users/1.623136867064994E308",
      "method" : "GET"
    },
    "response" : {
      "status" : 200,
      "body" : "{\n  \"_embedded\" : {\n    \"data\" : {\n      \"extensions\" : [ {\n        \"extension_number\" : \"789\",\n        \"dids\" : [ { }, { }, { }, { }, { }, { }, { } ]\n      }, {\n        \"extension_number\" : \"789\",\n        \"dids\" : [ { }, { }, { }, { }, { }, { } ]\n      } ],\n      \"login_name\" : \"jsmith\",\n      \"contact_numbers\" : [ {\n        \"type\" : \"Home\",\n        \"value\" : \"14155550100\"\n      }, {\n        \"type\" : \"Home\",\n        \"value\" : \"14155550100\"\n      }, {\n        \"type\" : \"Home\",\n        \"value\" : \"14155550100\"\n      } ],\n      \"last_name\" : \"Smith\",\n      \"id\" : 869048,\n      \"first_name\" : \"John\",\n      \"email\" : \"john.smith@example.com\"\n    }\n  },\n  \"_links\" : {\n    \"next\" : {\n      \"href\" : \"8k0g3bc7rt3rl8iu6510j2dfsglzwtkkyk83ehb9g8svd6pbgvidptbugh597cljp\"\n    },\n    \"prev\" : {\n      \"href\" : \"4pzkacaian61j7dz7341cnlmwt0x\"\n    },\n    \"self\" : {\n      \"href\" : \"6om31qb1te3xfndmd8m54sdo8akt0i2kmgih2iwvvqj66qck4fnsaaprwlx73rj207lorjsssud1aefgysb97a6eo41gdw554\"\n    },\n    \"first\" : {\n      \"href\" : \"a0nfu5\"\n    }\n  },\n  \"page\" : 1,\n  \"total_pages\" : 10,\n  \"total_items\" : 100,\n  \"page_size\" : 10\n}",
      "headers" : {
        "Content-Type" : "application/json"
      }
    },
    "uuid" : "a2ee988c-c48f-47c0-be7e-318ba9a66e2b",
    "persistent" : true,
    "metadata" : {
      "mocklab" : {
        "created" : {
          "at" : "2023-03-28T09:24:34.055312Z",
          "via" : "OAS3_IMPORT"
        },
        "oas" : {
          "operationId" : "UserCtrl.getUserByID",
          "schema" : {
            "properties" : {
              "_embedded" : {
                "$ref" : "#/components/schemas/UserEmbeddedObject"
              },
              "_links" : {
                "$ref" : "#/components/schemas/Links"
              },
              "page" : {
                "description" : "Current page number",
                "example" : 1,
                "type" : "number"
              },
              "page_size" : {
                "description" : "Number of records per page",
                "example" : 10,
                "type" : "number"
              },
              "total_items" : {
                "description" : "Total number of records",
                "example" : 100,
                "type" : "number"
              },
              "total_pages" : {
                "description" : "Total number of pages",
                "example" : 10,
                "type" : "number"
              }
            },
            "type" : "object"
          }
        }
      }
    },
    "insertionIndex" : 1
  }, {
    "id" : "97ab62b5-1aa9-48fd-a4b5-4fe2c258496c",
    "name" : "Get account users data by account ID",
    "request" : {
      "urlPath" : "/api/accounts/040d/users",
      "method" : "GET"
    },
    "response" : {
      "status" : 400,
      "body" : "{\n  \"instance\" : \"dyymjz5cn2ot4e3srzzw3q17mozkagxc858f8c7vvge9vn8wxw4u1ncjnlfp9v1j22xml7w9rdp5jcddsmz1ixgdx4a94m0cu10hvd0wd6qq64qrycuhz0ld5n53jcls4zbwrmz6o9snycnqqeffezc4fs8gqkobp33mnx6d5tg9pw9vht\",\n  \"title\" : \"Repellendus quod amet ut.\",\n  \"invalid_parameters\" : [ {\n    \"reason\" : \"p90s82\",\n    \"name\" : \"Rachal Harvey\"\n  }, {\n    \"reason\" : \"th3vw32\",\n    \"name\" : \"Conrad Hoeger\"\n  }, {\n    \"reason\" : \"frx4e37ep34p0jnw1t1b6w85w1dnjs6c\",\n    \"name\" : \"Twana Buckridge DVM\"\n  }, {\n    \"reason\" : \"gacbshzg9updgd2zkjhs4w0ybn570x1won\",\n    \"name\" : \"Juliane Dietrich\"\n  }, {\n    \"reason\" : \"bv87t2b5qmoke9p7opmur8ixunonkfuwolft3g9z0oy7a28dv31b5v4kpsmbj8du1c3559w92t51f3p4ypif00tu6eobucp4shbj\",\n    \"name\" : \"Matthew Toy\"\n  } ],\n  \"status\" : 1.5000913257551458E308\n}",
      "headers" : {
        "Content-Type" : "application/json"
      }
    },
    "uuid" : "97ab62b5-1aa9-48fd-a4b5-4fe2c258496c",
    "persistent" : true,
    "metadata" : {
      "mocklab" : {
        "created" : {
          "at" : "2023-03-28T09:24:34.054852Z",
          "via" : "OAS3_IMPORT"
        },
        "oas" : {
          "operationId" : "UserCtrl.getUsers",
          "schema" : {
            "properties" : {
              "instance" : {
                "description" : "Error Track ID",
                "type" : "string"
              },
              "invalid_parameters" : {
                "description" : "Invalid parameters and their reason for failing",
                "items" : {
                  "$ref" : "#/components/schemas/DetailedInvalidParam"
                },
                "type" : "array"
              },
              "status" : {
                "description" : "Error status code",
                "type" : "number"
              },
              "title" : {
                "description" : "Error title",
                "type" : "string"
              }
            },
            "type" : "object"
          }
        }
      }
    },
    "insertionIndex" : 2
  }, {
    "id" : "b8dddfb1-0088-445f-b044-8efd45606c69",
    "name" : "Get account users data by account ID",
    "request" : {
      "urlPath" : "/api/accounts/33ym/users",
      "method" : "GET"
    },
    "response" : {
      "status" : 200,
      "body" : "{\n  \"_embedded\" : {\n    \"data\" : [ {\n      \"extensions\" : [ {\n        \"extension_number\" : \"789\",\n        \"dids\" : [ { }, { }, { }, { }, { }, { }, { } ]\n      } ],\n      \"login_name\" : \"jsmith\",\n      \"contact_numbers\" : [ {\n        \"type\" : \"Home\",\n        \"value\" : \"14155550100\"\n      }, {\n        \"type\" : \"Home\",\n        \"value\" : \"14155550100\"\n      }, {\n        \"type\" : \"Home\",\n        \"value\" : \"14155550100\"\n      }, {\n        \"type\" : \"Home\",\n        \"value\" : \"14155550100\"\n      }, {\n        \"type\" : \"Home\",\n        \"value\" : \"14155550100\"\n      }, {\n        \"type\" : \"Home\",\n        \"value\" : \"14155550100\"\n      }, {\n        \"type\" : \"Home\",\n        \"value\" : \"14155550100\"\n      }, {\n        \"type\" : \"Home\",\n        \"value\" : \"14155550100\"\n      } ],\n      \"last_name\" : \"Smith\",\n      \"id\" : 869048,\n      \"first_name\" : \"John\",\n      \"email\" : \"john.smith@example.com\"\n    } ]\n  },\n  \"_links\" : {\n    \"next\" : {\n      \"href\" : \"55ezofjag2hfss84msyc0b1vkqg338ag7q02jk9nswc093kkrkz53sqz6w97sa8xgf90sal8k23mumk2hqeamviiy8kgxo34hnmum0zh16yohvzw9fplx9aa48hszdqngoere7jt1miayy4nmdbhg2rogmtqh2zsr51f8qpqycrd668jrpdy2dz0awz\"\n    },\n    \"prev\" : {\n      \"href\" : \"r0hs38odidthu6wywbgl7uhe22kb6suswx7z8f07ql9zaypllw7cuypvbl8no7g96agui9ixxwb7ry9dhrq1s4my8tis61jhx1rjg762xhxp3rsl7m975fnfhsxdoao8cdryxxh449\"\n    },\n    \"self\" : {\n      \"href\" : \"w63i2maago81fg4dm2eh\"\n    },\n    \"first\" : {\n      \"href\" : \"6s03e0in0em2dde61zlm7v0w9vlxfxy59svs0n685ifwdd3kpr3yxfyvg5lhrcbawscxb17frkbv2ggvy4zt64g32jpkz58wqxai2yu4u2w7d0\"\n    }\n  },\n  \"page\" : 1,\n  \"total_pages\" : 10,\n  \"total_items\" : 100,\n  \"page_size\" : 10\n}",
      "headers" : {
        "Content-Type" : "application/json"
      }
    },
    "uuid" : "b8dddfb1-0088-445f-b044-8efd45606c69",
    "persistent" : true,
    "metadata" : {
      "mocklab" : {
        "created" : {
          "at" : "2023-03-28T09:24:34.054271Z",
          "via" : "OAS3_IMPORT"
        },
        "oas" : {
          "operationId" : "UserCtrl.getUsers",
          "schema" : {
            "properties" : {
              "_embedded" : {
                "$ref" : "#/components/schemas/UsersEmbeddedObject"
              },
              "_links" : {
                "$ref" : "#/components/schemas/Links"
              },
              "page" : {
                "description" : "Current page number",
                "example" : 1,
                "type" : "number"
              },
              "page_size" : {
                "description" : "Number of records per page",
                "example" : 10,
                "type" : "number"
              },
              "total_items" : {
                "description" : "Total number of records",
                "example" : 100,
                "type" : "number"
              },
              "total_pages" : {
                "description" : "Total number of pages",
                "example" : 10,
                "type" : "number"
              }
            },
            "type" : "object"
          }
        }
      }
    },
    "insertionIndex" : 3
  } ]
}