{
  "mappings" : [ {
    "id" : "2ec394d2-0e80-4cde-abbc-4c4b959a1e4a",
    "name" : "Get user data by account ID and user ID",
    "request" : {
      "urlPath" : "/api/accounts/eyz3/users/4.803883818115483E307",
      "method" : "GET"
    },
    "response" : {
      "status" : 404,
      "body" : "{\n  \"msg\" : \"rwytu5pav4vm8ar4awi93cm1svdra5f5v4ul1u1urrkrcwurvnaltzc6v2whpysbkmnaz0zdhwwpnrzpldmzk0i3a7rbivbbr6ya4hqhicr\",\n  \"status\" : 7.386951055359769E307\n}",
      "headers" : {
        "Content-Type" : "application/json"
      }
    },
    "uuid" : "2ec394d2-0e80-4cde-abbc-4c4b959a1e4a",
    "persistent" : true,
    "metadata" : {
      "mocklab" : {
        "created" : {
          "at" : "2023-03-13T12:21:02.787141Z",
          "via" : "OAS3_IMPORT"
        },
        "oas" : {
          "operationId" : "UserCtrl.getUserByID",
          "schema" : {
            "properties" : {
              "msg" : {
                "description" : "Error message",
                "type" : "string"
              },
              "status" : {
                "description" : "Http Response Code",
                "type" : "number"
              }
            },
            "type" : "object"
          }
        }
      }
    },
    "insertionIndex" : 0
  }, {
    "id" : "3b92afc0-52a6-43d5-8f59-0d12cd6a1257",
    "name" : "Get user data by account ID and user ID",
    "request" : {
      "urlPath" : "/api/accounts/68wt/users/3.236081042482901E307",
      "method" : "GET"
    },
    "response" : {
      "status" : 200,
      "body" : "{\n  \"_embedded\" : {\n    \"data\" : {\n      \"extensions\" : [ {\n        \"extension_number\" : \"789\",\n        \"dids\" : [ { }, { }, { }, { }, { }, { }, { } ]\n      }, {\n        \"extension_number\" : \"789\",\n        \"dids\" : [ { }, { }, { }, { }, { }, { }, { }, { } ]\n      } ],\n      \"login_name\" : \"jsmith\",\n      \"contact_numbers\" : [ {\n        \"type\" : \"Home\",\n        \"value\" : \"14155550100\"\n      }, {\n        \"type\" : \"Home\",\n        \"value\" : \"14155550100\"\n      }, {\n        \"type\" : \"Home\",\n        \"value\" : \"14155550100\"\n      }, {\n        \"type\" : \"Home\",\n        \"value\" : \"14155550100\"\n      }, {\n        \"type\" : \"Home\",\n        \"value\" : \"14155550100\"\n      }, {\n        \"type\" : \"Home\",\n        \"value\" : \"14155550100\"\n      }, {\n        \"type\" : \"Home\",\n        \"value\" : \"14155550100\"\n      } ],\n      \"last_name\" : \"Smith\",\n      \"id\" : 869048,\n      \"first_name\" : \"John\",\n      \"email\" : \"john.smith@example.com\"\n    }\n  },\n  \"_links\" : {\n    \"next\" : {\n      \"href\" : \"8h66g0o3pgfl19u9q8a4rc6miusb4o8tva997jffbjz1j6ivb8gqfzmkfng1fodwgvwn5brw4nol1eokdql6lxwiuqi1111fn23xns0n9mtq\"\n    },\n    \"prev\" : {\n      \"href\" : \"tkvcughbczp3ull2nu1ygz6cihvq3vvrwei0cukoj\"\n    },\n    \"self\" : {\n      \"href\" : \"qbp7f098pxpfwhzr6wfzjp1pksgqvw1v3n29fyuhuk\"\n    },\n    \"first\" : {\n      \"href\" : \"td135gqwqtqw2jqbn8pdqrq6v2ruiis59e5cqhaptorxzwdmmpcptnme6217z1p8j5twvd4limc69r3i3ue5tinrmmel3hctid5m8dc0551a81op02wa4yshqjlhu6sjqy0algvmzkomspog9tt\"\n    }\n  },\n  \"page\" : 1,\n  \"total_pages\" : 10,\n  \"total_items\" : 100,\n  \"page_size\" : 10\n}",
      "headers" : {
        "Content-Type" : "application/json"
      }
    },
    "uuid" : "3b92afc0-52a6-43d5-8f59-0d12cd6a1257",
    "persistent" : true,
    "metadata" : {
      "mocklab" : {
        "created" : {
          "at" : "2023-03-13T12:21:02.78699Z",
          "via" : "OAS3_IMPORT"
        },
        "oas" : {
          "operationId" : "UserCtrl.getUserByID",
          "schema" : {
            "properties" : {
              "_embedded" : {
                "$ref" : "#/components/schemas/UserEmbeddedObject"
              },
              "_links" : {
                "$ref" : "#/components/schemas/Links"
              },
              "page" : {
                "description" : "Current page number",
                "example" : 1,
                "type" : "number"
              },
              "page_size" : {
                "description" : "Number of records per page",
                "example" : 10,
                "type" : "number"
              },
              "total_items" : {
                "description" : "Total number of records",
                "example" : 100,
                "type" : "number"
              },
              "total_pages" : {
                "description" : "Total number of pages",
                "example" : 10,
                "type" : "number"
              }
            },
            "type" : "object"
          }
        }
      }
    },
    "insertionIndex" : 1
  }, {
    "id" : "e179f1b9-2e58-4cbd-b78c-2491cbc7cd90",
    "name" : "Get account users data by account ID",
    "request" : {
      "urlPath" : "/api/accounts/62o5/users",
      "method" : "GET"
    },
    "response" : {
      "status" : 400,
      "body" : "{\n  \"instance\" : \"h9bre79cu81h1wnogoibmuv3ams2crwhxel86gsu0oz8or7hq89s4gh19u3rr1zqefm2jaydpxfig4wkw6rscp0q9l5vx2ecmbslgjilqfo\",\n  \"title\" : \"Debitis vel ab.\",\n  \"invalid_parameters\" : [ {\n    \"reason\" : \"9cc22mgpc85qf9jf4rlnf68mywksy5wenjs5cjvosrne5rfs32jad27wxkaw23ibw4hsrbee3hjbwx3i36h2qufji6g6yytjjs7vj5dkq7snq77hz2gbakh5cplju7byw6a17qivxwz\",\n    \"name\" : \"Sol Buckridge\"\n  }, {\n    \"reason\" : \"b6f412gwvmzmrg2w1z12wkijjg0iui4yidy0rveqhqtabk6\",\n    \"name\" : \"Katy Zemlak PhD\"\n  } ],\n  \"status\" : 3.9385849273919397E307\n}",
      "headers" : {
        "Content-Type" : "application/json"
      }
    },
    "uuid" : "e179f1b9-2e58-4cbd-b78c-2491cbc7cd90",
    "persistent" : true,
    "metadata" : {
      "mocklab" : {
        "created" : {
          "at" : "2023-03-13T12:21:02.786652Z",
          "via" : "OAS3_IMPORT"
        },
        "oas" : {
          "operationId" : "UserCtrl.getUsers",
          "schema" : {
            "properties" : {
              "instance" : {
                "description" : "Error Track ID",
                "type" : "string"
              },
              "invalid_parameters" : {
                "description" : "Invalid parameters and their reason for failing",
                "items" : {
                  "$ref" : "#/components/schemas/DetailedInvalidParam"
                },
                "type" : "array"
              },
              "status" : {
                "description" : "Error status code",
                "type" : "number"
              },
              "title" : {
                "description" : "Error title",
                "type" : "string"
              }
            },
            "type" : "object"
          }
        }
      }
    },
    "insertionIndex" : 2
  }, {
    "id" : "ac9d71bc-aef7-446e-ad49-cab63020c069",
    "name" : "Get account users data by account ID",
    "request" : {
      "urlPath" : "/api/accounts/6gk2/users",
      "method" : "GET"
    },
    "response" : {
      "status" : 200,
      "body" : "{\n  \"_embedded\" : {\n    \"data\" : [ {\n      \"extensions\" : [ {\n        \"extension_number\" : \"789\",\n        \"dids\" : [ { }, { }, { } ]\n      }, {\n        \"extension_number\" : \"789\",\n        \"dids\" : [ { }, { }, { }, { } ]\n      }, {\n        \"extension_number\" : \"789\",\n        \"dids\" : [ { }, { }, { }, { }, { } ]\n      }, {\n        \"extension_number\" : \"789\",\n        \"dids\" : [ { }, { }, { }, { }, { } ]\n      } ],\n      \"login_name\" : \"jsmith\",\n      \"contact_numbers\" : [ {\n        \"type\" : \"Home\",\n        \"value\" : \"14155550100\"\n      } ],\n      \"last_name\" : \"Smith\",\n      \"id\" : 869048,\n      \"first_name\" : \"John\",\n      \"email\" : \"john.smith@example.com\"\n    }, {\n      \"extensions\" : [ {\n        \"extension_number\" : \"789\",\n        \"dids\" : [ { }, { }, { }, { }, { }, { } ]\n      }, {\n        \"extension_number\" : \"789\",\n        \"dids\" : [ { }, { }, { } ]\n      } ],\n      \"login_name\" : \"jsmith\",\n      \"contact_numbers\" : [ {\n        \"type\" : \"Home\",\n        \"value\" : \"14155550100\"\n      }, {\n        \"type\" : \"Home\",\n        \"value\" : \"14155550100\"\n      }, {\n        \"type\" : \"Home\",\n        \"value\" : \"14155550100\"\n      }, {\n        \"type\" : \"Home\",\n        \"value\" : \"14155550100\"\n      }, {\n        \"type\" : \"Home\",\n        \"value\" : \"14155550100\"\n      }, {\n        \"type\" : \"Home\",\n        \"value\" : \"14155550100\"\n      } ],\n      \"last_name\" : \"Smith\",\n      \"id\" : 869048,\n      \"first_name\" : \"John\",\n      \"email\" : \"john.smith@example.com\"\n    }, {\n      \"extensions\" : [ {\n        \"extension_number\" : \"789\",\n        \"dids\" : [ { }, { }, { }, { }, { }, { }, { }, { } ]\n      }, {\n        \"extension_number\" : \"789\",\n        \"dids\" : [ { }, { }, { }, { }, { }, { }, { } ]\n      }, {\n        \"extension_number\" : \"789\",\n        \"dids\" : [ { }, { }, { }, { } ]\n      }, {\n        \"extension_number\" : \"789\",\n        \"dids\" : [ { }, { }, { }, { }, { } ]\n      }, {\n        \"extension_number\" : \"789\",\n        \"dids\" : [ { }, { }, { }, { } ]\n      }, {\n        \"extension_number\" : \"789\",\n        \"dids\" : [ { } ]\n      } ],\n      \"login_name\" : \"jsmith\",\n      \"contact_numbers\" : [ {\n        \"type\" : \"Home\",\n        \"value\" : \"14155550100\"\n      }, {\n        \"type\" : \"Home\",\n        \"value\" : \"14155550100\"\n      }, {\n        \"type\" : \"Home\",\n        \"value\" : \"14155550100\"\n      }, {\n        \"type\" : \"Home\",\n        \"value\" : \"14155550100\"\n      } ],\n      \"last_name\" : \"Smith\",\n      \"id\" : 869048,\n      \"first_name\" : \"John\",\n      \"email\" : \"john.smith@example.com\"\n    }, {\n      \"extensions\" : [ {\n        \"extension_number\" : \"789\",\n        \"dids\" : [ { }, { }, { } ]\n      }, {\n        \"extension_number\" : \"789\",\n        \"dids\" : [ { } ]\n      }, {\n        \"extension_number\" : \"789\",\n        \"dids\" : [ { }, { }, { }, { }, { }, { } ]\n      }, {\n        \"extension_number\" : \"789\",\n        \"dids\" : [ { }, { }, { }, { }, { }, { }, { }, { } ]\n      }, {\n        \"extension_number\" : \"789\",\n        \"dids\" : [ { }, { }, { }, { }, { } ]\n      }, {\n        \"extension_number\" : \"789\",\n        \"dids\" : [ { }, { }, { }, { }, { }, { }, { } ]\n      } ],\n      \"login_name\" : \"jsmith\",\n      \"contact_numbers\" : [ {\n        \"type\" : \"Home\",\n        \"value\" : \"14155550100\"\n      }, {\n        \"type\" : \"Home\",\n        \"value\" : \"14155550100\"\n      }, {\n        \"type\" : \"Home\",\n        \"value\" : \"14155550100\"\n      }, {\n        \"type\" : \"Home\",\n        \"value\" : \"14155550100\"\n      }, {\n        \"type\" : \"Home\",\n        \"value\" : \"14155550100\"\n      } ],\n      \"last_name\" : \"Smith\",\n      \"id\" : 869048,\n      \"first_name\" : \"John\",\n      \"email\" : \"john.smith@example.com\"\n    }, {\n      \"extensions\" : [ {\n        \"extension_number\" : \"789\",\n        \"dids\" : [ { }, { }, { }, { }, { }, { } ]\n      }, {\n        \"extension_number\" : \"789\",\n        \"dids\" : [ { }, { }, { }, { }, { }, { } ]\n      }, {\n        \"extension_number\" : \"789\",\n        \"dids\" : [ { }, { } ]\n      }, {\n        \"extension_number\" : \"789\",\n        \"dids\" : [ { }, { }, { }, { }, { } ]\n      }, {\n        \"extension_number\" : \"789\",\n        \"dids\" : [ { }, { }, { } ]\n      }, {\n        \"extension_number\" : \"789\",\n        \"dids\" : [ { }, { }, { }, { }, { } ]\n      } ],\n      \"login_name\" : \"jsmith\",\n      \"contact_numbers\" : [ {\n        \"type\" : \"Home\",\n        \"value\" : \"14155550100\"\n      }, {\n        \"type\" : \"Home\",\n        \"value\" : \"14155550100\"\n      } ],\n      \"last_name\" : \"Smith\",\n      \"id\" : 869048,\n      \"first_name\" : \"John\",\n      \"email\" : \"john.smith@example.com\"\n    } ]\n  },\n  \"_links\" : {\n    \"next\" : {\n      \"href\" : \"7k5eoc4ehhxoqph0icoan8vfm67qa1rwfpw6cdvv6mpj8l2srwr38al99sgghriyvwhyeofrou7l87bdncapzjsvjwtcva9o43r\"\n    },\n    \"prev\" : {\n      \"href\" : \"au6m3rjc0gtx5229b5vibh1y41at45836rok5xxp4261l9mul4n177voptoxwwm9mhj0zrv19piv2jwxhtgfoz0a\"\n    },\n    \"self\" : {\n      \"href\" : \"womsf1c70nu36sm33ldav57u3v5ptz6osmefkbddj3nxzud3vn7eab5nn9h2fb3x1lna0ikec1qkvkjyn1wcsfn4kkxnjpwbda2szwl\"\n    },\n    \"first\" : {\n      \"href\" : \"0z5sp71pp91cc7m2xrm129f8ujtarpg3xj8z6yim22ctq388dc2rtxglu1fbk6k1ix1g67re9nxq0b3cpg0jchubdc53ph7s9qbpqn0f\"\n    }\n  },\n  \"page\" : 1,\n  \"total_pages\" : 10,\n  \"total_items\" : 100,\n  \"page_size\" : 10\n}",
      "headers" : {
        "Content-Type" : "application/json"
      }
    },
    "uuid" : "ac9d71bc-aef7-446e-ad49-cab63020c069",
    "persistent" : true,
    "metadata" : {
      "mocklab" : {
        "created" : {
          "at" : "2023-03-13T12:21:02.786268Z",
          "via" : "OAS3_IMPORT"
        },
        "oas" : {
          "operationId" : "UserCtrl.getUsers",
          "schema" : {
            "properties" : {
              "_embedded" : {
                "$ref" : "#/components/schemas/UsersEmbeddedObject"
              },
              "_links" : {
                "$ref" : "#/components/schemas/Links"
              },
              "page" : {
                "description" : "Current page number",
                "example" : 1,
                "type" : "number"
              },
              "page_size" : {
                "description" : "Number of records per page",
                "example" : 10,
                "type" : "number"
              },
              "total_items" : {
                "description" : "Total number of records",
                "example" : 100,
                "type" : "number"
              },
              "total_pages" : {
                "description" : "Total number of pages",
                "example" : 10,
                "type" : "number"
              }
            },
            "type" : "object"
          }
        }
      }
    },
    "insertionIndex" : 3
  } ]
}