{
  "mappings" : [ {
    "id" : "2d6c3c5f-20a9-33dc-b28c-26c8665a9c06",
    "name" : "The find method currently returns information for a single recommendation type (... - 500",
    "request" : {
      "urlPath" : "/find",
      "method" : "POST"
    },
    "response" : {
      "status" : 500
    },
    "uuid" : "2d6c3c5f-20a9-33dc-b28c-26c8665a9c06",
    "persistent" : true,
    "metadata" : {
      "mocklab" : {
        "oas" : {
          "operationId" : "findListingRecommendations"
        }
      }
    },
    "insertionIndex" : 0
  }, {
    "id" : "012c19ab-750e-3084-becf-32bf22fdd55f",
    "name" : "The find method currently returns information for a single recommendation type (... - 400",
    "request" : {
      "urlPath" : "/find",
      "method" : "POST"
    },
    "response" : {
      "status" : 400
    },
    "uuid" : "012c19ab-750e-3084-becf-32bf22fdd55f",
    "persistent" : true,
    "metadata" : {
      "mocklab" : {
        "oas" : {
          "operationId" : "findListingRecommendations"
        }
      }
    },
    "insertionIndex" : 1
  }, {
    "id" : "f790ebf5-b7e4-34c9-9375-2de10de194d8",
    "name" : "The find method currently returns information for a single recommendation type (... - 204",
    "request" : {
      "urlPath" : "/find",
      "method" : "POST"
    },
    "response" : {
      "status" : 204
    },
    "uuid" : "f790ebf5-b7e4-34c9-9375-2de10de194d8",
    "persistent" : true,
    "metadata" : {
      "mocklab" : {
        "oas" : {
          "operationId" : "findListingRecommendations"
        }
      }
    },
    "insertionIndex" : 2
  }, {
    "id" : "073d82fc-11a3-30a0-a0e3-6cb55ee936d5",
    "name" : "The find method currently returns information for a single recommendation type (... (application/json;charset=UTF-8)",
    "request" : {
      "urlPath" : "/find",
      "method" : "POST",
      "headers" : {
        "Accept" : {
          "contains" : "application/json;charset=UTF-8"
        }
      }
    },
    "response" : {
      "status" : 200,
      "body" : "{\n  \"next\" : \"e71n28qf2svzn92mkeoxu0lsrb18zm2uztzzaylv56g5j3txa2khd92y3jej9rd8ok6seez1vrilg4xjvy3tyichztfadmaffa73x9y9jurcthqow7e7lcovsgxttara\",\n  \"total\" : 1068620619,\n  \"offset\" : 703430612,\n  \"prev\" : \"3aj400h8qdubi41remgvtg3dwbdly7nrx4levl8xceejclts91ja39cq8k6th9xfihrnyl77xfmsfxzz4asnro3btzznp4gnp2x80qzg3d\",\n  \"limit\" : 830286356,\n  \"listingRecommendations\" : [ {\n    \"marketing\" : {\n      \"ad\" : {\n        \"promoteWithAd\" : \"hgchkcq5ispqjq7s1rh1tt1hk0p80ld58dhckiweuxlhnd9rr1yw9jc0xp1v3c6z9848t91su4meezmxlullkx6edvr2a9zuxd750n63ehese0lx3i8qergjl1qx13h0nn8avbtvt5\",\n        \"bidPercentages\" : [ { }, { }, { }, { }, { } ]\n      },\n      \"message\" : \"Maxime vitae dolores cumque et eos veritatis voluptas. At autem eum vitae sequi quod dolorem. Ex veritatis possimus.\"\n    },\n    \"listingId\" : \"9m49\"\n  }, {\n    \"marketing\" : {\n      \"ad\" : {\n        \"promoteWithAd\" : \"wst9fm79tuy7fdpi5weri90jenjnfxy8ded\",\n        \"bidPercentages\" : [ { }, { }, { }, { } ]\n      },\n      \"message\" : \"Maiores praesentium quo aut repellat consectetur nobis. Voluptatem quo quo asperiores voluptas modi. Non ipsa alias. Nemo quis delectus maiores est. Corrupti sed molestiae sint.\"\n    },\n    \"listingId\" : \"8sp6\"\n  }, {\n    \"marketing\" : {\n      \"ad\" : {\n        \"promoteWithAd\" : \"12sl7gb1auh9po5134w9ik8vqzxi5bqnoglfkhv7k367cyxzns05xfax7zorl5bli3tlnv8eyoc89oors4hnouz6f1prto\",\n        \"bidPercentages\" : [ { } ]\n      },\n      \"message\" : \"Facere dignissimos necessitatibus sit voluptas delectus. Dicta iusto quae officia et qui. Quibusdam velit qui molestiae eum necessitatibus est. Vel voluptatem accusamus voluptatem odio voluptatem labo\"\n    },\n    \"listingId\" : \"qmwn\"\n  } ],\n  \"href\" : \"x987nykgultbhbrphix9xqvwrbwf3zbyvukpdy6o6rc8f3897jt7rq1a32j6qikfx3heh8xdy1v2wy6wmtfpfq50001f3ycdis971nv0a\"\n}",
      "headers" : {
        "Content-Type" : "application/json;charset=UTF-8"
      }
    },
    "uuid" : "073d82fc-11a3-30a0-a0e3-6cb55ee936d5",
    "persistent" : true,
    "metadata" : {
      "mocklab" : {
        "oas" : {
          "operationId" : "findListingRecommendations",
          "schema" : {
            "description" : "The high-level object used to return a set of Promoted Listings ad recommendations.",
            "properties" : {
              "href" : {
                "description" : "The URI of the current page of results from the result set.",
                "type" : "string"
              },
              "limit" : {
                "description" : "The number of items returned on a single page from the result set. This value can be set in the request with the limit query parameter.",
                "format" : "int32",
                "type" : "integer"
              },
              "listingRecommendations" : {
                "description" : "Returns a list of listingRecommendations, where each element in the list offers recommendations for the associated listingId. Which elements are returned depend on how you structure the request. For example, if you request recommendations for all of a sellers listings (by leaving the request payload empty), ad recommendations are returned only for those listings where promoteWithAd is set to RECOMMENDED.",
                "items" : {
                  "$ref" : "#/components/schemas/ListingRecommendation"
                },
                "type" : "array"
              },
              "next" : {
                "description" : "The URI for the following page of results. This value is returned only if there is an additional page of results to display from the result set. Max length: 2048",
                "type" : "string"
              },
              "offset" : {
                "description" : "The number of results skipped in the result set before listing the first returned result. This value can be set in the request with the offset query parameter. Note: The items in a paginated result set use a zero-based list where the first item in the list has an offset of 0.",
                "format" : "int32",
                "type" : "integer"
              },
              "prev" : {
                "description" : "The URI for the preceding page of results. This value is returned only if there is a previous page of results to display from the result set. Max length: 2048",
                "type" : "string"
              },
              "total" : {
                "description" : "The total number of items retrieved in the result set. If no items are found, this field is returned with a value of 0.",
                "format" : "int32",
                "type" : "integer"
              }
            },
            "type" : "object"
          }
        }
      }
    },
    "insertionIndex" : 3
  } ]
}