{
  "mappings" : [ {
    "id" : "02244a6f-e1e0-4176-b886-948060ce9c3b",
    "name" : "Get extension data by account ID and extension number",
    "request" : {
      "urlPath" : "/api/accounts/0493/extensions/4.319017052523161E307",
      "method" : "GET"
    },
    "response" : {
      "status" : 404,
      "body" : "{\n  \"msg\" : \"xgohqmtq2f097x982sxgj79rcqrltrm2nkcyl7364hojigognamrgjamabgssp5zvv373gwhurwvqa7tkrr18zcap\",\n  \"status\" : 1.0494517663678536E308\n}",
      "headers" : {
        "Content-Type" : "application/json"
      }
    },
    "uuid" : "02244a6f-e1e0-4176-b886-948060ce9c3b",
    "persistent" : true,
    "metadata" : {
      "mocklab" : {
        "created" : {
          "at" : "2023-03-13T12:21:02.329746Z",
          "via" : "OAS3_IMPORT"
        },
        "oas" : {
          "operationId" : "ExtensionCtrl.getAccountExtensionByID",
          "schema" : {
            "properties" : {
              "msg" : {
                "description" : "Error message",
                "type" : "string"
              },
              "status" : {
                "description" : "Http Response Code",
                "type" : "number"
              }
            },
            "type" : "object"
          }
        }
      }
    },
    "insertionIndex" : 0
  }, {
    "id" : "a51a33ec-bf0a-4361-987f-1f067f0b5481",
    "name" : "Get extension data by account ID and extension number",
    "request" : {
      "urlPath" : "/api/accounts/69lj/extensions/7.027266209821119E307",
      "method" : "GET"
    },
    "response" : {
      "status" : 200,
      "body" : "{\n  \"_embedded\" : {\n    \"data\" : {\n      \"dnd_enabled\" : false,\n      \"caller_id\" : \"John Smith\",\n      \"extension_number\" : \"789\",\n      \"block_caller_id\" : false,\n      \"dids\" : [ {\n        \"custom_tag\" : \"My Tag\",\n        \"phone_number\" : \"14155550100\"\n      }, {\n        \"custom_tag\" : \"My Tag\",\n        \"phone_number\" : \"14155550100\"\n      }, {\n        \"custom_tag\" : \"My Tag\",\n        \"phone_number\" : \"14155550100\"\n      } ],\n      \"vtt_enabled\" : true,\n      \"extension_handsets\" : [ {\n        \"sip_id\" : \"VH16370927\",\n        \"handset_name\" : \"line1-VH6370927\"\n      }, {\n        \"sip_id\" : \"VH16370927\",\n        \"handset_name\" : \"line1-VH6370927\"\n      }, {\n        \"sip_id\" : \"VH16370927\",\n        \"handset_name\" : \"line1-VH6370927\"\n      }, {\n        \"sip_id\" : \"VH16370927\",\n        \"handset_name\" : \"line1-VH6370927\"\n      }, {\n        \"sip_id\" : \"VH16370927\",\n        \"handset_name\" : \"line1-VH6370927\"\n      }, {\n        \"sip_id\" : \"VH16370927\",\n        \"handset_name\" : \"line1-VH6370927\"\n      } ],\n      \"user\" : {\n        \"login_name\" : \"jsmith\",\n        \"last_name\" : \"Smith\",\n        \"first_name\" : \"John\",\n        \"email\" : \"john.smith@example.com\"\n      },\n      \"location_id\" : 145214\n    }\n  },\n  \"_links\" : {\n    \"next\" : {\n      \"href\" : \"qe6qk010ezzlwjdnuxcfiuufu7ojmzj3guxvzcmoiyjjd49ied8m684cp1qacf4\"\n    },\n    \"prev\" : {\n      \"href\" : \"za8jykkxe9i0ihf7yhpd846tzmd83xz8c68tnxgu3otfy21nv7udcgagwjeompfbiwvdiaewur9dl\"\n    },\n    \"self\" : {\n      \"href\" : \"u9nsjof5i1hq9y8s94pkrof7e198y9gmyl016guwboalnuaibw3508evabkhfr7r7z3qa6he7bvpsj2j70ubn7\"\n    },\n    \"first\" : {\n      \"href\" : \"ae4b8lsq6koimb7lljx917nwxgsc5hh75kqc31m91tpmpubqj8gctkqsqoup6fvcjevflwcn3hnrs1r0hkh6ue\"\n    }\n  },\n  \"page\" : 1,\n  \"total_pages\" : 10,\n  \"total_items\" : 100,\n  \"page_size\" : 10\n}",
      "headers" : {
        "Content-Type" : "application/json"
      }
    },
    "uuid" : "a51a33ec-bf0a-4361-987f-1f067f0b5481",
    "persistent" : true,
    "metadata" : {
      "mocklab" : {
        "created" : {
          "at" : "2023-03-13T12:21:02.329596Z",
          "via" : "OAS3_IMPORT"
        },
        "oas" : {
          "operationId" : "ExtensionCtrl.getAccountExtensionByID",
          "schema" : {
            "properties" : {
              "_embedded" : {
                "$ref" : "#/components/schemas/EndUserRouteEmbeddedObject"
              },
              "_links" : {
                "$ref" : "#/components/schemas/Links"
              },
              "page" : {
                "description" : "Current page number",
                "example" : 1,
                "type" : "number"
              },
              "page_size" : {
                "description" : "Number of records per page",
                "example" : 10,
                "type" : "number"
              },
              "total_items" : {
                "description" : "Total number of records",
                "example" : 100,
                "type" : "number"
              },
              "total_pages" : {
                "description" : "Total number of pages",
                "example" : 10,
                "type" : "number"
              }
            },
            "type" : "object"
          }
        }
      }
    },
    "insertionIndex" : 1
  }, {
    "id" : "b8a9adce-3261-40c9-b51f-340ce13e30ce",
    "name" : "Get account extensions data by account ID",
    "request" : {
      "urlPath" : "/api/accounts/0oe8/extensions",
      "method" : "GET"
    },
    "response" : {
      "status" : 400,
      "body" : "{\n  \"instance\" : \"jw6862htcldj2e32yry3f70p8tfsklc541b0ik87fl2cvn3fwugetyjk2rzdaonb0i88op8clfkikhiworwvrjm16xm15zfpwnb7zkna0qlp2hkyoxdhtjx44y4zxhc9jxyd0nzne637szp96e3om2409uvj9vebpmtqqi5o\",\n  \"title\" : \"Nisi laborum est.\",\n  \"invalid_parameters\" : [ {\n    \"reason\" : \"dfr7e8m1rdwve6qyvfb2rw5hxe949dt5o6to5qxrvabu4v8l2xmhobmtginpsob2rlpd\",\n    \"name\" : \"August Prosacco\"\n  }, {\n    \"reason\" : \"imp17sbo8fi7jbv6e6grm7j\",\n    \"name\" : \"Rosena Spinka\"\n  }, {\n    \"reason\" : \"m05h59ie0cqz3o2t0atagx7lbh333ez\",\n    \"name\" : \"Federico O'Reilly\"\n  }, {\n    \"reason\" : \"4nl1uqi7dr4pqj6zwmxsgg\",\n    \"name\" : \"Toney Hoeger\"\n  }, {\n    \"reason\" : \"k0apkbrv\",\n    \"name\" : \"Kelley Heller\"\n  }, {\n    \"reason\" : \"je6cwllngwhni9nc7vya6qjbgyzj8l02zxnv67v5opnos7qhsnk6z2udmjzsxrdz2vvxrb1gofm9tc7p2s836zj69naawvisggjvr4\",\n    \"name\" : \"Winona McGlynn\"\n  } ],\n  \"status\" : 3.559760361849356E307\n}",
      "headers" : {
        "Content-Type" : "application/json"
      }
    },
    "uuid" : "b8a9adce-3261-40c9-b51f-340ce13e30ce",
    "persistent" : true,
    "metadata" : {
      "mocklab" : {
        "created" : {
          "at" : "2023-03-13T12:21:02.32928Z",
          "via" : "OAS3_IMPORT"
        },
        "oas" : {
          "operationId" : "ExtensionCtrl.getAccountExtensions",
          "schema" : {
            "properties" : {
              "instance" : {
                "description" : "Error Track ID",
                "type" : "string"
              },
              "invalid_parameters" : {
                "description" : "Invalid parameters and their reason for failing",
                "items" : {
                  "$ref" : "#/components/schemas/DetailedInvalidParam"
                },
                "type" : "array"
              },
              "status" : {
                "description" : "Error status code",
                "type" : "number"
              },
              "title" : {
                "description" : "Error title",
                "type" : "string"
              }
            },
            "type" : "object"
          }
        }
      }
    },
    "insertionIndex" : 2
  }, {
    "id" : "2cd13f76-807f-4521-9581-8f545f54eb6b",
    "name" : "Get account extensions data by account ID",
    "request" : {
      "urlPath" : "/api/accounts/4749/extensions",
      "method" : "GET"
    },
    "response" : {
      "status" : 200,
      "body" : "{\n  \"_embedded\" : {\n    \"data\" : {\n      \"dnd_enabled\" : false,\n      \"caller_id\" : \"John Smith\",\n      \"extension_number\" : \"789\",\n      \"block_caller_id\" : false,\n      \"dids\" : [ {\n        \"custom_tag\" : \"My Tag\",\n        \"phone_number\" : \"14155550100\"\n      }, {\n        \"custom_tag\" : \"My Tag\",\n        \"phone_number\" : \"14155550100\"\n      }, {\n        \"custom_tag\" : \"My Tag\",\n        \"phone_number\" : \"14155550100\"\n      }, {\n        \"custom_tag\" : \"My Tag\",\n        \"phone_number\" : \"14155550100\"\n      }, {\n        \"custom_tag\" : \"My Tag\",\n        \"phone_number\" : \"14155550100\"\n      }, {\n        \"custom_tag\" : \"My Tag\",\n        \"phone_number\" : \"14155550100\"\n      }, {\n        \"custom_tag\" : \"My Tag\",\n        \"phone_number\" : \"14155550100\"\n      } ],\n      \"vtt_enabled\" : true,\n      \"extension_handsets\" : [ {\n        \"sip_id\" : \"VH16370927\",\n        \"handset_name\" : \"line1-VH6370927\"\n      } ],\n      \"user\" : {\n        \"login_name\" : \"jsmith\",\n        \"last_name\" : \"Smith\",\n        \"first_name\" : \"John\",\n        \"email\" : \"john.smith@example.com\"\n      },\n      \"location_id\" : 145214\n    }\n  },\n  \"_links\" : {\n    \"next\" : {\n      \"href\" : \"b6wpruduphuxnaeosthuxcdn2xqxsmhuqx4na2e4s0y3mc5njxatmvat\"\n    },\n    \"prev\" : {\n      \"href\" : \"qv0g018h64t80d2syyqdfarri16zy1wb1s7l9u8lozcz2mlt\"\n    },\n    \"self\" : {\n      \"href\" : \"xahdx45lofzepsxeyspa3o60eiao44qbfle07i3im03kk4cvg0u3z7v1rs51j9bpub8wdjltzrmogjhjmcmfgzryszsll0knun8lzuk9yaf6ty2a68yifbx\"\n    },\n    \"first\" : {\n      \"href\" : \"u5gxhykppfzd9ccu889htitacumjaf8mnhqs3sc9ajhhp33a71tdg7dzm4lwtmljpsixk69s5kicxg81oo6konx4vxp\"\n    }\n  },\n  \"page\" : 1,\n  \"total_pages\" : 10,\n  \"total_items\" : 100,\n  \"page_size\" : 10\n}",
      "headers" : {
        "Content-Type" : "application/json"
      }
    },
    "uuid" : "2cd13f76-807f-4521-9581-8f545f54eb6b",
    "persistent" : true,
    "metadata" : {
      "mocklab" : {
        "created" : {
          "at" : "2023-03-13T12:21:02.328658Z",
          "via" : "OAS3_IMPORT"
        },
        "oas" : {
          "operationId" : "ExtensionCtrl.getAccountExtensions",
          "schema" : {
            "properties" : {
              "_embedded" : {
                "$ref" : "#/components/schemas/EndUserRouteEmbeddedObject"
              },
              "_links" : {
                "$ref" : "#/components/schemas/Links"
              },
              "page" : {
                "description" : "Current page number",
                "example" : 1,
                "type" : "number"
              },
              "page_size" : {
                "description" : "Number of records per page",
                "example" : 10,
                "type" : "number"
              },
              "total_items" : {
                "description" : "Total number of records",
                "example" : 100,
                "type" : "number"
              },
              "total_pages" : {
                "description" : "Total number of pages",
                "example" : 10,
                "type" : "number"
              }
            },
            "type" : "object"
          }
        }
      }
    },
    "insertionIndex" : 3
  } ]
}