{
  "mappings" : [ {
    "id" : "d1bfea1d-7fa1-465f-858c-251fb8f45f69",
    "name" : "This call suppresses a listing violation for a specific listing. Only listing vi... - 500",
    "request" : {
      "urlPath" : "/suppress_listing_violation",
      "method" : "POST"
    },
    "response" : {
      "status" : 500
    },
    "uuid" : "d1bfea1d-7fa1-465f-858c-251fb8f45f69",
    "persistent" : true,
    "metadata" : {
      "mocklab" : {
        "created" : {
          "at" : "2023-03-28T09:23:27.413807Z",
          "via" : "OAS3_IMPORT"
        },
        "oas" : {
          "operationId" : "suppressViolation"
        }
      }
    },
    "insertionIndex" : 0
  }, {
    "id" : "9d317b15-efd1-4de4-83f7-10c01f72eaa3",
    "name" : "This call suppresses a listing violation for a specific listing. Only listing vi... - 409",
    "request" : {
      "urlPath" : "/suppress_listing_violation",
      "method" : "POST"
    },
    "response" : {
      "status" : 409
    },
    "uuid" : "9d317b15-efd1-4de4-83f7-10c01f72eaa3",
    "persistent" : true,
    "metadata" : {
      "mocklab" : {
        "created" : {
          "at" : "2023-03-28T09:23:27.413791Z",
          "via" : "OAS3_IMPORT"
        },
        "oas" : {
          "operationId" : "suppressViolation"
        }
      }
    },
    "insertionIndex" : 1
  }, {
    "id" : "1047fd20-6c89-4815-8955-d52a4e20ddf4",
    "name" : "This call suppresses a listing violation for a specific listing. Only listing vi... - 400",
    "request" : {
      "urlPath" : "/suppress_listing_violation",
      "method" : "POST"
    },
    "response" : {
      "status" : 400
    },
    "uuid" : "1047fd20-6c89-4815-8955-d52a4e20ddf4",
    "persistent" : true,
    "metadata" : {
      "mocklab" : {
        "created" : {
          "at" : "2023-03-28T09:23:27.413775Z",
          "via" : "OAS3_IMPORT"
        },
        "oas" : {
          "operationId" : "suppressViolation"
        }
      }
    },
    "insertionIndex" : 2
  }, {
    "id" : "16ec4422-98b5-4478-a694-740184de2ac6",
    "name" : "This call suppresses a listing violation for a specific listing. Only listing vi... - 204",
    "request" : {
      "urlPath" : "/suppress_listing_violation",
      "method" : "POST"
    },
    "response" : {
      "status" : 204
    },
    "uuid" : "16ec4422-98b5-4478-a694-740184de2ac6",
    "persistent" : true,
    "metadata" : {
      "mocklab" : {
        "created" : {
          "at" : "2023-03-28T09:23:27.413759Z",
          "via" : "OAS3_IMPORT"
        },
        "oas" : {
          "operationId" : "suppressViolation"
        }
      }
    },
    "insertionIndex" : 3
  }, {
    "id" : "3704b03b-752e-4e4a-a253-4f83ba7d64a6",
    "name" : "This call returns listing violation counts for a seller. A user can pass in one ... - 500",
    "request" : {
      "urlPath" : "/listing_violation_summary",
      "method" : "GET"
    },
    "response" : {
      "status" : 500
    },
    "uuid" : "3704b03b-752e-4e4a-a253-4f83ba7d64a6",
    "persistent" : true,
    "metadata" : {
      "mocklab" : {
        "created" : {
          "at" : "2023-03-28T09:23:27.413736Z",
          "via" : "OAS3_IMPORT"
        },
        "oas" : {
          "operationId" : "getListingViolationsSummary"
        }
      }
    },
    "insertionIndex" : 4
  }, {
    "id" : "fc19af60-bef2-4212-8715-f8c579e20bb4",
    "name" : "This call returns listing violation counts for a seller. A user can pass in one ... - 400",
    "request" : {
      "urlPath" : "/listing_violation_summary",
      "method" : "GET"
    },
    "response" : {
      "status" : 400
    },
    "uuid" : "fc19af60-bef2-4212-8715-f8c579e20bb4",
    "persistent" : true,
    "metadata" : {
      "mocklab" : {
        "created" : {
          "at" : "2023-03-28T09:23:27.41372Z",
          "via" : "OAS3_IMPORT"
        },
        "oas" : {
          "operationId" : "getListingViolationsSummary"
        }
      }
    },
    "insertionIndex" : 5
  }, {
    "id" : "6fdfca07-abaa-4536-aab2-92d916123931",
    "name" : "This call returns listing violation counts for a seller. A user can pass in one ... - 204",
    "request" : {
      "urlPath" : "/listing_violation_summary",
      "method" : "GET"
    },
    "response" : {
      "status" : 204
    },
    "uuid" : "6fdfca07-abaa-4536-aab2-92d916123931",
    "persistent" : true,
    "metadata" : {
      "mocklab" : {
        "created" : {
          "at" : "2023-03-28T09:23:27.413704Z",
          "via" : "OAS3_IMPORT"
        },
        "oas" : {
          "operationId" : "getListingViolationsSummary"
        }
      }
    },
    "insertionIndex" : 6
  }, {
    "id" : "22c883b7-5fc6-4e09-82e4-6fa5bd420010",
    "name" : "This call returns listing violation counts for a seller. A user can pass in one ... (application/json;charset=UTF-8)",
    "request" : {
      "urlPath" : "/listing_violation_summary",
      "method" : "GET",
      "headers" : {
        "Accept" : {
          "contains" : "application/json;charset=UTF-8"
        }
      }
    },
    "response" : {
      "status" : 200,
      "body" : "{\n  \"violationSummaries\" : [ {\n    \"marketplaceId\" : \"ls9s\",\n    \"listingCount\" : 825845694,\n    \"complianceType\" : \"032buiwpjs9m3a7yktqg9y31x72mt4wesbq21522cnvp6q4qv3ynmaras64vnfw424fdmc9hz4fxcms4299zkhz0oujyytc4q7qvpjautz1x276y86slmtry6iy97\"\n  }, {\n    \"marketplaceId\" : \"5u42\",\n    \"listingCount\" : 1474093263,\n    \"complianceType\" : \"8tczje09utbaxdk5vul8vtyp2prfrehys51bd4o9ssfua1y611s\"\n  }, {\n    \"marketplaceId\" : \"90yu\",\n    \"listingCount\" : 708914195,\n    \"complianceType\" : \"11ni0cynssuqntjpd4vmxt7mx3yad1lu\"\n  }, {\n    \"marketplaceId\" : \"83jb\",\n    \"listingCount\" : 1465888369,\n    \"complianceType\" : \"1c8vlzakofbqfxu3sgsnkrz1ai8prh2e2gdkiuv62u2d137l7gveku9rg6wj33zwotel9ar5a77ybf8dcfgj800sdpi81edjdwo3jgi9eyhdlmgrjpfqpa7429gh0m9prby5gjzys748br5eoy9gr4o7qguc1i27gb4brw8jved90z\"\n  }, {\n    \"marketplaceId\" : \"036d\",\n    \"listingCount\" : 504229609,\n    \"complianceType\" : \"hcf8zg6gqcl58swalrfl4if015ox53yp1pr4hyfr8yyaclndjbnexf66219651swyyr7pjorkll7zil2ge5ophbenhbog\"\n  }, {\n    \"marketplaceId\" : \"18lc\",\n    \"listingCount\" : 1698328558,\n    \"complianceType\" : \"5b5mcbmcjb7toionb689eq266kmg4clpanewxq1os8ipffooujop0gq68hijvjgx49u\"\n  }, {\n    \"marketplaceId\" : \"42am\",\n    \"listingCount\" : 2070062486,\n    \"complianceType\" : \"5lp0j2iroeol\"\n  } ]\n}",
      "headers" : {
        "Content-Type" : "application/json;charset=UTF-8"
      }
    },
    "uuid" : "22c883b7-5fc6-4e09-82e4-6fa5bd420010",
    "persistent" : true,
    "metadata" : {
      "mocklab" : {
        "created" : {
          "at" : "2023-03-28T09:23:27.413673Z",
          "via" : "OAS3_IMPORT"
        },
        "oas" : {
          "operationId" : "getListingViolationsSummary",
          "schema" : {
            "description" : "This type is the base type for the getListingViolationsSummary response. The violationSummaries container contains an array of policy violation counts for each unique eBay marketplace and compliance type violation.",
            "properties" : {
              "violationSummaries" : {
                "description" : "This container is an array of one or more policy violation counts. A policy violation count is returned for each unique eBay marketplace and compliance type violation. As long as there is at least one non-compliant listing for the specified compliance type(s), this container will be returned. If no non-compliant listings are found for the specified compliance type(s), an HTTP status code of 204 No Content is returned, and there is no response body.",
                "items" : {
                  "$ref" : "#/components/schemas/ComplianceSummaryInfo"
                },
                "type" : "array"
              }
            },
            "type" : "object"
          }
        }
      }
    },
    "insertionIndex" : 7
  }, {
    "id" : "3cb5caee-7c74-4705-ac5a-496fe669ce99",
    "name" : "This call returns specific listing violations for the supported listing complian... - 500",
    "request" : {
      "urlPath" : "/listing_violation",
      "method" : "GET"
    },
    "response" : {
      "status" : 500
    },
    "uuid" : "3cb5caee-7c74-4705-ac5a-496fe669ce99",
    "persistent" : true,
    "metadata" : {
      "mocklab" : {
        "created" : {
          "at" : "2023-03-28T09:23:27.412957Z",
          "via" : "OAS3_IMPORT"
        },
        "oas" : {
          "operationId" : "getListingViolations"
        }
      }
    },
    "insertionIndex" : 8
  }, {
    "id" : "ab63b2fc-710d-4c58-a41f-cca68ec98b94",
    "name" : "This call returns specific listing violations for the supported listing complian... - 400",
    "request" : {
      "urlPath" : "/listing_violation",
      "method" : "GET"
    },
    "response" : {
      "status" : 400
    },
    "uuid" : "ab63b2fc-710d-4c58-a41f-cca68ec98b94",
    "persistent" : true,
    "metadata" : {
      "mocklab" : {
        "created" : {
          "at" : "2023-03-28T09:23:27.412941Z",
          "via" : "OAS3_IMPORT"
        },
        "oas" : {
          "operationId" : "getListingViolations"
        }
      }
    },
    "insertionIndex" : 9
  }, {
    "id" : "8cf6e7cd-1ae3-4a0e-af7a-6311e2822a4e",
    "name" : "This call returns specific listing violations for the supported listing complian... - 204",
    "request" : {
      "urlPath" : "/listing_violation",
      "method" : "GET"
    },
    "response" : {
      "status" : 204
    },
    "uuid" : "8cf6e7cd-1ae3-4a0e-af7a-6311e2822a4e",
    "persistent" : true,
    "metadata" : {
      "mocklab" : {
        "created" : {
          "at" : "2023-03-28T09:23:27.412922Z",
          "via" : "OAS3_IMPORT"
        },
        "oas" : {
          "operationId" : "getListingViolations"
        }
      }
    },
    "insertionIndex" : 10
  }, {
    "id" : "ea285140-2dd6-4ca1-9315-d205bb7277e3",
    "name" : "This call returns specific listing violations for the supported listing complian... (application/json;charset=UTF-8)",
    "request" : {
      "urlPath" : "/listing_violation",
      "method" : "GET",
      "headers" : {
        "Accept" : {
          "contains" : "application/json;charset=UTF-8"
        }
      }
    },
    "response" : {
      "status" : 200,
      "body" : "{\n  \"next\" : \"u2cn1v2av1jz9owfd2v907byv2xs2\",\n  \"total\" : 1128224741,\n  \"offset\" : 2057481439,\n  \"prev\" : \"36v4kskqd6qujpgpa3w0fbb2cyyu02igts0vrar2rm7keqjldczq92oog8a2e7z63a23df34ijqsprnt68lblycc3leek\",\n  \"limit\" : 36241832,\n  \"href\" : \"4mvv3pgytja6dqn7eveasf1fxz8joyph221lclplt2ucxg3ooggq83ttqa12cylc8gtw5r1zy5ab9z7kjo7126t8oy0z16mw0os0p974z300dpbxaumn11vo90glhqi6wbw44slsg5uvm4vynvqny255f6ly0ejf7t79foxz5qsf0uej85iqw28gofriyi2qcs5za9kq\",\n  \"listingViolations\" : [ {\n    \"violations\" : [ {\n      \"correctiveRecommendations\" : {\n        \"productRecommendation\" : { },\n        \"aspectRecommendations\" : [ { }, { }, { }, { }, { }, { } ]\n      },\n      \"reasonCode\" : \"pv0gjq0anbji508s9cde7xpns\",\n      \"violationData\" : [ { }, { }, { }, { }, { }, { } ],\n      \"complianceState\" : \"West Virginia\",\n      \"message\" : \"Rerum dolorum vel sit dolor. Nesciunt dolores nostrum inventore modi aut. Aut aut beatae in animi occaecati. Sequi deserunt aliquid id quidem quia autem ratione.\",\n      \"variation\" : {\n        \"variationAspects\" : [ { }, { }, { }, { }, { }, { }, { } ],\n        \"sku\" : \"gciiurnpl9avx3a43vozadupuoreox817othwqwwoga7cuvpuztr70i99wre2ot9s0pz8r4qxjmpidx9poudz07hhjwydsgyx4tate02tea\"\n      }\n    } ],\n    \"offerId\" : \"v1xo\",\n    \"listingId\" : \"me52\",\n    \"sku\" : \"8gqu3xnc2ib4lrz1wczkmyiygu3ivqpo4v2fw6xtchux3fvmraw7qdtblxg44jub5x6q4ttuofakk12coqwauorpe3otyv3pwmrmugyf3lcdsl77y6jojaops2hfdodxta1jiucvhnnh38manj91rn8jakp1xyrkv5gtggw3\",\n    \"complianceType\" : \"8k5927xx8gdybr48k9d54s\"\n  }, {\n    \"violations\" : [ {\n      \"correctiveRecommendations\" : {\n        \"productRecommendation\" : { },\n        \"aspectRecommendations\" : [ { } ]\n      },\n      \"reasonCode\" : \"6t63z49e9e5red11a81nvvt90x3rmnscjdntfqnygdk656yyn023dtmxit09dt3rd3y1ri9z2nlb97c7b1fz0s2x82aj74t2ojap3kzul8h7anzqnlgaxzv4bkcpfq2z9d7naisj3s39bi7kpx78r7e01r34281ve4efpt2m7rztpd3lbiflc\",\n      \"violationData\" : [ { }, { }, { }, { } ],\n      \"complianceState\" : \"Georgia\",\n      \"message\" : \"Quasi consectetur ratione non reiciendis cupiditate non. Labore autem qui iusto aperiam sint. Suscipit quos aut voluptatem qui atque sint. Perferendis recusandae harum.\",\n      \"variation\" : {\n        \"variationAspects\" : [ { }, { }, { } ],\n        \"sku\" : \"l7usvq1mdu0ugiz6y2yrzl91solkhuj1dtnnukhlanlka0in1if7xziqud0cwih8wut96gooq0ovpqloo4jkprg0xacauft1lhj6f0erysteb7gfwl1zwn3paavbva8u42iflicmdzc1ipfz0razekr3wu2m1\"\n      }\n    } ],\n    \"offerId\" : \"xhc3\",\n    \"listingId\" : \"98t4\",\n    \"sku\" : \"a9pbuyi1ueiew1pgwuh7kmknxnnn5rwyrippjt0rjksybc4fj7mdpndb2xdr7bq86k841jqbmcxfhyth38nm976r9w8fd4c2jjq3cjv8yu3ekz\",\n    \"complianceType\" : \"zrjfn2a7bpui8s5lzaboah8u6pr20ndnjqf48ry22y9bxh6f9kkanulyfnuvivncsstsn0o7inbkgsrhti3941h17j3twvq6xo0jyr9dzf3hx528clqhv\"\n  }, {\n    \"violations\" : [ {\n      \"correctiveRecommendations\" : {\n        \"productRecommendation\" : { },\n        \"aspectRecommendations\" : [ { }, { }, { }, { }, { }, { }, { } ]\n      },\n      \"reasonCode\" : \"ozxfdhphqa7e8e2fjr24939hyglvakg2ad9yjn5c1kilmdp3o9yvwa921gwb21vbrze91rpxovqwprl11vo4\",\n      \"violationData\" : [ { }, { } ],\n      \"complianceState\" : \"Kentucky\",\n      \"message\" : \"Et consequatur et ad dolorum placeat non libero. Sit est sit. Mollitia omnis ratione quia et consequatur unde. Cumque ullam corporis quo non et ipsum odio.\",\n      \"variation\" : {\n        \"variationAspects\" : [ { }, { } ],\n        \"sku\" : \"jnru8tfgk46rxku72qdxqrj5y64uum6oqfzbea3cntatti12a4wrxbwehti5xhsx54a2b713j4y6su3ppws8d773k3x5artr1pgm\"\n      }\n    }, {\n      \"correctiveRecommendations\" : {\n        \"productRecommendation\" : { },\n        \"aspectRecommendations\" : [ { }, { }, { }, { } ]\n      },\n      \"reasonCode\" : \"dt6i6k4jrk3x\",\n      \"violationData\" : [ { }, { } ],\n      \"complianceState\" : \"Texas\",\n      \"message\" : \"Ut saepe recusandae libero eius est. Neque quam est expedita sed est repellat dolores. Reiciendis quae odio vel quae. Consequatur veniam delectus omnis architecto est voluptas unde.\",\n      \"variation\" : {\n        \"variationAspects\" : [ { }, { }, { } ],\n        \"sku\" : \"jzpbw55y4g7e2jy266xxzh59z1i6husdu1orenel12il9a4nlpit0lcdivfys\"\n      }\n    }, {\n      \"correctiveRecommendations\" : {\n        \"productRecommendation\" : { },\n        \"aspectRecommendations\" : [ { } ]\n      },\n      \"reasonCode\" : \"tdsiqcg392pyy\",\n      \"violationData\" : [ { }, { }, { }, { } ],\n      \"complianceState\" : \"Wisconsin\",\n      \"message\" : \"Veniam perspiciatis qui quis vitae iure qui. Rerum aspernatur perspiciatis non autem magni ullam. Libero dolores iste. Labore atque dolorem dolorum ut et est.\",\n      \"variation\" : {\n        \"variationAspects\" : [ { } ],\n        \"sku\" : \"ondfwk7hhmp2o19k\"\n      }\n    }, {\n      \"correctiveRecommendations\" : {\n        \"productRecommendation\" : { },\n        \"aspectRecommendations\" : [ { }, { } ]\n      },\n      \"reasonCode\" : \"anxo7vduasj9egeba81srhggktewp3h1vogmrzapbwbx00873h6gpasnermopbug\",\n      \"violationData\" : [ { }, { }, { }, { }, { } ],\n      \"complianceState\" : \"Alabama\",\n      \"message\" : \"Adipisci assumenda consequuntur soluta. Sit veritatis accusantium praesentium. Doloremque sint sint est. Voluptatem et eaque.\",\n      \"variation\" : {\n        \"variationAspects\" : [ { }, { }, { }, { }, { }, { }, { } ],\n        \"sku\" : \"2jhbasxmyjj9af7aylbucocl9lfojje0m8p8ls0rw4uwprkvkdxp41bov9bhx5doat3xuocevlg0axziufr6f08z3oo5337z1t6rd3f9yi8yjzyora5629382hxhffdfjcmymivaxkktm63fkymcp881j8rdvdqft\"\n      }\n    } ],\n    \"offerId\" : \"129b\",\n    \"listingId\" : \"0ai8\",\n    \"sku\" : \"xwuhvqbx3\",\n    \"complianceType\" : \"wcqes8wc4ze3c0zhtar0fv9afng61morezkqu8fkf943wwzhqnljihzsl40iwp56v3r769sdoq7g\"\n  } ]\n}",
      "headers" : {
        "Content-Type" : "application/json;charset=UTF-8"
      }
    },
    "uuid" : "ea285140-2dd6-4ca1-9315-d205bb7277e3",
    "persistent" : true,
    "metadata" : {
      "mocklab" : {
        "created" : {
          "at" : "2023-03-28T09:23:27.412854Z",
          "via" : "OAS3_IMPORT"
        },
        "oas" : {
          "operationId" : "getListingViolations",
          "schema" : {
            "description" : "This type is the base response type of the getListingViolations method.",
            "properties" : {
              "href" : {
                "description" : "The URI of the getListingViolations call request that produced the current page of the result set.",
                "type" : "string"
              },
              "limit" : {
                "description" : "The maximum number of listing violations returned per page of the result set. The limit and offset query parameters are used to control the pagination of the output. Note: If this is the last or only page in the result set, it may contain fewer listing violations than the limit value. To determine the number of pages in the result set, divide this value into the value of total and round up to the next integer. Default: 50 Max: 200",
                "format" : "int32",
                "type" : "integer"
              },
              "listingViolations" : {
                "description" : "An array of listing violations that match the criteria in the call request, including pagination control {if set). As long as there is at least one listing violation that matches the input criteria, this container will be returned. If no listing violations are found for the seller, an HTTP status code of 204 No Content is returned, and there is no response body.",
                "items" : {
                  "$ref" : "#/components/schemas/ComplianceViolation"
                },
                "type" : "array"
              },
              "next" : {
                "description" : "The getListingViolations call URI to use to view the next page of the result set. For example, the following URI returns listing violations 21 thru 30 from the collection of policy violations: path/listing_violation?limit=10&amp;offset=20 This field is only returned if an additional page of listing violations exists.",
                "type" : "string"
              },
              "offset" : {
                "description" : "This integer value shows the offset of the current page of results. The offset value controls the first listing violation in the result set that will be displayed at the top of the response. The offset and limit query parameters are used to control the pagination of the output. For example, if offset is set to 10 and limit is set to 10, the call retrieves listing violations 11 thru 20 from the resulting collection of violations. Note: This feature employs a zero-based index, where the first item in the list has an offset of 0. Default: 0 {zero)",
                "format" : "int32",
                "type" : "integer"
              },
              "prev" : {
                "description" : "The getListingViolations call URI to use to view the previous page of the result set. For example, the following URI returns listing violations 1 thru 10 from the collection of policy violations: path/listing_violation?limit=10&amp;offset=0 This field is only returned if an previous page of listing violations exists.",
                "type" : "string"
              },
              "total" : {
                "description" : "The total number of listing violations in the result set. If this value is higher than the limit value, there are multiple pages in the result set to view.",
                "format" : "int32",
                "type" : "integer"
              }
            },
            "type" : "object"
          }
        }
      }
    },
    "insertionIndex" : 11
  } ]
}