{
  "mappings" : [ {
    "id" : "0c38e367-2178-42d0-ac4f-3b448eb3d0a0",
    "name" : "This method sends eligible buyers offers to purchase items in a listing at a dis... - 500",
    "request" : {
      "urlPath" : "/send_offer_to_interested_buyers",
      "method" : "POST"
    },
    "response" : {
      "status" : 500
    },
    "uuid" : "0c38e367-2178-42d0-ac4f-3b448eb3d0a0",
    "persistent" : true,
    "metadata" : {
      "mocklab" : {
        "created" : {
          "at" : "2023-03-06T18:55:30.098035Z",
          "via" : "OAS3_IMPORT"
        },
        "oas" : {
          "operationId" : "sendOfferToInterestedBuyers"
        }
      }
    }
  }, {
    "id" : "9dce1949-b203-4ac3-97bb-e971e2dc14b6",
    "name" : "This method sends eligible buyers offers to purchase items in a listing at a dis... - 409",
    "request" : {
      "urlPath" : "/send_offer_to_interested_buyers",
      "method" : "POST"
    },
    "response" : {
      "status" : 409
    },
    "uuid" : "9dce1949-b203-4ac3-97bb-e971e2dc14b6",
    "persistent" : true,
    "metadata" : {
      "mocklab" : {
        "created" : {
          "at" : "2023-03-06T18:55:30.09802Z",
          "via" : "OAS3_IMPORT"
        },
        "oas" : {
          "operationId" : "sendOfferToInterestedBuyers"
        }
      }
    }
  }, {
    "id" : "4d3af8aa-7bba-4c46-8d53-72d4e2cf7e04",
    "name" : "This method sends eligible buyers offers to purchase items in a listing at a dis... - 400",
    "request" : {
      "urlPath" : "/send_offer_to_interested_buyers",
      "method" : "POST"
    },
    "response" : {
      "status" : 400
    },
    "uuid" : "4d3af8aa-7bba-4c46-8d53-72d4e2cf7e04",
    "persistent" : true,
    "metadata" : {
      "mocklab" : {
        "created" : {
          "at" : "2023-03-06T18:55:30.098003Z",
          "via" : "OAS3_IMPORT"
        },
        "oas" : {
          "operationId" : "sendOfferToInterestedBuyers"
        }
      }
    }
  }, {
    "id" : "da12c4e2-009b-4a62-84eb-fa4a79553e3f",
    "name" : "This method sends eligible buyers offers to purchase items in a listing at a dis... (application/json)",
    "request" : {
      "urlPath" : "/send_offer_to_interested_buyers",
      "method" : "POST",
      "headers" : {
        "Accept" : {
          "contains" : "application/json"
        }
      }
    },
    "response" : {
      "status" : 200,
      "body" : "{\n  \"offers\" : [ {\n    \"allowCounterOffer\" : false,\n    \"offerType\" : \"n5xz5xlwr039qz694pjv49pnkknht517pqf4dzqqmfphwzxqbjtmyc6dt\",\n    \"lastModifiedDate\" : \"2023-01-31T18:26:30.093939Z\",\n    \"offeredItems\" : [ {\n      \"discountPercentage\" : \"mixmx6y1pgk83g9cyfw0ekztxdsxmkp7tvcu6aqegoiuiovkqtfniuo3h0qu6j2tnn5phkg4c5h73qs1rp4nl3pcihulqpfdpcn7m\",\n      \"quantity\" : 1498854034,\n      \"price\" : {\n        \"currency\" : \"FJD\",\n        \"value\" : \"j89st0f7g226mg9g363evuva8pxcv82yhz9njnjvnnuh490e27fauz113n9cl5chcrix730acfj6zg9beot0cqaoqmbanioa8dusk3qvyu5rxo\"\n      },\n      \"listingId\" : \"o989\"\n    }, {\n      \"discountPercentage\" : \"ehpvrdb9008ot80ld5amez640s8pcoruh1adcia81b5dii3f618g3oyhu4h7oas2zimb9sjotoqtdq0nt570y1deqov83eazrhtbo856qwji25weks7n5ij9jdb6ri5wq6vzkuxt9r\",\n      \"quantity\" : 1918406815,\n      \"price\" : {\n        \"currency\" : \"SOS\",\n        \"value\" : \"2z489izetcbgy1v2wu2keea1rpqy5h7c1drgzabu16n2rvwfk49h8vjh2zgop27ygk7fbyy4wmcbvclzmhneakpqj9mci8aalo1cbxkkj3sa536rwptg6wp\"\n      },\n      \"listingId\" : \"hkiz\"\n    } ],\n    \"offerDuration\" : {\n      \"unit\" : \"ek5iemz0pn259xduj5v6gk9smececxlr3i8t1bnift7qcfeyu63jwys0axqec12okq2gz4iunmkybkfs5xct6u4plg7d7xxtku6uucg76dhrv6oxj8p42j9o6nh1maerrc1r4j5u26ys08m1mpzwsmggerl4v69626zgb2y\",\n      \"value\" : 1786882239\n    },\n    \"offerId\" : \"d9l8\",\n    \"creationDate\" : \"2023-01-13T17:41:30.094345Z\",\n    \"message\" : \"Totam pariatur quia saepe. Dolor officia facere animi exercitationem enim officia. Eum quis ut. Quae necessitatibus vitae eius repellendus aut. Consequatur illum exercitationem.\",\n    \"initiatedBy\" : \"vtxco7vm7sewz377j4dlmztc559532d6swkpbv\",\n    \"offerStatus\" : \"avr3daewhrkjk7vwea0ffajjqunhx5tzeku3zinalb6kinvpgh4z0krel79kn187zb7kbvivw1thwxm9fl7g1sqd54zlxho8v\",\n    \"buyer\" : {\n      \"maskedUsername\" : \"kiyoko.carroll\"\n    },\n    \"revision\" : \"4qzwdiapxunk3bao2pboso02oic8n9bwa433\"\n  }, {\n    \"allowCounterOffer\" : false,\n    \"offerType\" : \"q7sk3x626lr1od8xs3f6v1q4p9cf129egl1jtsu2a49zn40zq6a7edab8d6i33oj32np37xxhg0wfbgkrq\",\n    \"lastModifiedDate\" : \"2022-12-24T18:46:30.094511Z\",\n    \"offeredItems\" : [ {\n      \"discountPercentage\" : \"s6c2it180mhq0ekuty4bg4ehhhk2uzd5xq049u5e8bufkqikj0c4uuzmtbzg5ugow73531oy2crfrg4xt6adgy1lin48e4xvazk0e076zs8zq7ewqxxvi1hvt4qk\",\n      \"quantity\" : 1217132963,\n      \"price\" : {\n        \"currency\" : \"TND\",\n        \"value\" : \"65gakplmy6s1kzrvnfyf2b1lpqfuzh74zs6tlyat247cex32qjfxfi4x3a4wfkgtt6nj7n9nheduluhdd444njby\"\n      },\n      \"listingId\" : \"t8sa\"\n    }, {\n      \"discountPercentage\" : \"dxym6yrvtqhzgtfmdmygfl6hqudwnljh3n4xjda6wd\",\n      \"quantity\" : 1961154583,\n      \"price\" : {\n        \"currency\" : \"ILS\",\n        \"value\" : \"e7e7c7cbijprodqxyvm6r0xt8y1bzbdav9y2c62i44zvda8wj1bi3v7brmzvtl4udo3lm96otkkotz9bxrkx4sa5b7\"\n      },\n      \"listingId\" : \"1i7i\"\n    }, {\n      \"discountPercentage\" : \"gv674auxgs91p8tfodldlsclvrmgjyr8as5s0ch9nrlilhxynbwjw7y7q7suvl8ifcs7ati3mh2mwaws06soq74tft\",\n      \"quantity\" : 1796069440,\n      \"price\" : {\n        \"currency\" : \"SLL\",\n        \"value\" : \"x4wsn4h55fmh059usd9dd5gknnu3vwq0dh81ykti880glrk696kycevkjijw\"\n      },\n      \"listingId\" : \"q4rs\"\n    }, {\n      \"discountPercentage\" : \"2v9qkg8fjxbs0c3i5px73rxprg5cdfgo5v8omdl8kvs5mjcv97x8gyrz4w584sgvrve5e7tsmqpvycg926yu0w1vg7ggzttd00ryklm4wyegde7vo\",\n      \"quantity\" : 1321677585,\n      \"price\" : {\n        \"currency\" : \"SOS\",\n        \"value\" : \"chpdus4ef9i0m3x01tdebbs8ia3yzpi6h3j46c9wu78tujpa42zgrcwrxojmltoaigv369pt6ecq7ftd\"\n      },\n      \"listingId\" : \"voik\"\n    }, {\n      \"discountPercentage\" : \"63rebfy9zvy7ss9xd35h9xo9okg3fodw88meci0\",\n      \"quantity\" : 568744923,\n      \"price\" : {\n        \"currency\" : \"SAR\",\n        \"value\" : \"nxb85587o5skicxrt5rcwi6nbfwnksux8tn49aq9e3qpwso4setvwpm2aio7h1tfush6605vz8gek7c5rsgum2w3b21d144vbap3w15rbhpyugaybn31cs60g1c8q7a1ivcyy12azjy5e9eqerj90\"\n      },\n      \"listingId\" : \"r15y\"\n    }, {\n      \"discountPercentage\" : \"93o7oa7pdg1g8gfd4wgnxlm4gcee2b8pgxb2btzr1mgkm4wieeye3qivzd9h5chm1sunjx7qwngwrauq3gaamtn8vfmamsk6wijaqxnimscf4lsf0jammneogfphcwmakurwr2ef2jveluvzd1b710zvhciczrzlqc69evhhdm7swduodwt41fdpbhim\",\n      \"quantity\" : 597997261,\n      \"price\" : {\n        \"currency\" : \"ZAR\",\n        \"value\" : \"w6rwiqgpatb72gmkgxhfui6zdt6bb2yepyw5r2p8\"\n      },\n      \"listingId\" : \"x1ig\"\n    }, {\n      \"discountPercentage\" : \"7w3xlq4e28r2o47meow56zq55pzz6ya93ca9xq\",\n      \"quantity\" : 1010728792,\n      \"price\" : {\n        \"currency\" : \"MKD\",\n        \"value\" : \"y7wgp4fg6m2789dmudxdlgdkpxp4hcsbv9evq3qyzuf8305p6erq1zriinumqq8yxzv6ezcu1vrrgftouxdchin104ziomx284beni29ax3mk9xftyv9cizpl7ayz\"\n      },\n      \"listingId\" : \"9b02\"\n    }, {\n      \"discountPercentage\" : \"cu0pw5pfr5ara55vyceybj5mxm1dbyxqhd8gdeyiu0hxmuq7nh6kx6dyuo6gqtcwqahvt8hd6um5ix3c1eolss566in\",\n      \"quantity\" : 1237168933,\n      \"price\" : {\n        \"currency\" : \"LBP\",\n        \"value\" : \"l22f7jd8667p95kzcx65qw0esz887og4u0kqe2sybo6hkocuqkcklis99ex1p9rcmskbyri\"\n      },\n      \"listingId\" : \"kz1j\"\n    } ],\n    \"offerDuration\" : {\n      \"unit\" : \"qeru7mof9hoyjlhkyfk310dh45u\",\n      \"value\" : 859656826\n    },\n    \"offerId\" : \"78fa\",\n    \"creationDate\" : \"2022-04-21T15:39:30.095596Z\",\n    \"message\" : \"Non autem quia reprehenderit pariatur. Totam et delectus maxime omnis facere et. Animi placeat ut error et beatae atque. In qui quibusdam maiores ex tenetur esse.\",\n    \"initiatedBy\" : \"6sthfukepgxan0xwgg0qu6w97rsul80h96q5g01uieensp5o9hqlu4dmolnnbpjrdn98fbe1s8t0cjnlpv21i8gdthy9j1\",\n    \"offerStatus\" : \"6b3l78h1ik766ow0nfkf368hm57k6091z\",\n    \"buyer\" : {\n      \"maskedUsername\" : \"pok.christiansen\"\n    },\n    \"revision\" : \"oca7cljb\"\n  }, {\n    \"allowCounterOffer\" : true,\n    \"offerType\" : \"ca08fs9nhvcm835o4\",\n    \"lastModifiedDate\" : \"2023-02-26T18:11:30.095752Z\",\n    \"offeredItems\" : [ {\n      \"discountPercentage\" : \"n8gx2j5debhex1v1a0ovwncfp4gd4wyss461nls4jcap3w77fw6lbu36t2cf9p5s21x3wqngabyqqj1xzwvjzybp9cg9qbe01cdehx6foeripmr5uos44murh49npva196je9nd7jz44xom48wckcyu6d8y6nwx7alifsfoh546xyt6iiccw\",\n      \"quantity\" : 1874688611,\n      \"price\" : {\n        \"currency\" : \"YER\",\n        \"value\" : \"l5ez4n\"\n      },\n      \"listingId\" : \"enb7\"\n    }, {\n      \"discountPercentage\" : \"7wm690m3nobw7qewhg2fl4zbz81xai9d61ee9zy0abkfcnac5vrc2rzz4ssn5mtq5ny89xqbh9hdus2ofsyylhzm7kofg520fu0ih6w35g1wa\",\n      \"quantity\" : 918845997,\n      \"price\" : {\n        \"currency\" : \"AMD\",\n        \"value\" : \"yqie8fmij5sivx7tp02t4lid2990lmpfwa8irno\"\n      },\n      \"listingId\" : \"47va\"\n    }, {\n      \"discountPercentage\" : \"0ptawg94ype0htib4t717bvm61s3ilxrvphksfmr3tv9g0bkhuwjge3e5wzp0uynb7dzkzfcxg0juchl8jgjt0iuv3cfenqajnptuvtgtpb1pxkq2nhtt0juqgh0seyanhtsl03juq2hj0027c81vqv83i4oqh0rl1sjd5lwtd6zfsaa681odfd\",\n      \"quantity\" : 163960972,\n      \"price\" : {\n        \"currency\" : \"PEN\",\n        \"value\" : \"ed5tscwr9ouq93j8mev08r2uceu1jpa7mmsfkhzzomwxtjfv5e7o6m2mwviacb2ol69cdeyynk3hsa0j4m5ofdwpi26a1a0syzahf57hsld5dm8nsqyewdbid6moezgrdbbpy380tlo6zdt9kvt6nirhl3h8f1u0rxahmwk0\"\n      },\n      \"listingId\" : \"l53v\"\n    } ],\n    \"offerDuration\" : {\n      \"unit\" : \"wezo6\",\n      \"value\" : 33483\n    },\n    \"offerId\" : \"vdci\",\n    \"creationDate\" : \"2022-03-23T17:45:30.096221Z\",\n    \"message\" : \"Voluptas porro vitae ullam illo consequatur ratione alias. Odio esse reprehenderit. Amet neque atque sint. Enim officia asperiores odit eveniet.\",\n    \"initiatedBy\" : \"y7tsubf\",\n    \"offerStatus\" : \"7akgv9je9f490u3f2niizg9v5fo22z11vt0ydspo6662djuiohqhg9a8zoh5heekkiagz80ipbqo4qbvhgf375jsdta3k2zr2y6\",\n    \"buyer\" : {\n      \"maskedUsername\" : \"dario.mann\"\n    },\n    \"revision\" : \"zybpkpjy6xjx3c6esayj7kok638tpoe5d13b3ku4pvet50tuj0f\"\n  }, {\n    \"allowCounterOffer\" : false,\n    \"offerType\" : \"wirnfx5k440njfwb1tyqsgnfxxss7ooctp1io5fw04ynph3wmbefnjjggbve2235o3lue0eu3244ezcq153udqzw52t81g7rml0ipk7pajyr5r3zw2tp6lub\",\n    \"lastModifiedDate\" : \"2022-08-09T15:57:30.096371Z\",\n    \"offeredItems\" : [ {\n      \"discountPercentage\" : \"iykxqh8\",\n      \"quantity\" : 568639567,\n      \"price\" : {\n        \"currency\" : \"TND\",\n        \"value\" : \"icfi6mmcvmoea0jwsscs6ak8u1yapnq84laj45wa54dz0bdln9nyeusdc4okjzq4lsmqs7sqphrfo5vtkj8jrfhtxpuvz1ylay5v2sq0papq0v4kuif0f5eidv7bjlx0yultig75tv1wfi43yl4dko\"\n      },\n      \"listingId\" : \"6a42\"\n    } ],\n    \"offerDuration\" : {\n      \"unit\" : \"b7d2p04qwi5ikzdwr3ftqef4863paoshrcua083n5f5fes3osnl8cybn6gtncz4pesfdmh5m4juzkilad7l0a5kuw7tvr6u6qyuqh3euqvjfhnkexf98wfrb3cwcvo7eky5yj6vujxsbdsfguwzgz3zkbyozw2qi3c6gctffvrl6cwzc2lhl2\",\n      \"value\" : 1314881729\n    },\n    \"offerId\" : \"308c\",\n    \"creationDate\" : \"2022-10-15T18:11:30.096605Z\",\n    \"message\" : \"Ex ut corrupti unde consectetur impedit necessitatibus cumque. Quos error eligendi impedit quod rerum illum. Autem neque soluta sit.\",\n    \"initiatedBy\" : \"wfc32so595dpep8b6uzbc1g0fu8ff7k7j9ql4go691x4z2hy6tgj2aiigbmxmvhcveiqjfhxc8d75kv1shpgykf86ql9146aeatozavz27kt5b3ntueu6lrfa2qqj8e6n5elvd54o7je6e9mu4cbg6xf2l00tjjg\",\n    \"offerStatus\" : \"k88wehbfru3ryhzebjjdgk4i7frq5m2augfydv7f7yiedj527zlxgvcs\",\n    \"buyer\" : {\n      \"maskedUsername\" : \"merlene.kozey\"\n    },\n    \"revision\" : \"3fnpokvzd46u1k1h1opewhcs4uofulfthwjxeluis2qprt28wohlfpta\"\n  }, {\n    \"allowCounterOffer\" : true,\n    \"offerType\" : \"0s0hab0v2a1jh20yinye6g2f5l3l1cku1qbwnvpqfonkghc5amnp600k5nw2facpl8cc3soqjjolbr252ot8uhm7j0mr46q7mhintc2ujbkcqpcy2va0si8xio0aarp1nrng3zmzbgyjdaduw0a8vvbebiw6bd\",\n    \"lastModifiedDate\" : \"2022-11-25T16:16:30.096747Z\",\n    \"offeredItems\" : [ {\n      \"discountPercentage\" : \"vhb63pwu968axqvr6ob54nhbaqccfoztesixex9o91nptsh7qorjrnmkvtxogpmzubl7a4inveskft218vi25tutz86mx4dibb43w5167vimofk99wzdrn018q2xi0w1dnb2fug01ytkzownp0mdp3tw4z6bs3e8gvvochge9jhdt52sc6fp6fpex8c9n\",\n      \"quantity\" : 1025582548,\n      \"price\" : {\n        \"currency\" : \"TRY\",\n        \"value\" : \"lemvdzpxvujpib72gw6t87j5d1l04v57vagxok2xth0d19538o3bxgy3tfuoiie02npidsseoneev3tqnve6alkouc6hs8626xzhn778q1qxbca014oev2hoat6cbviwr79uipyv\"\n      },\n      \"listingId\" : \"3dk9\"\n    }, {\n      \"discountPercentage\" : \"07scdp8jz1uzk4lm3mgc737qesoyk7z4tzyp3ia4lafxak6se2p45oj5osr34yd3q7ghpwi4lvhn1hahcra4b79kr73mq99cxqcr5p7knhalrz4vwp5p\",\n      \"quantity\" : 1379545381,\n      \"price\" : {\n        \"currency\" : \"KHR\",\n        \"value\" : \"6ujokilzqjokcyaa27w7cat9lu5zc3hu7a94dpbiuiflr0ojvtv820epzww1li3xon323hzn4ruenqx1zbst5zutqid9l3zjo6gbdv1v1bbewaxb2wuvimj2ekpb08oao9xjjnq3sdz2hd44xsql1c4d6ak6uturuzp9s5k55p9dsyy2rn04mylka1xyu8aaelhy\"\n      },\n      \"listingId\" : \"7sq6\"\n    }, {\n      \"discountPercentage\" : \"c1tauixzgov7cs1v758n04vnbctzjpn71ep060u232jbnz95fjvg3yev69glyu8wyxhateb0wvm4cbd6izn7o0afoetuty81eonjorrn5de5yry1tqsbn5vm5f8gbwyo6kfv0wmby2hihn37q0l0k6a180gw\",\n      \"quantity\" : 305620554,\n      \"price\" : {\n        \"currency\" : \"SAR\",\n        \"value\" : \"wlxmks\"\n      },\n      \"listingId\" : \"m29m\"\n    }, {\n      \"discountPercentage\" : \"i57e5nm8hp0wlzkc9vy4jbylxsvlh1bc9qram81pn0u9u0veeivr132quf24wwrjdwy9h8rtnfzma55caa5o63fe60jymr1wy58huqkwl78x590tdhw3o41g38lyy05qth1wcmo0e0tc3jiuw\",\n      \"quantity\" : 935482367,\n      \"price\" : {\n        \"currency\" : \"USD\",\n        \"value\" : \"c4sks4pztoqxbub9i8zyplckj50hn3iotbgdoin1rr12aws4uq3nli25tabzd7j8p1162k1ite6ayoyazm1d7zqitslvwhw542p20ht5bizsv3anhy98ag1zupvmuiwb9ve29v8xtxttnxbzvk85qx70ls\"\n      },\n      \"listingId\" : \"kqn1\"\n    }, {\n      \"discountPercentage\" : \"2w3k1j1z1d4j190eh1t311pkxvvutdszpu1absxbl8ti39y6dqfvay0x5lyww11xkgo3\",\n      \"quantity\" : 205491014,\n      \"price\" : {\n        \"currency\" : \"GTQ\",\n        \"value\" : \"7vhy2gknzqgav8xc9sftcgrpqbjrnmi6yre7wczt32t0j4x1dmx902a9al8p\"\n      },\n      \"listingId\" : \"be88\"\n    }, {\n      \"discountPercentage\" : \"dxij3npt5ypitqs3366xajylok9jl861xu3gewrni8d\",\n      \"quantity\" : 1871904988,\n      \"price\" : {\n        \"currency\" : \"COP\",\n        \"value\" : \"pmorucrb8nh\"\n      },\n      \"listingId\" : \"k9nj\"\n    }, {\n      \"discountPercentage\" : \"giyxhqgtjmbxw1f1k2mynwjlbmqt64cy7irammymrtro3njxmwoy8q2x3qzqur1jkei6tz4lq13clvasnkmnxcvtiweuzywayikelrg7z22dxz6rfdhrin06p86pwfh1las145bna4xzt228ebsc3pyvxscnjxgb65np8ipasuj67nl6lgbjr4q8ei0oi89xsk\",\n      \"quantity\" : 1925008848,\n      \"price\" : {\n        \"currency\" : \"IQD\",\n        \"value\" : \"z0n3vjc70d41yy23aoq0awvkxte5gdljmytlbh9evdy3yncc8u80qm3juadd6e0v1wnanvdpz7cms9mhryj49urnlqjba247635uuuvkymepdgm8s4j24drta5fg6q117lpm6eemqm9slh97yvpgjm3lxr5vqugarnxl49olenw0ckbntdkxp5rb\"\n      },\n      \"listingId\" : \"aje4\"\n    } ],\n    \"offerDuration\" : {\n      \"unit\" : \"bm3xrz204uhezxgvdpek6vnjb1hv3l3w9a7n0wavgy3ia2tf6pdlpvntv95fmifbuziwcn1d20d6a7p2fdivlis07an8wzocvax717pmeok5vrk9nr4cnk6k4z7ztmafzuk4e2\",\n      \"value\" : 232000801\n    },\n    \"offerId\" : \"9xpi\",\n    \"creationDate\" : \"2022-11-04T16:33:30.097709Z\",\n    \"message\" : \"Nostrum aut repellat. Quos provident eum dolorum repellat. Beatae ut expedita sit omnis.\",\n    \"initiatedBy\" : \"g2e0ym5cjb4oo3vqsh59ur453b9vt7ohfpx32jwtish17m4tzr3u17ycvsnet18ybl6apk8eint669f94qds1gcg3umz3h7mqbtsqqcrq9sb8uk1383n59kmxh25u2ywurnp2fpboa6dpbqqo2d6lz3mnlzmjkhcpo7g\",\n    \"offerStatus\" : \"3b5ybjlyfixek2rhqxjlsf70x03gedw2cb5c9hhhq8ku2c22xpueynwnwcxltlla\",\n    \"buyer\" : {\n      \"maskedUsername\" : \"lynetta.halvorson\"\n    },\n    \"revision\" : \"8gix9dvgkwzar7vb1gvygks8zvvqcuzos2qxkp9c8nhwjoph6ogb14ql0s0zraht6u7covmybr6ue0cedbniy10u1cesb79zo3g0vra\"\n  } ]\n}",
      "headers" : {
        "Content-Type" : "application/json"
      }
    },
    "uuid" : "da12c4e2-009b-4a62-84eb-fa4a79553e3f",
    "persistent" : true,
    "metadata" : {
      "mocklab" : {
        "created" : {
          "at" : "2023-03-06T18:55:30.097959Z",
          "via" : "OAS3_IMPORT"
        },
        "oas" : {
          "operationId" : "sendOfferToInterestedBuyers",
          "schema" : {
            "description" : "The response object returned from a SendOfferToInterestedBuyers request.",
            "properties" : {
              "offers" : {
                "description" : "The offers container returns a list of the offers sent to buyers who have shown an interest in listings included in the offer.",
                "items" : {
                  "$ref" : "#/components/schemas/Offer"
                },
                "type" : "array"
              }
            },
            "type" : "object"
          }
        }
      }
    }
  }, {
    "id" : "8b6fee2d-d035-4c4b-8859-c4427ddae21e",
    "name" : "This method evaluates a seller's current listings and returns the set of IDs tha... - 500",
    "request" : {
      "urlPath" : "/find_eligible_items",
      "method" : "GET"
    },
    "response" : {
      "status" : 500
    },
    "uuid" : "8b6fee2d-d035-4c4b-8859-c4427ddae21e",
    "persistent" : true,
    "metadata" : {
      "mocklab" : {
        "created" : {
          "at" : "2023-03-06T18:55:30.093868Z",
          "via" : "OAS3_IMPORT"
        },
        "oas" : {
          "operationId" : "findEligibleItems"
        }
      }
    }
  }, {
    "id" : "904f59c3-17c8-4ccb-8ca4-32822440b241",
    "name" : "This method evaluates a seller's current listings and returns the set of IDs tha... - 400",
    "request" : {
      "urlPath" : "/find_eligible_items",
      "method" : "GET"
    },
    "response" : {
      "status" : 400
    },
    "uuid" : "904f59c3-17c8-4ccb-8ca4-32822440b241",
    "persistent" : true,
    "metadata" : {
      "mocklab" : {
        "created" : {
          "at" : "2023-03-06T18:55:30.093853Z",
          "via" : "OAS3_IMPORT"
        },
        "oas" : {
          "operationId" : "findEligibleItems"
        }
      }
    }
  }, {
    "id" : "51636e5b-2e9d-4e92-9f09-4c31662d3d18",
    "name" : "This method evaluates a seller's current listings and returns the set of IDs tha... - 204",
    "request" : {
      "urlPath" : "/find_eligible_items",
      "method" : "GET"
    },
    "response" : {
      "status" : 204
    },
    "uuid" : "51636e5b-2e9d-4e92-9f09-4c31662d3d18",
    "persistent" : true,
    "metadata" : {
      "mocklab" : {
        "created" : {
          "at" : "2023-03-06T18:55:30.093836Z",
          "via" : "OAS3_IMPORT"
        },
        "oas" : {
          "operationId" : "findEligibleItems"
        }
      }
    }
  }, {
    "id" : "03a1ca10-d7c3-415e-96c0-00bc0ed95d25",
    "name" : "This method evaluates a seller's current listings and returns the set of IDs tha... (application/json)",
    "request" : {
      "urlPath" : "/find_eligible_items",
      "method" : "GET",
      "headers" : {
        "Accept" : {
          "contains" : "application/json"
        }
      }
    },
    "response" : {
      "status" : 200,
      "body" : "{\n  \"next\" : \"dkhz6vboojebb1dktqenxcrwn5a0pxael8eodgkig8vd4i1as0c6gbvqnxi81k0434qhti0464u0z8u9ygyatd6h4lra4rtluh72woarnhdrj54h3rn98hz4y04faqap3jyv44\",\n  \"total\" : 1696317639,\n  \"offset\" : 1501392047,\n  \"prev\" : \"a8c48eoe5fjl455z8dx37cue50y63cunfg4uqefa9dz69whau9iiz8sd0ip4cfhy3gevwvj9pceboc7t893e56q15z1bh4z20y7rbf86bbd2w8ngynxqa9yhet7o6p60w82wbyhehun525prlpjaea629piefr4wmc808pb9p14fu\",\n  \"limit\" : 127235104,\n  \"href\" : \"jelx0dpc90wuvq9f1mp3kzpotdq7bv5irka8e05t2kcqhmk1cg7hocbkv5ivxx9w1qmoo4uvigpblnb96bb7qju057d\",\n  \"eligibleItems\" : [ {\n    \"listingId\" : \"v1y1\"\n  }, {\n    \"listingId\" : \"446z\"\n  }, {\n    \"listingId\" : \"r0t8\"\n  }, {\n    \"listingId\" : \"aduc\"\n  }, {\n    \"listingId\" : \"55g1\"\n  }, {\n    \"listingId\" : \"6ymt\"\n  } ]\n}",
      "headers" : {
        "Content-Type" : "application/json"
      }
    },
    "uuid" : "03a1ca10-d7c3-415e-96c0-00bc0ed95d25",
    "persistent" : true,
    "metadata" : {
      "mocklab" : {
        "created" : {
          "at" : "2023-03-06T18:55:30.093787Z",
          "via" : "OAS3_IMPORT"
        },
        "oas" : {
          "operationId" : "findEligibleItems",
          "schema" : {
            "description" : "This complex type defines a collection of listings that are eligible for an offer to a buyer.",
            "properties" : {
              "eligibleItems" : {
                "description" : "A list of items that are eligible for a seller-initiated offer to a buyer. Each element in the list contains the listing ID of a listed item. These IDs represent the listings for which buyers have shown an interest.",
                "items" : {
                  "$ref" : "#/components/schemas/EligibleItem"
                },
                "type" : "array"
              },
              "href" : {
                "description" : "The URI of the current page of results from the result set.",
                "type" : "string"
              },
              "limit" : {
                "description" : "The number of items returned on a single page from the result set. This value can be set in the request with the limit query parameter.",
                "format" : "int32",
                "type" : "integer"
              },
              "next" : {
                "description" : "The URI for the following page of results. This value is returned only if there is an additional page of results to display from the result set. Max length: 2048",
                "type" : "string"
              },
              "offset" : {
                "description" : "The number of results skipped in the result set before listing the first returned result. This value can be set in the request with the offset query parameter. Note: The items in a paginated result set use a zero-based list where the first item in the list has an offset of 0.",
                "format" : "int32",
                "type" : "integer"
              },
              "prev" : {
                "description" : "The URI for the preceding page of results. This value is returned only if there is a previous page of results to display from the result set. Max length: 2048",
                "type" : "string"
              },
              "total" : {
                "description" : "The total number of items retrieved in the result set. If no items match the search criteria, the server returns the HTTP status code 204 No Content.",
                "format" : "int32",
                "type" : "integer"
              }
            },
            "type" : "object"
          }
        }
      }
    }
  } ]
}