{
  "mappings" : [ {
    "id" : "232c37af-a9b0-40e1-952e-5fc87b818f8e",
    "name" : "This call is used to retrieve detailed information about supported charitable or... - 500",
    "request" : {
      "urlPath" : "/charity_org/c1v6",
      "method" : "GET"
    },
    "response" : {
      "status" : 500
    },
    "uuid" : "232c37af-a9b0-40e1-952e-5fc87b818f8e",
    "persistent" : true,
    "metadata" : {
      "mocklab" : {
        "created" : {
          "at" : "2023-03-28T09:23:52.903115Z",
          "via" : "OAS3_IMPORT"
        },
        "oas" : {
          "operationId" : "getCharityOrg"
        }
      }
    },
    "insertionIndex" : 0
  }, {
    "id" : "c8978d2c-e0e9-4be2-b6f3-4edbd0223477",
    "name" : "This call is used to retrieve detailed information about supported charitable or... - 404",
    "request" : {
      "urlPath" : "/charity_org/tsmy",
      "method" : "GET"
    },
    "response" : {
      "status" : 404
    },
    "uuid" : "c8978d2c-e0e9-4be2-b6f3-4edbd0223477",
    "persistent" : true,
    "metadata" : {
      "mocklab" : {
        "created" : {
          "at" : "2023-03-28T09:23:52.903034Z",
          "via" : "OAS3_IMPORT"
        },
        "oas" : {
          "operationId" : "getCharityOrg"
        }
      }
    },
    "insertionIndex" : 1
  }, {
    "id" : "9acd6458-4fb5-45a0-8955-3525898621c6",
    "name" : "This call is used to retrieve detailed information about supported charitable or... - 400",
    "request" : {
      "urlPath" : "/charity_org/7e5u",
      "method" : "GET"
    },
    "response" : {
      "status" : 400
    },
    "uuid" : "9acd6458-4fb5-45a0-8955-3525898621c6",
    "persistent" : true,
    "metadata" : {
      "mocklab" : {
        "created" : {
          "at" : "2023-03-28T09:23:52.902954Z",
          "via" : "OAS3_IMPORT"
        },
        "oas" : {
          "operationId" : "getCharityOrg"
        }
      }
    },
    "insertionIndex" : 2
  }, {
    "id" : "7b645ecf-42f6-4b13-9092-205bbc1ffa24",
    "name" : "This call is used to retrieve detailed information about supported charitable or... (application/json)",
    "request" : {
      "urlPath" : "/charity_org/z610",
      "method" : "GET",
      "headers" : {
        "Accept" : {
          "contains" : "application/json"
        }
      }
    },
    "response" : {
      "status" : 200,
      "body" : "{\n  \"website\" : \"sq20frymkpf699k5t95\",\n  \"logoImage\" : {\n    \"imageUrl\" : \"https://s3.amazonaws.com/uifaces/faces/twitter/bolzanmarco/128.jpg\",\n    \"width\" : \"https://s3.amazonaws.com/uifaces/faces/twitter/cofla/128.jpg\",\n    \"height\" : \"https://s3.amazonaws.com/uifaces/faces/twitter/vinciarts/128.jpg\"\n  },\n  \"missionStatement\" : \"by5xtz30vs95bzdxntbht6h9xlha47w66b7n64g8wrsgtfnhq2i8xbco8nhtuqdktq05yazo8xyw3tlip5myvzt5yeyomskwbc77b9pvki32ylfjuneful6jqv12czxjoth7y0mxso0etn000amejn0\",\n  \"charityOrgId\" : \"t147\",\n  \"name\" : \"Stuart Schmitt\",\n  \"registrationId\" : \"xnv7\",\n  \"description\" : \"Nihil et dolorem enim. Aut necessitatibus natus placeat. Et rerum provident facilis fugit quaerat quo. Labore aspernatur velit. Iusto aut totam.\",\n  \"location\" : {\n    \"address\" : {\n      \"country\" : \"China\",\n      \"stateOrProvince\" : \"a64febq7clxjhx4pkwbauepg04ixgfnthng9np8yw0gyq7mh9ws4wue\",\n      \"city\" : \"Littlefort\",\n      \"postalCode\" : \"99025-5515\"\n    },\n    \"geoCoordinates\" : {\n      \"latitude\" : 5.650068845303783E307,\n      \"longitude\" : 1.4144744032153005E308\n    }\n  }\n}",
      "headers" : {
        "Content-Type" : "application/json"
      }
    },
    "uuid" : "7b645ecf-42f6-4b13-9092-205bbc1ffa24",
    "persistent" : true,
    "metadata" : {
      "mocklab" : {
        "created" : {
          "at" : "2023-03-28T09:23:52.902859Z",
          "via" : "OAS3_IMPORT"
        },
        "oas" : {
          "operationId" : "getCharityOrg",
          "schema" : {
            "description" : "The full location, ID, logo and other details of the charity organization.",
            "properties" : {
              "charityOrgId" : {
                "description" : "The ID of the charitable organization.",
                "type" : "string"
              },
              "description" : {
                "description" : "The description of the charitable organization.",
                "type" : "string"
              },
              "location" : {
                "$ref" : "#/components/schemas/Location"
              },
              "logoImage" : {
                "$ref" : "#/components/schemas/Image"
              },
              "missionStatement" : {
                "description" : "The mission statement of the charitable organization.",
                "type" : "string"
              },
              "name" : {
                "description" : "The name of the charitable organization.",
                "type" : "string"
              },
              "registrationId" : {
                "description" : "The registration ID for the charitable organization.<br /><br /><span class=\"tablenote\"><span style=\"color:#004680\"><strong>Note:</strong></span> For the US marketplace, this is the EIN.</span>",
                "type" : "string"
              },
              "website" : {
                "description" : "The link to the website for the charitable organization.",
                "type" : "string"
              }
            },
            "type" : "object"
          }
        }
      }
    },
    "insertionIndex" : 3
  }, {
    "id" : "3b4a0ddd-d0c3-4b5d-9228-003a105e5b18",
    "name" : "This call is used to search for supported charitable organizations. It allows us... - 500",
    "request" : {
      "urlPath" : "/charity_org",
      "method" : "GET"
    },
    "response" : {
      "status" : 500
    },
    "uuid" : "3b4a0ddd-d0c3-4b5d-9228-003a105e5b18",
    "persistent" : true,
    "metadata" : {
      "mocklab" : {
        "created" : {
          "at" : "2023-03-28T09:23:52.902248Z",
          "via" : "OAS3_IMPORT"
        },
        "oas" : {
          "operationId" : "getCharityOrgs"
        }
      }
    },
    "insertionIndex" : 4
  }, {
    "id" : "bcdee655-e518-4413-be8e-92bbd588b3d5",
    "name" : "This call is used to search for supported charitable organizations. It allows us... - 400",
    "request" : {
      "urlPath" : "/charity_org",
      "method" : "GET"
    },
    "response" : {
      "status" : 400
    },
    "uuid" : "bcdee655-e518-4413-be8e-92bbd588b3d5",
    "persistent" : true,
    "metadata" : {
      "mocklab" : {
        "created" : {
          "at" : "2023-03-28T09:23:52.902231Z",
          "via" : "OAS3_IMPORT"
        },
        "oas" : {
          "operationId" : "getCharityOrgs"
        }
      }
    },
    "insertionIndex" : 5
  }, {
    "id" : "ceb99225-d7e7-483c-a48b-1163590142df",
    "name" : "This call is used to search for supported charitable organizations. It allows us... (application/json)",
    "request" : {
      "urlPath" : "/charity_org",
      "method" : "GET",
      "headers" : {
        "Accept" : {
          "contains" : "application/json"
        }
      }
    },
    "response" : {
      "status" : 200,
      "body" : "{\n  \"next\" : \"frwhe9tk68jd2yuyc2cma5fl24it5m8\",\n  \"total\" : 998871352,\n  \"offset\" : 315370721,\n  \"prev\" : \"qk0rd2wtlvkr74sms0w1cq8ky44du3pv2hdjpezgr1yj6p07xiycwknr3juuw42o8p2b6l24daxhzaoumc39a0r7600p9eex9ww63qkbpyyiemf\",\n  \"limit\" : 122128325,\n  \"href\" : \"qht5gbfaceeoc26t1hthbl4p5r6oprl56s0wu0pqz1fduo0h8aqgk9gstl0q1s7wsxx4gwb5pczk9dffpk3u36tb2tyrrykr7smap39dlltpcxjlemz7crk1q555h2k0y5uon0rjgduhw2g1u8m0vhy0vq5z5sjl7p6gz3gbgphylmmsdtdkrzx6spomvj4y52o\",\n  \"charityOrgs\" : [ {\n    \"website\" : \"6o4\",\n    \"logoImage\" : {\n      \"imageUrl\" : \"https://s3.amazonaws.com/uifaces/faces/twitter/thaisselenator_/128.jpg\",\n      \"width\" : \"https://s3.amazonaws.com/uifaces/faces/twitter/artem_kostenko/128.jpg\",\n      \"height\" : \"https://s3.amazonaws.com/uifaces/faces/twitter/jayrobinson/128.jpg\"\n    },\n    \"missionStatement\" : \"b276tbx1q1350l1b355yvt88gyo1o3oq7gijqsy1ozjebsvjweaozhsp9c1drxrvpd8gwctf6gido6vigm5mlhfx9qgo3hq4duwa8hx6nga2rci7mysyz1pw1sd0ihdathfxlh3a8aptkpfi810wg97qczcje7dc6aq93yesxv4lrcvnrky2wdg8cvwye5tar4nt6hq7\",\n    \"charityOrgId\" : \"x6wr\",\n    \"name\" : \"Mr. Margherita Streich\",\n    \"registrationId\" : \"huzb\",\n    \"description\" : \"Itaque sit placeat labore delectus quas ipsa. Aut aliquid qui et placeat ut quae debitis. Deserunt non dolorem harum provident praesentium ut quae. Sunt iure id eum tempore at.\",\n    \"location\" : {\n      \"address\" : {\n        \"country\" : \"Côte d'Ivoire\",\n        \"stateOrProvince\" : \"zzzvs1b6sfd9hhzastlfglra8vn5z3h3nt7t6jj22nmk0mngg9ztvksqh1ou5bhooj7x3dze6k8oyhjayij87y3e1tg9qeogpppk73244dfb9l9szxrg82rk90o6k8sqvubeu2pyzblf1e2qnxd528t396tht4wuu\",\n        \"city\" : \"Zaneland\",\n        \"postalCode\" : \"01197-0728\"\n      },\n      \"geoCoordinates\" : {\n        \"latitude\" : 1.4137121353517958E307,\n        \"longitude\" : 1.4032530177951204E308\n      }\n    }\n  }, {\n    \"website\" : \"v7xwg766uytspusbn4de2vz9xvdn5gjlhm0rln56800st8uxo97ubdocjavqamn5invmj789ngjpf3anfujlb0zk1d0uac6ysq\",\n    \"logoImage\" : {\n      \"imageUrl\" : \"https://s3.amazonaws.com/uifaces/faces/twitter/sta1ex/128.jpg\",\n      \"width\" : \"https://s3.amazonaws.com/uifaces/faces/twitter/divya/128.jpg\",\n      \"height\" : \"https://s3.amazonaws.com/uifaces/faces/twitter/panchajanyag/128.jpg\"\n    },\n    \"missionStatement\" : \"28aiiype0zxx1505d5u3m6kuf2v2cew0f4v6tim5f0e1djqt4ulewv3ntrbp7yn1ynxfgomsdmzktfru0c0bkzda5wx1t439cahrpw8w75an1bzy1hmn9s88qnrrlrwc8gbhyv4hl9s0lnnfivgja63xhw1di0zojb\",\n    \"charityOrgId\" : \"s46e\",\n    \"name\" : \"Joetta Stoltenberg\",\n    \"registrationId\" : \"vxc1\",\n    \"description\" : \"Dolor recusandae possimus eius sint ut libero iure. Qui facilis ratione qui quia officia. Qui et at sequi dolorem dolorum sed.\",\n    \"location\" : {\n      \"address\" : {\n        \"country\" : \"Ethiopia\",\n        \"stateOrProvince\" : \"3t5tw7j5rn1yf4sc7vdbwy7qln9uzbrbcn4t5a4bwpsxsgvxc75ewpwgngm3qyy\",\n        \"city\" : \"East Meghannmouth\",\n        \"postalCode\" : \"42986-4482\"\n      },\n      \"geoCoordinates\" : {\n        \"latitude\" : 1.463390658669828E307,\n        \"longitude\" : 5.096977987321512E307\n      }\n    }\n  }, {\n    \"website\" : \"lxpmezbxkjjvhu2z1is0nwa7puqr2j4nthlw4mlrb56nzzpc81knvfxmgf348a76bkedngq4xlij7ssm2cuj20mnltbo76owo906ngyeup0bqgw9iz0e0dbiwsna6ou9r0eq3zavz9gw21fp13gd4fi7s0vvk8bp4t1upt497rdq4pa2uv778d\",\n    \"logoImage\" : {\n      \"imageUrl\" : \"https://s3.amazonaws.com/uifaces/faces/twitter/algunsanabria/128.jpg\",\n      \"width\" : \"https://s3.amazonaws.com/uifaces/faces/twitter/estebanuribe/128.jpg\",\n      \"height\" : \"https://s3.amazonaws.com/uifaces/faces/twitter/cicerobr/128.jpg\"\n    },\n    \"missionStatement\" : \"8okz6odk1a6pr19t1x61xd089tt7tiarf73iux8589hzab0savc5jzpvynrrsw0gtdvlj5buzryay8f8seqe0dncgak6fttwwxz7do14qdsql121fpyi0hqbwf5vuo7nz440wxq9kd9u1albqsxynxmw1hy68okl3pqpcevahljqf6oa5zyk5z7u\",\n    \"charityOrgId\" : \"66vc\",\n    \"name\" : \"Harrison Lockman\",\n    \"registrationId\" : \"ntu0\",\n    \"description\" : \"Omnis voluptatem non hic. Temporibus quis rerum aut omnis ratione nesciunt. Et ad iure.\",\n    \"location\" : {\n      \"address\" : {\n        \"country\" : \"Ukraine\",\n        \"stateOrProvince\" : \"7xw28ftdlxc2cut13zgu4q1l2qrlwfkaamxx38s4sjnz7ez5ore1vvr2lm7dwwm64vd9a8vg8l235am34phc8bfxf4ayvmneifsr6dhs1d9p7\",\n        \"city\" : \"Port Milliemouth\",\n        \"postalCode\" : \"57390\"\n      },\n      \"geoCoordinates\" : {\n        \"latitude\" : 9.29183649366203E307,\n        \"longitude\" : 1.677720880804384E307\n      }\n    }\n  }, {\n    \"website\" : \"o0l6x1poocrxvgdiectn55jw2fy8j8colbllourmbl9gos1717xea4ec7hw3jpvajzmqxy1lcj088jzjb00vbpwjsnagnclsy3fau\",\n    \"logoImage\" : {\n      \"imageUrl\" : \"https://s3.amazonaws.com/uifaces/faces/twitter/reetajayendra/128.jpg\",\n      \"width\" : \"https://s3.amazonaws.com/uifaces/faces/twitter/findingjenny/128.jpg\",\n      \"height\" : \"https://s3.amazonaws.com/uifaces/faces/twitter/S0ufi4n3/128.jpg\"\n    },\n    \"missionStatement\" : \"ljqrlslafwiz9l6n06nryy0ajd1gyt3ye7uby5zg281vo0spw0hyschbsn5vi978udnokkthel3atma\",\n    \"charityOrgId\" : \"81g3\",\n    \"name\" : \"Ms. Catarina Schimmel\",\n    \"registrationId\" : \"5m30\",\n    \"description\" : \"Exercitationem sapiente sunt quo quibusdam ut repellat ut. Maxime voluptate dicta repellat doloribus fugit saepe a. Asperiores beatae suscipit suscipit blanditiis vel quia.\",\n    \"location\" : {\n      \"address\" : {\n        \"country\" : \"Mauritania\",\n        \"stateOrProvince\" : \"7hwieukbxysvm\",\n        \"city\" : \"Ritchieside\",\n        \"postalCode\" : \"21681-5173\"\n      },\n      \"geoCoordinates\" : {\n        \"latitude\" : 4.949399867565693E307,\n        \"longitude\" : 6.288569722180654E307\n      }\n    }\n  }, {\n    \"website\" : \"8tp3ip3t685ts1zq0fv30bowtnzef95rcl1oig6dqmq3qz70k27jxufaw3ku6d567phxlle2q1wh0r888fhs76oz5pw0ob4q2rm8rv2p5jo4byjch45fuowxctn4\",\n    \"logoImage\" : {\n      \"imageUrl\" : \"https://s3.amazonaws.com/uifaces/faces/twitter/thatonetommy/128.jpg\",\n      \"width\" : \"https://s3.amazonaws.com/uifaces/faces/twitter/cliffseal/128.jpg\",\n      \"height\" : \"https://s3.amazonaws.com/uifaces/faces/twitter/hjartstrorn/128.jpg\"\n    },\n    \"missionStatement\" : \"x7ri3nmbh08g3jsznp60bpovjovus7mjk4xu55ln970j1b\",\n    \"charityOrgId\" : \"k99f\",\n    \"name\" : \"Ms. Chery Daniel\",\n    \"registrationId\" : \"k5n8\",\n    \"description\" : \"Eveniet laborum ut explicabo. Provident odit blanditiis aut et corrupti iure dolorem. Iste dolor quam. Eos magnam enim dolorum officiis magnam.\",\n    \"location\" : {\n      \"address\" : {\n        \"country\" : \"Lesotho\",\n        \"stateOrProvince\" : \"gzpon9\",\n        \"city\" : \"East Dalemouth\",\n        \"postalCode\" : \"77826\"\n      },\n      \"geoCoordinates\" : {\n        \"latitude\" : 6.737497129019476E307,\n        \"longitude\" : 6.152150921590875E307\n      }\n    }\n  }, {\n    \"website\" : \"rs606rf5bvod1kjum1727vtiea1uy93luhgxf5y1glhv8ti1ne1visug1nlnzk8p6mbsp3eerhiw5bdujdu2t3ipdrplu5o1ewqepjrkzihptknytjlp3ede0242kkcdg7ivvfl0adlec170bb2gtbvhjxqosc0pnaxvipb8bp2apn4g0mp5iw7o6bbvnvo2bl5h\",\n    \"logoImage\" : {\n      \"imageUrl\" : \"https://s3.amazonaws.com/uifaces/faces/twitter/nerdgr8/128.jpg\",\n      \"width\" : \"https://s3.amazonaws.com/uifaces/faces/twitter/pierrestoffe/128.jpg\",\n      \"height\" : \"https://s3.amazonaws.com/uifaces/faces/twitter/d00maz/128.jpg\"\n    },\n    \"missionStatement\" : \"r2ofi0lujmg6tl22pwf4rofk8738n2mdffc42p5m54n6wommp6h4paajasoxpah5bv6scybhfm7952dz38fdavohzvhsazdmo99nuwb04nblcy7vjbwjq0zvno390j22c2241ktdxsoktsxetnxphvpkaaekdg0zde8tp1hrzgt\",\n    \"charityOrgId\" : \"ha06\",\n    \"name\" : \"Miss Terrell Wilderman\",\n    \"registrationId\" : \"rmck\",\n    \"description\" : \"Vel et placeat velit fugiat. Aut voluptates non laudantium ipsam voluptas officia. Non inventore ipsa.\",\n    \"location\" : {\n      \"address\" : {\n        \"country\" : \"Grenada\",\n        \"stateOrProvince\" : \"j9gh6m17yf76r3vdbbufi5qrdie1aybzo2kf8ch48rqgc6yo36xfrorapqcxn2h7g1b0k5st1\",\n        \"city\" : \"Hughton\",\n        \"postalCode\" : \"63306\"\n      },\n      \"geoCoordinates\" : {\n        \"latitude\" : 2.419623663262745E307,\n        \"longitude\" : 6.688042738078344E307\n      }\n    }\n  }, {\n    \"website\" : \"d2vxv3wmumm8v4p3kzh6ngkd4dau4ls0qb3c00rtz1jb4iz5zyo9yba0clkfwftk49jbzq0an3evhp8dmozdmsbs0xamegfqh59x\",\n    \"logoImage\" : {\n      \"imageUrl\" : \"https://s3.amazonaws.com/uifaces/faces/twitter/allthingssmitty/128.jpg\",\n      \"width\" : \"https://s3.amazonaws.com/uifaces/faces/twitter/blakehawksworth/128.jpg\",\n      \"height\" : \"https://s3.amazonaws.com/uifaces/faces/twitter/robergd/128.jpg\"\n    },\n    \"missionStatement\" : \"4lt00f2far37kzu4k8qoaanadl7ho862z37isd8mdcpakzk5bdc35wv1yqy1nt6uu25bhr4d5tb\",\n    \"charityOrgId\" : \"m3q4\",\n    \"name\" : \"Felicia Herman\",\n    \"registrationId\" : \"mqb4\",\n    \"description\" : \"Eius eos est deleniti. Magni voluptatibus eum illum beatae rerum et officia. Provident autem ut dolore aut libero.\",\n    \"location\" : {\n      \"address\" : {\n        \"country\" : \"Turkmenistan\",\n        \"stateOrProvince\" : \"2gab6zi92aj0fyn30tcoolt7tn63w2tw1dpf2tntzzsiuviredo8i9h8skbq7914iakzmj2zc5pvp\",\n        \"city\" : \"South Nigelfort\",\n        \"postalCode\" : \"90277\"\n      },\n      \"geoCoordinates\" : {\n        \"latitude\" : 9.154204672989789E307,\n        \"longitude\" : 6.387154259925748E307\n      }\n    }\n  }, {\n    \"website\" : \"jp1vtocswcds10km1jgync44a5yj4ao6no1l390zdpf1ufjrzggr2mquje37dawb8t67zo8t6m1asu89bdph1vqp27elsvb6ovybe91ndiljwvqf5q9xtp16xi1e4ihdxb8n75nk0w53sky2prdphkuhixqc1i8195o9bztlxh\",\n    \"logoImage\" : {\n      \"imageUrl\" : \"https://s3.amazonaws.com/uifaces/faces/twitter/mkginfo/128.jpg\",\n      \"width\" : \"https://s3.amazonaws.com/uifaces/faces/twitter/allagringaus/128.jpg\",\n      \"height\" : \"https://s3.amazonaws.com/uifaces/faces/twitter/envex/128.jpg\"\n    },\n    \"missionStatement\" : \"81v4tcwuooqmliuydx275syol464phliqek2ulv5zth9n2e7icxe4wo1ak22vurqs37h5ecqiwa00p7nlpgyrkj3wjl6ij\",\n    \"charityOrgId\" : \"1rxd\",\n    \"name\" : \"Precious Botsford\",\n    \"registrationId\" : \"nr3o\",\n    \"description\" : \"Dolores non esse enim alias laborum quis. Repellendus ea eius rem. Velit vel dicta sunt quod id. Qui velit totam non. Et et repellat exercitationem sit magni et est.\",\n    \"location\" : {\n      \"address\" : {\n        \"country\" : \"Italy\",\n        \"stateOrProvince\" : \"xc4nx19iw7v3x2na1rwesmtf6jb8pt5ivtllw9oxkyt53l6che\",\n        \"city\" : \"Teddyshire\",\n        \"postalCode\" : \"38070-3826\"\n      },\n      \"geoCoordinates\" : {\n        \"latitude\" : 8.475966674382352E307,\n        \"longitude\" : 1.1534845987757544E308\n      }\n    }\n  } ]\n}",
      "headers" : {
        "Content-Type" : "application/json"
      }
    },
    "uuid" : "ceb99225-d7e7-483c-a48b-1163590142df",
    "persistent" : true,
    "metadata" : {
      "mocklab" : {
        "created" : {
          "at" : "2023-03-28T09:23:52.902159Z",
          "via" : "OAS3_IMPORT"
        },
        "oas" : {
          "operationId" : "getCharityOrgs",
          "schema" : {
            "description" : "A single set of search results, with information for accessing other sets.",
            "properties" : {
              "charityOrgs" : {
                "description" : "The list of charitable organizations that match the search criteria.",
                "items" : {
                  "$ref" : "#/components/schemas/CharityOrg"
                },
                "type" : "array"
              },
              "href" : {
                "description" : "The relative path to the current set of results.",
                "type" : "string"
              },
              "limit" : {
                "description" : "The number of items, from the result set, returned in a single page.<br /><br /><b>Valid Values:</b> <code>1-100</code><br /><br /><b>Default:</b> <code>20</code>",
                "format" : "int32",
                "type" : "integer"
              },
              "next" : {
                "description" : "The relative path to the next set of results.",
                "type" : "string"
              },
              "offset" : {
                "description" : "The number of items that will be skipped in the result set. This is used with the <b>limit</b> field to control the pagination of the output.<br /><br />For example, if the <b>offset</b> is set to <code>0</code> and the <b>limit</b> is set to <code>10</code>, the method will retrieve items 1 through 10 from the list of items returned. If the <b>offset</b> is set to <code>10</code> and the <b>limit</b> is set to <code>10</code>, the method will retrieve items 11 through 20 from the list of items returned.<br /><br /><b>Valid Values:</b> <code>0-10,000</code><br /><br /><b>Default:</b> <code>0</code>",
                "format" : "int32",
                "type" : "integer"
              },
              "prev" : {
                "description" : "The relative path to the previous set of results.",
                "type" : "string"
              },
              "total" : {
                "description" : "The total number of matches for the search criteria.",
                "format" : "int32",
                "type" : "integer"
              }
            },
            "type" : "object"
          }
        }
      }
    },
    "insertionIndex" : 6
  } ]
}