{
  "mappings" : [ {
    "id" : "37d1e17b-3af2-488b-9171-5d868935f65d",
    "name" : "Retrieve individual audit event",
    "request" : {
      "urlPath" : "/events/r8rk",
      "method" : "GET"
    },
    "response" : {
      "status" : 404,
      "body" : "{\n  \"error\" : \"Not Found\",\n  \"message\" : \"Event with provided id: aaaaaaaa-bbbb-cccc-dddd-0123456789ab was not found\",\n  \"status\" : 404\n}",
      "headers" : {
        "Content-Type" : "application/json"
      }
    },
    "uuid" : "37d1e17b-3af2-488b-9171-5d868935f65d",
    "persistent" : true,
    "metadata" : {
      "mocklab" : {
        "created" : {
          "at" : "2023-03-28T09:24:24.820381Z",
          "via" : "OAS3_IMPORT"
        },
        "oas" : {
          "operationId" : "getEvent",
          "schema" : {
            "properties" : {
              "error" : {
                "description" : "A human readable description of the error XXX",
                "example" : "Not Found",
                "type" : "string"
              },
              "message" : {
                "description" : "A longer description of the error YYY",
                "example" : "Event with provided id: aaaaaaaa-bbbb-cccc-dddd-0123456789ab was not found",
                "type" : "string"
              },
              "status" : {
                "description" : "The HTTP Status code of the error",
                "example" : 404,
                "type" : "integer"
              }
            },
            "type" : "object"
          }
        }
      }
    },
    "insertionIndex" : 0
  }, {
    "id" : "023ac793-f90f-40b8-9fbd-a1f52be63d11",
    "name" : "Retrieve individual audit event",
    "request" : {
      "urlPath" : "/events/qy85",
      "method" : "GET"
    },
    "response" : {
      "status" : 401,
      "body" : "{\n  \"error\" : \"Unauthorized\",\n  \"message\" : \"Full authentication is required. JWT was not found in \\\"Authorization\\\" HTTP header.\",\n  \"status\" : 401\n}",
      "headers" : {
        "Content-Type" : "application/json"
      }
    },
    "uuid" : "023ac793-f90f-40b8-9fbd-a1f52be63d11",
    "persistent" : true,
    "metadata" : {
      "mocklab" : {
        "created" : {
          "at" : "2023-03-28T09:24:24.820257Z",
          "via" : "OAS3_IMPORT"
        },
        "oas" : {
          "operationId" : "getEvent",
          "schema" : {
            "properties" : {
              "error" : {
                "description" : "A human readable description of the error",
                "example" : "Unauthorized",
                "type" : "string"
              },
              "message" : {
                "description" : "A longer description of the error",
                "example" : "Full authentication is required. JWT was not found in \"Authorization\" HTTP header.",
                "type" : "string"
              },
              "status" : {
                "description" : "The HTTP Status code of the error",
                "example" : 401,
                "type" : "integer"
              }
            },
            "type" : "object"
          }
        }
      }
    },
    "insertionIndex" : 1
  }, {
    "id" : "c135095a-8ddd-48ed-90f2-686ac3a98770",
    "name" : "Retrieve individual audit event",
    "request" : {
      "urlPath" : "/events/128w",
      "method" : "GET"
    },
    "response" : {
      "status" : 200,
      "body" : "{\n  \"user_email\" : \"user@example.org\",\n  \"_links\" : {\n    \"self\" : {\n      \"href\" : \"https://api.nexmo.com/beta/audit/events/aaaaaaaa-bbbb-cccc-dddd-0123456789ab\"\n    }\n  },\n  \"created_at\" : \"2018-07-04T11:41:32\",\n  \"source\" : \"CD\",\n  \"source_ip\" : \"192.0.2.0\",\n  \"account_id\" : \"abcd1234\",\n  \"event_type\" : \"APP_CREATE\",\n  \"source_country\" : \"GB\",\n  \"user_id\" : 1234567,\n  \"context\" : {\n    \"created\" : {\n      \"accountId\" : \"abcdef01\",\n      \"answer_url\" : {\n        \"method\" : \"GET\",\n        \"url\" : \"https://example.org/call\"\n      },\n      \"appId\" : \"aaaaaaaa-bbbb-cccc-dddd-0123456789ab\",\n      \"event_url\" : {\n        \"method\" : \"POST\",\n        \"url\" : \"https://example.org/event\"\n      },\n      \"name\" : \"My voice app\",\n      \"type\" : \"voice\"\n    }\n  },\n  \"id\" : \"aaaaaaaa-bbbb-cccc-dddd-0123456789ab\",\n  \"event_type_description\" : \"Application created.\",\n  \"source_description\" : \"Customer Dashboard\"\n}",
      "headers" : {
        "Content-Type" : "application/json"
      }
    },
    "uuid" : "c135095a-8ddd-48ed-90f2-686ac3a98770",
    "persistent" : true,
    "metadata" : {
      "mocklab" : {
        "created" : {
          "at" : "2023-03-28T09:24:24.820116Z",
          "via" : "OAS3_IMPORT"
        },
        "oas" : {
          "operationId" : "getEvent",
          "schema" : {
            "properties" : {
              "_links" : {
                "$ref" : "#/components/schemas/EventLink"
              },
              "account_id" : {
                "description" : "The NEXMO_API_KEY of the Vonage API account that the audit event is associated with.",
                "example" : "abcd1234",
                "type" : "string"
              },
              "context" : {
                "description" : "A valid JSON object with information detailing the context of the audit event.",
                "example" : {
                  "created" : {
                    "accountId" : "abcdef01",
                    "answer_url" : {
                      "method" : "GET",
                      "url" : "https://example.org/call"
                    },
                    "appId" : "aaaaaaaa-bbbb-cccc-dddd-0123456789ab",
                    "event_url" : {
                      "method" : "POST",
                      "url" : "https://example.org/event"
                    },
                    "name" : "My voice app",
                    "type" : "voice"
                  }
                },
                "oneOf" : [ {
                  "$ref" : "#/components/schemas/ContextAppCreate"
                }, {
                  "$ref" : "#/components/schemas/ContextNumberLinking"
                }, {
                  "$ref" : "#/components/schemas/ContextNumberUpdate"
                } ],
                "type" : "object"
              },
              "created_at" : {
                "description" : "When the audit event was created.",
                "example" : "2018-07-04T11:41:32",
                "format" : "date",
                "type" : "string"
              },
              "event_type" : {
                "$ref" : "#/components/schemas/EventTypes"
              },
              "event_type_description" : {
                "description" : "A description of the event type",
                "example" : "Application created.",
                "type" : "string"
              },
              "id" : {
                "description" : "UUID of the audit event",
                "example" : "aaaaaaaa-bbbb-cccc-dddd-0123456789ab",
                "type" : "string"
              },
              "source" : {
                "description" : "The source of the event.\nCD: Customer Dashboard DEVAPI: via Developer API\n",
                "enum" : [ "CD", "DEVAPI" ],
                "example" : "CD",
                "type" : "string"
              },
              "source_country" : {
                "description" : "ISO 3166-1 Alpha-2 country code recorded for the event.",
                "example" : "GB",
                "type" : "string"
              },
              "source_description" : {
                "description" : "Description of the audit event source.",
                "enum" : [ "Customer Dashboard", "Developer API" ],
                "example" : "Customer Dashboard",
                "format" : "A human readable description of the `source`.",
                "type" : "string"
              },
              "source_ip" : {
                "description" : "The IP address used to make the account change.",
                "example" : "192.0.2.0",
                "format" : "ipv4",
                "type" : "string"
              },
              "user_email" : {
                "description" : "Email of the user whose account the audit event is associated with.",
                "example" : "user@example.org",
                "format" : "email",
                "type" : "string"
              },
              "user_id" : {
                "description" : "The ID of the user that the audit event is associated with.",
                "example" : 1234567,
                "type" : "integer"
              }
            },
            "type" : "object"
          }
        }
      }
    },
    "insertionIndex" : 2
  }, {
    "id" : "9daa98b3-6a14-457d-9d6f-ee47a2345bd0",
    "name" : "Retrieve audit event types",
    "request" : {
      "urlPath" : "/events",
      "method" : "OPTIONS"
    },
    "response" : {
      "status" : 403,
      "body" : "{\n  \"error\" : \"Forbidden\",\n  \"message\" : \"An example goes here\",\n  \"status\" : 403\n}",
      "headers" : {
        "Content-Type" : "application/json"
      }
    },
    "uuid" : "9daa98b3-6a14-457d-9d6f-ee47a2345bd0",
    "persistent" : true,
    "metadata" : {
      "mocklab" : {
        "created" : {
          "at" : "2023-03-28T09:24:24.819751Z",
          "via" : "OAS3_IMPORT"
        },
        "oas" : {
          "operationId" : "getEventsOptions",
          "schema" : {
            "properties" : {
              "error" : {
                "description" : "A human readable description of the error",
                "example" : "Forbidden",
                "type" : "string"
              },
              "message" : {
                "description" : "A longer description of the error",
                "example" : "An example goes here",
                "type" : "string"
              },
              "status" : {
                "description" : "The HTTP Status code of the error",
                "example" : 403,
                "type" : "integer"
              }
            },
            "type" : "object"
          }
        }
      }
    },
    "insertionIndex" : 3
  }, {
    "id" : "42a969f4-09ac-488b-8ee3-3ba13d192618",
    "name" : "Retrieve audit event types",
    "request" : {
      "urlPath" : "/events",
      "method" : "OPTIONS"
    },
    "response" : {
      "status" : 401,
      "body" : "{\n  \"error\" : \"Unauthorized\",\n  \"message\" : \"Full authentication is required. JWT was not found in \\\"Authorization\\\" HTTP header.\",\n  \"status\" : 401\n}",
      "headers" : {
        "Content-Type" : "application/json"
      }
    },
    "uuid" : "42a969f4-09ac-488b-8ee3-3ba13d192618",
    "persistent" : true,
    "metadata" : {
      "mocklab" : {
        "created" : {
          "at" : "2023-03-28T09:24:24.8197Z",
          "via" : "OAS3_IMPORT"
        },
        "oas" : {
          "operationId" : "getEventsOptions",
          "schema" : {
            "properties" : {
              "error" : {
                "description" : "A human readable description of the error",
                "example" : "Unauthorized",
                "type" : "string"
              },
              "message" : {
                "description" : "A longer description of the error",
                "example" : "Full authentication is required. JWT was not found in \"Authorization\" HTTP header.",
                "type" : "string"
              },
              "status" : {
                "description" : "The HTTP Status code of the error",
                "example" : 401,
                "type" : "integer"
              }
            },
            "type" : "object"
          }
        }
      }
    },
    "insertionIndex" : 4
  }, {
    "id" : "9c065c79-e678-4cb4-b51c-a643fbcf97ad",
    "name" : "Retrieve audit event types",
    "request" : {
      "urlPath" : "/events",
      "method" : "OPTIONS"
    },
    "response" : {
      "status" : 204,
      "body" : "{\n  \"error\" : \"No Content\",\n  \"message\" : \"No content\",\n  \"status\" : 204\n}",
      "headers" : {
        "Content-Type" : "application/json"
      }
    },
    "uuid" : "9c065c79-e678-4cb4-b51c-a643fbcf97ad",
    "persistent" : true,
    "metadata" : {
      "mocklab" : {
        "created" : {
          "at" : "2023-03-28T09:24:24.819647Z",
          "via" : "OAS3_IMPORT"
        },
        "oas" : {
          "operationId" : "getEventsOptions",
          "schema" : {
            "properties" : {
              "error" : {
                "description" : "A human readable description of the error AAA",
                "example" : "No Content",
                "type" : "string"
              },
              "message" : {
                "description" : "A longer description of the error BBB",
                "example" : "No content",
                "type" : "string"
              },
              "status" : {
                "description" : "The HTTP Status code of the error",
                "example" : 204,
                "type" : "integer"
              }
            },
            "type" : "object"
          }
        }
      }
    },
    "insertionIndex" : 5
  }, {
    "id" : "f7597315-f91b-4a19-9e43-ac622bbfff2b",
    "name" : "Retrieve audit event types",
    "request" : {
      "urlPath" : "/events",
      "method" : "OPTIONS"
    },
    "response" : {
      "status" : 200,
      "body" : "{\n  \"eventTypes\" : [ {\n    \"description\" : \"Application created.\",\n    \"type\" : \"APP_CREATE\"\n  }, {\n    \"description\" : \"Application created.\",\n    \"type\" : \"APP_CREATE\"\n  }, {\n    \"description\" : \"Application created.\",\n    \"type\" : \"APP_CREATE\"\n  }, {\n    \"description\" : \"Application created.\",\n    \"type\" : \"APP_CREATE\"\n  }, {\n    \"description\" : \"Application created.\",\n    \"type\" : \"APP_CREATE\"\n  } ]\n}",
      "headers" : {
        "Content-Type" : "application/json"
      }
    },
    "uuid" : "f7597315-f91b-4a19-9e43-ac622bbfff2b",
    "persistent" : true,
    "metadata" : {
      "mocklab" : {
        "created" : {
          "at" : "2023-03-28T09:24:24.819573Z",
          "via" : "OAS3_IMPORT"
        },
        "oas" : {
          "operationId" : "getEventsOptions",
          "schema" : {
            "properties" : {
              "eventTypes" : {
                "description" : "An array of audit event types.",
                "items" : {
                  "$ref" : "#/components/schemas/AuditEventType"
                },
                "type" : "array"
              }
            },
            "type" : "object"
          }
        }
      }
    },
    "insertionIndex" : 6
  }, {
    "id" : "e3d02541-96c5-4b32-acdf-e1164c4a02c0",
    "name" : "Retrieve audit events",
    "request" : {
      "urlPath" : "/events",
      "method" : "GET"
    },
    "response" : {
      "status" : 404,
      "body" : "{\n  \"error\" : \"Not Found\",\n  \"message\" : \"Event with provided id: aaaaaaaa-bbbb-cccc-dddd-0123456789ab was not found\",\n  \"status\" : 404\n}",
      "headers" : {
        "Content-Type" : "application/json"
      }
    },
    "uuid" : "e3d02541-96c5-4b32-acdf-e1164c4a02c0",
    "persistent" : true,
    "metadata" : {
      "mocklab" : {
        "created" : {
          "at" : "2023-03-28T09:24:24.819483Z",
          "via" : "OAS3_IMPORT"
        },
        "oas" : {
          "operationId" : "getEvents",
          "schema" : {
            "properties" : {
              "error" : {
                "description" : "A human readable description of the error XXX",
                "example" : "Not Found",
                "type" : "string"
              },
              "message" : {
                "description" : "A longer description of the error YYY",
                "example" : "Event with provided id: aaaaaaaa-bbbb-cccc-dddd-0123456789ab was not found",
                "type" : "string"
              },
              "status" : {
                "description" : "The HTTP Status code of the error",
                "example" : 404,
                "type" : "integer"
              }
            },
            "type" : "object"
          }
        }
      }
    },
    "insertionIndex" : 7
  }, {
    "id" : "b52ad9fb-1f8d-4d22-9ad9-55917aedd2c8",
    "name" : "Retrieve audit events",
    "request" : {
      "urlPath" : "/events",
      "method" : "GET"
    },
    "response" : {
      "status" : 403,
      "body" : "{\n  \"error\" : \"Forbidden\",\n  \"message\" : \"An example goes here\",\n  \"status\" : 403\n}",
      "headers" : {
        "Content-Type" : "application/json"
      }
    },
    "uuid" : "b52ad9fb-1f8d-4d22-9ad9-55917aedd2c8",
    "persistent" : true,
    "metadata" : {
      "mocklab" : {
        "created" : {
          "at" : "2023-03-28T09:24:24.81941Z",
          "via" : "OAS3_IMPORT"
        },
        "oas" : {
          "operationId" : "getEvents",
          "schema" : {
            "properties" : {
              "error" : {
                "description" : "A human readable description of the error",
                "example" : "Forbidden",
                "type" : "string"
              },
              "message" : {
                "description" : "A longer description of the error",
                "example" : "An example goes here",
                "type" : "string"
              },
              "status" : {
                "description" : "The HTTP Status code of the error",
                "example" : 403,
                "type" : "integer"
              }
            },
            "type" : "object"
          }
        }
      }
    },
    "insertionIndex" : 8
  }, {
    "id" : "f72303fb-da6d-4aad-baa1-193c51401202",
    "name" : "Retrieve audit events",
    "request" : {
      "urlPath" : "/events",
      "method" : "GET"
    },
    "response" : {
      "status" : 401,
      "body" : "{\n  \"error\" : \"Unauthorized\",\n  \"message\" : \"Full authentication is required. JWT was not found in \\\"Authorization\\\" HTTP header.\",\n  \"status\" : 401\n}",
      "headers" : {
        "Content-Type" : "application/json"
      }
    },
    "uuid" : "f72303fb-da6d-4aad-baa1-193c51401202",
    "persistent" : true,
    "metadata" : {
      "mocklab" : {
        "created" : {
          "at" : "2023-03-28T09:24:24.81934Z",
          "via" : "OAS3_IMPORT"
        },
        "oas" : {
          "operationId" : "getEvents",
          "schema" : {
            "properties" : {
              "error" : {
                "description" : "A human readable description of the error",
                "example" : "Unauthorized",
                "type" : "string"
              },
              "message" : {
                "description" : "A longer description of the error",
                "example" : "Full authentication is required. JWT was not found in \"Authorization\" HTTP header.",
                "type" : "string"
              },
              "status" : {
                "description" : "The HTTP Status code of the error",
                "example" : 401,
                "type" : "integer"
              }
            },
            "type" : "object"
          }
        }
      }
    },
    "insertionIndex" : 9
  }, {
    "id" : "60ba87f1-ead6-4f27-a733-9431aa6cc117",
    "name" : "Retrieve audit events",
    "request" : {
      "urlPath" : "/events",
      "method" : "GET"
    },
    "response" : {
      "status" : 200,
      "body" : "{\n  \"_embedded\" : {\n    \"events\" : [ {\n      \"user_email\" : \"user@example.org\",\n      \"_links\" : {\n        \"self\" : {\n          \"href\" : \"https://api.nexmo.com/beta/audit/events/aaaaaaaa-bbbb-cccc-dddd-0123456789ab\"\n        }\n      },\n      \"created_at\" : \"2018-07-04T11:41:32\",\n      \"source\" : \"CD\",\n      \"source_ip\" : \"192.0.2.0\",\n      \"account_id\" : \"abcd1234\",\n      \"event_type\" : \"APP_CREATE\",\n      \"source_country\" : \"GB\",\n      \"user_id\" : 1234567,\n      \"context\" : {\n        \"created\" : {\n          \"accountId\" : \"abcdef01\",\n          \"answer_url\" : {\n            \"method\" : \"GET\",\n            \"url\" : \"https://example.org/call\"\n          },\n          \"appId\" : \"aaaaaaaa-bbbb-cccc-dddd-0123456789ab\",\n          \"event_url\" : {\n            \"method\" : \"POST\",\n            \"url\" : \"https://example.org/event\"\n          },\n          \"name\" : \"My voice app\",\n          \"type\" : \"voice\"\n        }\n      },\n      \"id\" : \"aaaaaaaa-bbbb-cccc-dddd-0123456789ab\",\n      \"event_type_description\" : \"Application created.\",\n      \"source_description\" : \"Customer Dashboard\"\n    } ]\n  },\n  \"_links\" : {\n    \"next\" : {\n      \"href\" : \"http://api.nexmo.com/beta/audit/events?page=2&size=30\"\n    },\n    \"last\" : {\n      \"href\" : \"http://api.nexmo.com/beta/audit/events?page=2&size=30\"\n    },\n    \"self\" : {\n      \"href\" : \"http://api.nexmo.com/beta/audit/events\"\n    }\n  },\n  \"page\" : {\n    \"number\" : 1,\n    \"size\" : 100,\n    \"totalPages\" : 2,\n    \"totalElements\" : 120\n  }\n}",
      "headers" : {
        "Content-Type" : "application/json"
      }
    },
    "uuid" : "60ba87f1-ead6-4f27-a733-9431aa6cc117",
    "persistent" : true,
    "metadata" : {
      "mocklab" : {
        "created" : {
          "at" : "2023-03-28T09:24:24.819234Z",
          "via" : "OAS3_IMPORT"
        },
        "oas" : {
          "operationId" : "getEvents",
          "schema" : {
            "properties" : {
              "_embedded" : {
                "description" : "Container containing the `events` array.",
                "properties" : {
                  "events" : {
                    "items" : {
                      "$ref" : "#/components/schemas/AuditEvent"
                    },
                    "type" : "array"
                  }
                },
                "type" : "object"
              },
              "_links" : {
                "$ref" : "#/components/schemas/PaginationLinks"
              },
              "page" : {
                "$ref" : "#/components/schemas/PaginationData"
              }
            },
            "type" : "object"
          }
        }
      }
    },
    "insertionIndex" : 10
  } ]
}