{
  "mappings" : [ {
    "id" : "1dcd7af4-9070-4a79-8fd5-0390349e38d4",
    "name" : "Retrieve call logs for your account",
    "request" : {
      "urlPath" : "/accounts/090n/call-logs",
      "method" : "GET",
      "queryParameters" : {
        "start:gte" : {
          "equalTo" : "vayrb850immrktqlxqoqb3dthxtqgoup9uz5bjdhvffmk55q2nhd9h9f2yp21y2xn9tmw16dmp9zwmejtixi5b5ivu6tlqigtxhw99dolb915ii72fcuny0yesfrtcvcihly28mi53vd02t4h73c8m7ywf3t"
        },
        "page" : {
          "equalTo" : "1.210501343389474E308"
        },
        "start:lte" : {
          "equalTo" : "p41od64h00aw42pll998gth2mzzprz7f824"
        },
        "page_size" : {
          "equalTo" : "5.858692971097093E307"
        }
      }
    },
    "response" : {
      "status" : 400,
      "body" : "{\n  \"instance\" : \"rx7nk80wkr\",\n  \"title\" : \"Fugit voluptas amet laudantium.\",\n  \"invalid_parameters\" : [ {\n    \"reason\" : \"79shltx3ydekgo9zri55yoe3fqpf3tirptb0tk261xqlghbnjswyxaitzg0y5d6wgl7\",\n    \"name\" : \"Scott Gibson\"\n  }, {\n    \"reason\" : \"dre3a589ihrzy1ca9zziqg1pzex66mmp7oyms92umj73fbtbyjnvvki3w3z61xkgjx7rpu4fjx03lbmhtuu61ipevwx7zbayuudg56pmfkjnj04729ktkihzn\",\n    \"name\" : \"Brendon Okuneva\"\n  }, {\n    \"reason\" : \"roq48q41r2jbetgg68oep7cykx8k3wwyywto5czqwnnvn1x8lr8h0hps6\",\n    \"name\" : \"Santos Grimes\"\n  }, {\n    \"reason\" : \"4o1mv953s7j3616yu7h5ziotsi6qm9nmrogwpy0peti6yyd8jhxkd1jrrihek4vgj5ilfwj43t5tjlc4j6pxkc0w6ikxecjelfyq54nviu61i6hc7dlji17yausfq4uvwtfsr0\",\n    \"name\" : \"Carey Morar MD\"\n  }, {\n    \"reason\" : \"kew9z3qhrj4d94hmhsjh3pf6oy49l13hc5crwjzmno657534hb29u93vlpmm214e1srprkbhuxse8ss2tedex9g562dtglbt4ahffc3qbvqwsuqf48empmjvzyazz6\",\n    \"name\" : \"Jeanette Cartwright\"\n  }, {\n    \"reason\" : \"c2z507kvrdg1pdtct5f44so\",\n    \"name\" : \"Agnus Fisher\"\n  }, {\n    \"reason\" : \"i8ppk3upu3cv1p47e3q4gn315ehzg2qpfnehzmbeis2qv0tso07j5zwrhxz2r4m8cqtc\",\n    \"name\" : \"Randy Kuhic\"\n  } ],\n  \"status\" : 6.014220199027783E307\n}",
      "headers" : {
        "Content-Type" : "application/json"
      }
    },
    "uuid" : "1dcd7af4-9070-4a79-8fd5-0390349e38d4",
    "persistent" : true,
    "metadata" : {
      "mocklab" : {
        "created" : {
          "at" : "2023-03-06T18:55:37.246798Z",
          "via" : "OAS3_IMPORT"
        },
        "oas" : {
          "operationId" : "getCallLogs",
          "schema" : {
            "properties" : {
              "instance" : {
                "description" : "Error Track ID",
                "type" : "string"
              },
              "invalid_parameters" : {
                "description" : "Invalid parameters and their reason for failing",
                "items" : {
                  "$ref" : "#/components/schemas/DetailedInvalidParam"
                },
                "type" : "array"
              },
              "status" : {
                "description" : "Error status code",
                "type" : "number"
              },
              "title" : {
                "description" : "Error title",
                "type" : "string"
              }
            },
            "type" : "object"
          }
        }
      }
    }
  }, {
    "id" : "f9b99188-709b-44ea-b285-224fb9d823ce",
    "name" : "Retrieve call logs for your account",
    "request" : {
      "urlPath" : "/accounts/gxgb/call-logs",
      "method" : "GET",
      "queryParameters" : {
        "start:gte" : {
          "equalTo" : "kd59arxva12xxy79alvgiuish5mminkfvnucru0exkbc9oq37efi0nukldxscyc52k2rzjh5v3i"
        },
        "page" : {
          "equalTo" : "5.9105100228396E307"
        },
        "start:lte" : {
          "equalTo" : "ytt4qp9lt6b82vc68rsf97myjuxlv1zoc6l7mai8dnvw"
        },
        "page_size" : {
          "equalTo" : "2.918076521736575E306"
        }
      }
    },
    "response" : {
      "status" : 200,
      "body" : "{\n  \"_embedded\" : {\n    \"call_logs\" : [ {\n      \"charge\" : 0,\n      \"destination_user\" : \"JSmith\",\n      \"length\" : 60,\n      \"start\" : \"2019-01-01 00:00:00\",\n      \"source_device_name\" : \"Smith\",\n      \"in_network\" : true,\n      \"recorded\" : true,\n      \"destination_extension\" : 1000,\n      \"destination_sip_id\" : \"VH1111111\",\n      \"result\" : \"Answered\",\n      \"source_extension\" : 1000,\n      \"rate\" : 0,\n      \"source_sip_id\" : \"VH1111111\",\n      \"destination_user_full_name\" : \"John Smith\",\n      \"end\" : \"2019-01-01 00:00:00\",\n      \"from\" : 17325550100,\n      \"source_user\" : \"JSmith\",\n      \"source_user_full_name\" : \"John Smith\",\n      \"id\" : \"f27b937d-6dde-441a-9595-006e7302eac1\",\n      \"to\" : 17325550100,\n      \"international\" : false,\n      \"destination_device_name\" : \"Smith\",\n      \"direction\" : \"Inbound\"\n    }, {\n      \"charge\" : 0,\n      \"destination_user\" : \"JSmith\",\n      \"length\" : 60,\n      \"start\" : \"2019-01-01 00:00:00\",\n      \"source_device_name\" : \"Smith\",\n      \"in_network\" : true,\n      \"recorded\" : true,\n      \"destination_extension\" : 1000,\n      \"destination_sip_id\" : \"VH1111111\",\n      \"result\" : \"Answered\",\n      \"source_extension\" : 1000,\n      \"rate\" : 0,\n      \"source_sip_id\" : \"VH1111111\",\n      \"destination_user_full_name\" : \"John Smith\",\n      \"end\" : \"2019-01-01 00:00:00\",\n      \"from\" : 17325550100,\n      \"source_user\" : \"JSmith\",\n      \"source_user_full_name\" : \"John Smith\",\n      \"id\" : \"f27b937d-6dde-441a-9595-006e7302eac1\",\n      \"to\" : 17325550100,\n      \"international\" : false,\n      \"destination_device_name\" : \"Smith\",\n      \"direction\" : \"Inbound\"\n    }, {\n      \"charge\" : 0,\n      \"destination_user\" : \"JSmith\",\n      \"length\" : 60,\n      \"start\" : \"2019-01-01 00:00:00\",\n      \"source_device_name\" : \"Smith\",\n      \"in_network\" : true,\n      \"recorded\" : true,\n      \"destination_extension\" : 1000,\n      \"destination_sip_id\" : \"VH1111111\",\n      \"result\" : \"Answered\",\n      \"source_extension\" : 1000,\n      \"rate\" : 0,\n      \"source_sip_id\" : \"VH1111111\",\n      \"destination_user_full_name\" : \"John Smith\",\n      \"end\" : \"2019-01-01 00:00:00\",\n      \"from\" : 17325550100,\n      \"source_user\" : \"JSmith\",\n      \"source_user_full_name\" : \"John Smith\",\n      \"id\" : \"f27b937d-6dde-441a-9595-006e7302eac1\",\n      \"to\" : 17325550100,\n      \"international\" : false,\n      \"destination_device_name\" : \"Smith\",\n      \"direction\" : \"Inbound\"\n    }, {\n      \"charge\" : 0,\n      \"destination_user\" : \"JSmith\",\n      \"length\" : 60,\n      \"start\" : \"2019-01-01 00:00:00\",\n      \"source_device_name\" : \"Smith\",\n      \"in_network\" : true,\n      \"recorded\" : true,\n      \"destination_extension\" : 1000,\n      \"destination_sip_id\" : \"VH1111111\",\n      \"result\" : \"Answered\",\n      \"source_extension\" : 1000,\n      \"rate\" : 0,\n      \"source_sip_id\" : \"VH1111111\",\n      \"destination_user_full_name\" : \"John Smith\",\n      \"end\" : \"2019-01-01 00:00:00\",\n      \"from\" : 17325550100,\n      \"source_user\" : \"JSmith\",\n      \"source_user_full_name\" : \"John Smith\",\n      \"id\" : \"f27b937d-6dde-441a-9595-006e7302eac1\",\n      \"to\" : 17325550100,\n      \"international\" : false,\n      \"destination_device_name\" : \"Smith\",\n      \"direction\" : \"Inbound\"\n    }, {\n      \"charge\" : 0,\n      \"destination_user\" : \"JSmith\",\n      \"length\" : 60,\n      \"start\" : \"2019-01-01 00:00:00\",\n      \"source_device_name\" : \"Smith\",\n      \"in_network\" : true,\n      \"recorded\" : true,\n      \"destination_extension\" : 1000,\n      \"destination_sip_id\" : \"VH1111111\",\n      \"result\" : \"Answered\",\n      \"source_extension\" : 1000,\n      \"rate\" : 0,\n      \"source_sip_id\" : \"VH1111111\",\n      \"destination_user_full_name\" : \"John Smith\",\n      \"end\" : \"2019-01-01 00:00:00\",\n      \"from\" : 17325550100,\n      \"source_user\" : \"JSmith\",\n      \"source_user_full_name\" : \"John Smith\",\n      \"id\" : \"f27b937d-6dde-441a-9595-006e7302eac1\",\n      \"to\" : 17325550100,\n      \"international\" : false,\n      \"destination_device_name\" : \"Smith\",\n      \"direction\" : \"Inbound\"\n    }, {\n      \"charge\" : 0,\n      \"destination_user\" : \"JSmith\",\n      \"length\" : 60,\n      \"start\" : \"2019-01-01 00:00:00\",\n      \"source_device_name\" : \"Smith\",\n      \"in_network\" : true,\n      \"recorded\" : true,\n      \"destination_extension\" : 1000,\n      \"destination_sip_id\" : \"VH1111111\",\n      \"result\" : \"Answered\",\n      \"source_extension\" : 1000,\n      \"rate\" : 0,\n      \"source_sip_id\" : \"VH1111111\",\n      \"destination_user_full_name\" : \"John Smith\",\n      \"end\" : \"2019-01-01 00:00:00\",\n      \"from\" : 17325550100,\n      \"source_user\" : \"JSmith\",\n      \"source_user_full_name\" : \"John Smith\",\n      \"id\" : \"f27b937d-6dde-441a-9595-006e7302eac1\",\n      \"to\" : 17325550100,\n      \"international\" : false,\n      \"destination_device_name\" : \"Smith\",\n      \"direction\" : \"Inbound\"\n    }, {\n      \"charge\" : 0,\n      \"destination_user\" : \"JSmith\",\n      \"length\" : 60,\n      \"start\" : \"2019-01-01 00:00:00\",\n      \"source_device_name\" : \"Smith\",\n      \"in_network\" : true,\n      \"recorded\" : true,\n      \"destination_extension\" : 1000,\n      \"destination_sip_id\" : \"VH1111111\",\n      \"result\" : \"Answered\",\n      \"source_extension\" : 1000,\n      \"rate\" : 0,\n      \"source_sip_id\" : \"VH1111111\",\n      \"destination_user_full_name\" : \"John Smith\",\n      \"end\" : \"2019-01-01 00:00:00\",\n      \"from\" : 17325550100,\n      \"source_user\" : \"JSmith\",\n      \"source_user_full_name\" : \"John Smith\",\n      \"id\" : \"f27b937d-6dde-441a-9595-006e7302eac1\",\n      \"to\" : 17325550100,\n      \"international\" : false,\n      \"destination_device_name\" : \"Smith\",\n      \"direction\" : \"Inbound\"\n    }, {\n      \"charge\" : 0,\n      \"destination_user\" : \"JSmith\",\n      \"length\" : 60,\n      \"start\" : \"2019-01-01 00:00:00\",\n      \"source_device_name\" : \"Smith\",\n      \"in_network\" : true,\n      \"recorded\" : true,\n      \"destination_extension\" : 1000,\n      \"destination_sip_id\" : \"VH1111111\",\n      \"result\" : \"Answered\",\n      \"source_extension\" : 1000,\n      \"rate\" : 0,\n      \"source_sip_id\" : \"VH1111111\",\n      \"destination_user_full_name\" : \"John Smith\",\n      \"end\" : \"2019-01-01 00:00:00\",\n      \"from\" : 17325550100,\n      \"source_user\" : \"JSmith\",\n      \"source_user_full_name\" : \"John Smith\",\n      \"id\" : \"f27b937d-6dde-441a-9595-006e7302eac1\",\n      \"to\" : 17325550100,\n      \"international\" : false,\n      \"destination_device_name\" : \"Smith\",\n      \"direction\" : \"Inbound\"\n    } ]\n  },\n  \"_links\" : {\n    \"next\" : {\n      \"href\" : \"25vi1273charfs0zt21c5qbvyxyxq6pqbw1m\"\n    },\n    \"prev\" : {\n      \"href\" : \"529zy4amzsm6p70rm0jgjegimnshy39b6oq3dafk6mfzx1ozmzg\"\n    },\n    \"self\" : {\n      \"href\" : \"f362t3bgkqja5tovxhh19j4u8n4j6uarwjil4r37vsjnqmwoejxewndzxk2q8bh7eejhnvd4o7l6nl4rn6v61sas4v4iukj73y7qnn6ewrb769o5ojrtoorh3ld1zw18lh04vs9978zxme7yx9h3ielczex4vfidy89fkhnu9ah204y5y6qk274o0148fa8n0v\"\n    },\n    \"first\" : {\n      \"href\" : \"vrouk73rqr\"\n    }\n  },\n  \"total_page\" : 10,\n  \"page\" : 1,\n  \"total_items\" : 100,\n  \"page_size\" : 10\n}",
      "headers" : {
        "Content-Type" : "application/json"
      }
    },
    "uuid" : "f9b99188-709b-44ea-b285-224fb9d823ce",
    "persistent" : true,
    "metadata" : {
      "mocklab" : {
        "created" : {
          "at" : "2023-03-06T18:55:37.246028Z",
          "via" : "OAS3_IMPORT"
        },
        "oas" : {
          "operationId" : "getCallLogs",
          "schema" : {
            "properties" : {
              "_embedded" : {
                "$ref" : "#/components/schemas/CallLogsEmbeddedObject"
              },
              "_links" : {
                "$ref" : "#/components/schemas/Links"
              },
              "page" : {
                "description" : "Current page number",
                "example" : 1,
                "type" : "number"
              },
              "page_size" : {
                "description" : "Number of records per page",
                "example" : 10,
                "type" : "number"
              },
              "total_items" : {
                "description" : "Total number of records",
                "example" : 100,
                "type" : "number"
              },
              "total_page" : {
                "description" : "Total number of pages",
                "example" : 10,
                "type" : "number"
              }
            },
            "type" : "object"
          }
        }
      }
    }
  } ]
}