{
  "mappings" : [ {
    "id" : "d66e51be-8257-4cb6-b72e-505ce61f9826",
    "name" : "This call suppresses a listing violation for a specific listing. Only listing vi... - 500",
    "request" : {
      "urlPath" : "/suppress_listing_violation",
      "method" : "POST"
    },
    "response" : {
      "status" : 500
    },
    "uuid" : "d66e51be-8257-4cb6-b72e-505ce61f9826",
    "persistent" : true,
    "metadata" : {
      "mocklab" : {
        "created" : {
          "at" : "2023-03-06T18:54:48.354178Z",
          "via" : "OAS3_IMPORT"
        },
        "oas" : {
          "operationId" : "suppressViolation"
        }
      }
    }
  }, {
    "id" : "a7dacbe5-21b8-4bcf-8840-33e5a1c00407",
    "name" : "This call suppresses a listing violation for a specific listing. Only listing vi... - 409",
    "request" : {
      "urlPath" : "/suppress_listing_violation",
      "method" : "POST"
    },
    "response" : {
      "status" : 409
    },
    "uuid" : "a7dacbe5-21b8-4bcf-8840-33e5a1c00407",
    "persistent" : true,
    "metadata" : {
      "mocklab" : {
        "created" : {
          "at" : "2023-03-06T18:54:48.354163Z",
          "via" : "OAS3_IMPORT"
        },
        "oas" : {
          "operationId" : "suppressViolation"
        }
      }
    }
  }, {
    "id" : "08cfac85-e5b5-4adb-a724-7d92fd8c7f8b",
    "name" : "This call suppresses a listing violation for a specific listing. Only listing vi... - 400",
    "request" : {
      "urlPath" : "/suppress_listing_violation",
      "method" : "POST"
    },
    "response" : {
      "status" : 400
    },
    "uuid" : "08cfac85-e5b5-4adb-a724-7d92fd8c7f8b",
    "persistent" : true,
    "metadata" : {
      "mocklab" : {
        "created" : {
          "at" : "2023-03-06T18:54:48.354149Z",
          "via" : "OAS3_IMPORT"
        },
        "oas" : {
          "operationId" : "suppressViolation"
        }
      }
    }
  }, {
    "id" : "3857cea0-52fb-43e3-a76c-d0950d57944a",
    "name" : "This call suppresses a listing violation for a specific listing. Only listing vi... - 204",
    "request" : {
      "urlPath" : "/suppress_listing_violation",
      "method" : "POST"
    },
    "response" : {
      "status" : 204
    },
    "uuid" : "3857cea0-52fb-43e3-a76c-d0950d57944a",
    "persistent" : true,
    "metadata" : {
      "mocklab" : {
        "created" : {
          "at" : "2023-03-06T18:54:48.354134Z",
          "via" : "OAS3_IMPORT"
        },
        "oas" : {
          "operationId" : "suppressViolation"
        }
      }
    }
  }, {
    "id" : "8c6ab64e-476f-4161-a450-a61026c586b2",
    "name" : "This call returns listing violation counts for a seller. A user can pass in one ... - 500",
    "request" : {
      "urlPath" : "/listing_violation_summary",
      "method" : "GET"
    },
    "response" : {
      "status" : 500
    },
    "uuid" : "8c6ab64e-476f-4161-a450-a61026c586b2",
    "persistent" : true,
    "metadata" : {
      "mocklab" : {
        "created" : {
          "at" : "2023-03-06T18:54:48.354116Z",
          "via" : "OAS3_IMPORT"
        },
        "oas" : {
          "operationId" : "getListingViolationsSummary"
        }
      }
    }
  }, {
    "id" : "f7cda52a-438c-4006-8f6c-10c9262a783f",
    "name" : "This call returns listing violation counts for a seller. A user can pass in one ... - 400",
    "request" : {
      "urlPath" : "/listing_violation_summary",
      "method" : "GET"
    },
    "response" : {
      "status" : 400
    },
    "uuid" : "f7cda52a-438c-4006-8f6c-10c9262a783f",
    "persistent" : true,
    "metadata" : {
      "mocklab" : {
        "created" : {
          "at" : "2023-03-06T18:54:48.3541Z",
          "via" : "OAS3_IMPORT"
        },
        "oas" : {
          "operationId" : "getListingViolationsSummary"
        }
      }
    }
  }, {
    "id" : "71a032e2-8612-48e4-9da2-616b038be07e",
    "name" : "This call returns listing violation counts for a seller. A user can pass in one ... - 204",
    "request" : {
      "urlPath" : "/listing_violation_summary",
      "method" : "GET"
    },
    "response" : {
      "status" : 204
    },
    "uuid" : "71a032e2-8612-48e4-9da2-616b038be07e",
    "persistent" : true,
    "metadata" : {
      "mocklab" : {
        "created" : {
          "at" : "2023-03-06T18:54:48.354083Z",
          "via" : "OAS3_IMPORT"
        },
        "oas" : {
          "operationId" : "getListingViolationsSummary"
        }
      }
    }
  }, {
    "id" : "9ccc0d68-6efb-4a15-8613-88543ae23c8a",
    "name" : "This call returns listing violation counts for a seller. A user can pass in one ... (application/json;charset=UTF-8)",
    "request" : {
      "urlPath" : "/listing_violation_summary",
      "method" : "GET",
      "headers" : {
        "Accept" : {
          "contains" : "application/json;charset=UTF-8"
        }
      }
    },
    "response" : {
      "status" : 200,
      "body" : "{\n  \"violationSummaries\" : [ {\n    \"marketplaceId\" : \"szpc\",\n    \"listingCount\" : 1781897740,\n    \"complianceType\" : \"nslw1uxasjt0whak1l91kb3s\"\n  }, {\n    \"marketplaceId\" : \"3xh4\",\n    \"listingCount\" : 1735071917,\n    \"complianceType\" : \"mtaj1npn3izkx5qjdu6rpcr8lzcdwm4bhdjzoy37wo21o4vb2coisdu25hsc8x71w2vv17s1478qyhc7twq036u5hdlahaz41iyr36cxi2xpi6takt5jakuwus4rmcewktmuzny0e9nt9ae9vs\"\n  }, {\n    \"marketplaceId\" : \"ma24\",\n    \"listingCount\" : 1886796518,\n    \"complianceType\" : \"zjs2t6tl3g788p89co1j76hgx1td1ovz1o5p2fg5xyj8efyiuw3nlq0zeef132gbg51zfokj2sdbyhz3sqibmcqi4mjcdth5a8gv1ox4yunxn013z958i7v63ns738alybcy4zb0qg12u3lzlcct183nsrz0g5iy0l76j\"\n  }, {\n    \"marketplaceId\" : \"n028\",\n    \"listingCount\" : 1879174704,\n    \"complianceType\" : \"hsat7nlgqs9z284ilmgaxaouztyrht1rks7adakg4b52cgrsutdfykdhsynmq6n9\"\n  }, {\n    \"marketplaceId\" : \"8h23\",\n    \"listingCount\" : 1288810303,\n    \"complianceType\" : \"u0o1jrt0kap18pdfh26y5my28gvg0wm1tz440wjzivjeuicknwpu5ofun2oxal0dopu3rowsjgo7b370hkf08yuu6rzgof1353e\"\n  }, {\n    \"marketplaceId\" : \"1166\",\n    \"listingCount\" : 404317342,\n    \"complianceType\" : \"5g5irh42sjmold3u3qibmj812w1mu2rxyr9l8q4orae2yio9g3y1wyz9vmjxitmrjvpsc4400ojq95uv7k9qv8090s0yvxfll16jnj60h3xr1vbu\"\n  }, {\n    \"marketplaceId\" : \"k01l\",\n    \"listingCount\" : 1736962496,\n    \"complianceType\" : \"e4hq4enhqubfx97yil523ml44r9o0e\"\n  }, {\n    \"marketplaceId\" : \"s9mj\",\n    \"listingCount\" : 201268419,\n    \"complianceType\" : \"v983x4hkml5i52ro9b8wiwna232x67ybcrrwxzvqwbhjdlyotryvby1lcxy78ouusaexphyfza66bvfof\"\n  } ]\n}",
      "headers" : {
        "Content-Type" : "application/json;charset=UTF-8"
      }
    },
    "uuid" : "9ccc0d68-6efb-4a15-8613-88543ae23c8a",
    "persistent" : true,
    "metadata" : {
      "mocklab" : {
        "created" : {
          "at" : "2023-03-06T18:54:48.354051Z",
          "via" : "OAS3_IMPORT"
        },
        "oas" : {
          "operationId" : "getListingViolationsSummary",
          "schema" : {
            "description" : "This type is the base type for the getListingViolationsSummary response. The violationSummaries container contains an array of policy violation counts for each unique eBay marketplace and compliance type violation.",
            "properties" : {
              "violationSummaries" : {
                "description" : "This container is an array of one or more policy violation counts. A policy violation count is returned for each unique eBay marketplace and compliance type violation. As long as there is at least one non-compliant listing for the specified compliance type(s), this container will be returned. If no non-compliant listings are found for the specified compliance type(s), an HTTP status code of 204 No Content is returned, and there is no response body.",
                "items" : {
                  "$ref" : "#/components/schemas/ComplianceSummaryInfo"
                },
                "type" : "array"
              }
            },
            "type" : "object"
          }
        }
      }
    }
  }, {
    "id" : "5405f896-daf2-4ba0-a586-6fdf02479e84",
    "name" : "This call returns specific listing violations for the supported listing complian... - 500",
    "request" : {
      "urlPath" : "/listing_violation",
      "method" : "GET"
    },
    "response" : {
      "status" : 500
    },
    "uuid" : "5405f896-daf2-4ba0-a586-6fdf02479e84",
    "persistent" : true,
    "metadata" : {
      "mocklab" : {
        "created" : {
          "at" : "2023-03-06T18:54:48.353241Z",
          "via" : "OAS3_IMPORT"
        },
        "oas" : {
          "operationId" : "getListingViolations"
        }
      }
    }
  }, {
    "id" : "29e19898-d9f6-4754-93c3-153b35def7fe",
    "name" : "This call returns specific listing violations for the supported listing complian... - 400",
    "request" : {
      "urlPath" : "/listing_violation",
      "method" : "GET"
    },
    "response" : {
      "status" : 400
    },
    "uuid" : "29e19898-d9f6-4754-93c3-153b35def7fe",
    "persistent" : true,
    "metadata" : {
      "mocklab" : {
        "created" : {
          "at" : "2023-03-06T18:54:48.353225Z",
          "via" : "OAS3_IMPORT"
        },
        "oas" : {
          "operationId" : "getListingViolations"
        }
      }
    }
  }, {
    "id" : "620c830f-f1c2-4abd-8958-3cc182bb562d",
    "name" : "This call returns specific listing violations for the supported listing complian... - 204",
    "request" : {
      "urlPath" : "/listing_violation",
      "method" : "GET"
    },
    "response" : {
      "status" : 204
    },
    "uuid" : "620c830f-f1c2-4abd-8958-3cc182bb562d",
    "persistent" : true,
    "metadata" : {
      "mocklab" : {
        "created" : {
          "at" : "2023-03-06T18:54:48.353207Z",
          "via" : "OAS3_IMPORT"
        },
        "oas" : {
          "operationId" : "getListingViolations"
        }
      }
    }
  }, {
    "id" : "c6985b39-f2c8-42a1-9152-bbb772ef9a8d",
    "name" : "This call returns specific listing violations for the supported listing complian... (application/json;charset=UTF-8)",
    "request" : {
      "urlPath" : "/listing_violation",
      "method" : "GET",
      "headers" : {
        "Accept" : {
          "contains" : "application/json;charset=UTF-8"
        }
      }
    },
    "response" : {
      "status" : 200,
      "body" : "{\n  \"next\" : \"lz0trczue8apdz2ch3wzni1gn9u0u38mnnboex1uhr635xzy548tas4xf9x7cuk3zpejifwrsdprimn764uasxtqqqx5iuodyl7abclhj20dymti0wcl6ya2e3s7sjdfbqkz\",\n  \"total\" : 1766585668,\n  \"offset\" : 1118240891,\n  \"prev\" : \"9050v9e8txhj3mquaoeinv1t27pu3b1dixsjnrqvt4dj4d22qmsq3821dmgtrh6p6qx92es2ocpytj\",\n  \"limit\" : 883966117,\n  \"href\" : \"pel03u25a93zx3melef4wbldgoxkp1oqh230im3t6zbly1hntkhy161r4a2ywk8ypflh59wgqyu5sienuhhf3615i3j9j15kd01mgn02omezskvziv1yku4k4j4u9wqnh5tgfngwif5idlx7zcrr3ko8krxrmk3g\",\n  \"listingViolations\" : [ {\n    \"violations\" : [ {\n      \"correctiveRecommendations\" : {\n        \"productRecommendation\" : { },\n        \"aspectRecommendations\" : [ { }, { }, { } ]\n      },\n      \"reasonCode\" : \"jhc5vlc0062rapqpgbt9f55w76kn99061\",\n      \"violationData\" : [ { }, { }, { }, { }, { }, { }, { }, { } ],\n      \"complianceState\" : \"Michigan\",\n      \"message\" : \"Modi quia nisi. Amet neque cumque voluptatem recusandae sint non placeat. Explicabo quasi sed necessitatibus qui similique atque modi. Praesentium occaecati impedit.\",\n      \"variation\" : {\n        \"variationAspects\" : [ { }, { }, { }, { } ],\n        \"sku\" : \"jix52h7dcv8thv4m49xjd1hafwxnz718cgjl0s3xbvxuvua9p2dd46ne4fpzgmy510278xv27eu3hw84vn3wutdqv015ziebdyo7eageb1kauvq6n0bapczjymju706elsq9i99d9v4fpm2ski9wfpiovigh\"\n      }\n    } ],\n    \"offerId\" : \"hc15\",\n    \"listingId\" : \"x248\",\n    \"sku\" : \"kziuwfbr0rvtve7xygot2e8dg5d29v3v7tub1hqmax6ah9t9d00mc9huzn06wborf7ilwa6hmjw1npxuvk2rl3m8i7kextgppfzdx3cfhhebb0r81lru7hxw\",\n    \"complianceType\" : \"l4jlvwcfh0kr0y60s5hxhoqt3fb4v7a6fsawjpmyb2l8t1ldv446ajaw2o5eyjcpgfut2sj1c64ceo8\"\n  }, {\n    \"violations\" : [ {\n      \"correctiveRecommendations\" : {\n        \"productRecommendation\" : { },\n        \"aspectRecommendations\" : [ { }, { }, { }, { }, { }, { }, { }, { } ]\n      },\n      \"reasonCode\" : \"wwhzr3nasac8tfmld5qbc\",\n      \"violationData\" : [ { }, { }, { }, { }, { }, { }, { } ],\n      \"complianceState\" : \"Oklahoma\",\n      \"message\" : \"Iste odio facere quidem rerum dicta quo dolorem. Dolore porro cupiditate. Molestiae eos quo qui. Sed qui rerum quidem perferendis. Nostrum inventore accusantium totam.\",\n      \"variation\" : {\n        \"variationAspects\" : [ { }, { }, { }, { }, { }, { }, { } ],\n        \"sku\" : \"pa3bnphyaza3yymt3hkszl8zuolgkiod4slwxhnozkoan3mnfe14tn5nq1gt4h2eed1q8yhjsdkyz1jq00t12m\"\n      }\n    }, {\n      \"correctiveRecommendations\" : {\n        \"productRecommendation\" : { },\n        \"aspectRecommendations\" : [ { }, { }, { }, { }, { }, { }, { }, { } ]\n      },\n      \"reasonCode\" : \"zuvnngmz7felm9d3w0mujxaede6c7smb7r1d20q7owblizww6o03yl5kb3ejwq2xwjf3x01ffeysx6va3qklpq13cu9w7s96ujfris7\",\n      \"violationData\" : [ { }, { }, { }, { }, { }, { }, { }, { } ],\n      \"complianceState\" : \"Texas\",\n      \"message\" : \"Est quo et quasi. Saepe molestias et nihil excepturi. Iste consectetur quae cum aut praesentium quos quia. Molestias vero dicta.\",\n      \"variation\" : {\n        \"variationAspects\" : [ { }, { }, { }, { } ],\n        \"sku\" : \"5shs7de66sxjeg73vv2rfcy758ydg8vzgn6mydx6d4yxl64mawsgmmpo9s2scx7cgfqbaskf3ddy8sujcfl9c8qjh3g\"\n      }\n    }, {\n      \"correctiveRecommendations\" : {\n        \"productRecommendation\" : { },\n        \"aspectRecommendations\" : [ { } ]\n      },\n      \"reasonCode\" : \"n4plr0faakz3hnget2bd83774depkd7u3at4l617vidwy5vvemkt5vad6equ1fg62wtee6f7jvvx3ifzzvoirwfv259co3973tmgnjlk3h7idxaiml29af01fn7maqet41mxizgzrf8or2lctw6dnvanrigdqzdw3x61dr3l7erzujfoy5cfp28wo8snoc945j31jivw\",\n      \"violationData\" : [ { }, { }, { }, { }, { } ],\n      \"complianceState\" : \"Minnesota\",\n      \"message\" : \"Delectus aliquid qui animi culpa enim asperiores est. In dolorem fugiat repellat. Facilis ipsam ipsam labore. Ea nostrum aspernatur suscipit dolor eius nam. Debitis autem odit.\",\n      \"variation\" : {\n        \"variationAspects\" : [ { } ],\n        \"sku\" : \"270xvmf8mlywgkfpdja3tisojx2iqlvcb4jg3rp7tul54prxfbb4aoeqv9dxpnmnoxkktnccdnifbzhib50kffej0gpgop7dc16ktarmmh6fgtce9x5\"\n      }\n    }, {\n      \"correctiveRecommendations\" : {\n        \"productRecommendation\" : { },\n        \"aspectRecommendations\" : [ { } ]\n      },\n      \"reasonCode\" : \"bo573raivvy8mfcgl5a8emc2r6ut4xx8jxu7sxy2k9y4kj6o7o1iqistw71td68u\",\n      \"violationData\" : [ { }, { }, { }, { } ],\n      \"complianceState\" : \"Maryland\",\n      \"message\" : \"Totam explicabo ex quibusdam in facilis amet. Et voluptates ut iste nemo iure officia. Voluptatem optio provident. Recusandae quia eius perspiciatis et.\",\n      \"variation\" : {\n        \"variationAspects\" : [ { } ],\n        \"sku\" : \"v95j43oqg0r9ze29h3t9yd51lt0kiau4yijc4d6o5mcis23l88mqgraw2v\"\n      }\n    }, {\n      \"correctiveRecommendations\" : {\n        \"productRecommendation\" : { },\n        \"aspectRecommendations\" : [ { }, { }, { }, { }, { } ]\n      },\n      \"reasonCode\" : \"i23kuht5jxitspvghv0jxnu9cobot8gx7nl0mpympy6cics2ytxtlys79fa1ngbhnqvyeou6rt5kavx6ntztii3glzv0dncjzpr0eudyxehzy6fuy0qmqs7t7qe9e0bxy51xuofdwdk742tnb72sfrxachqo1swwdzrpm\",\n      \"violationData\" : [ { }, { }, { }, { }, { }, { }, { }, { } ],\n      \"complianceState\" : \"Arkansas\",\n      \"message\" : \"Facilis qui ducimus. Et aliquam adipisci voluptatum dolores dolor magni. Ullam quis ut perferendis velit.\",\n      \"variation\" : {\n        \"variationAspects\" : [ { }, { }, { }, { }, { } ],\n        \"sku\" : \"fc0ssqo7tkmvfaa6v2o37s360sqzlkflb3kbxlkqn0emswgjp538ltz3m1bx2ss587oolhx74fi0y9qk2bcq5esqmf8dmyrci1jkmgpzvdbug4uhnd2x3n0951f6oo6sawxyiwrjgs1cgaieziacfr8mpzksy736z84eyi3936jsozgri2wroc5vde9g6jwbqxm6rl\"\n      }\n    }, {\n      \"correctiveRecommendations\" : {\n        \"productRecommendation\" : { },\n        \"aspectRecommendations\" : [ { }, { }, { }, { } ]\n      },\n      \"reasonCode\" : \"jaar2gbiswxhbi62eg9kcxjbcyk6kj4bdqsad3nawota9r3f5qm32vvyeiotil4eubd67ob2sha8crx5gnx9dhcn0l78ewsfw0efst3wv3cki07aviqugp\",\n      \"violationData\" : [ { }, { }, { }, { } ],\n      \"complianceState\" : \"Georgia\",\n      \"message\" : \"Architecto nostrum est tempora. Reprehenderit eum aut corrupti soluta aut suscipit. Quasi fugiat omnis at enim facilis illo.\",\n      \"variation\" : {\n        \"variationAspects\" : [ { }, { }, { }, { }, { }, { } ],\n        \"sku\" : \"7glskuqx92gnkjxvycgiigt363k4tddf6921puyxkph4lydwe977n90u750buf4pwqkv74gw42oaf4r4gs9uadmxvyzt7qs9qwf99cv11n1t3h5hrdvwonjiytrrf3s2gyznvgwqnm0awuxtlczk4d1vj\"\n      }\n    } ],\n    \"offerId\" : \"k81i\",\n    \"listingId\" : \"28c3\",\n    \"sku\" : \"ph5stw84cgae392wxa9qzlns7fvys4pz2bn59cucvfsl4e23t3\",\n    \"complianceType\" : \"rs8wk8czzzo7hrm1frvi0ucyvx1gfaz0gl49e7oggbva7h6sqzkpwaabx473sgyj90m9bdplyu85plvlza463u3h99i47cm52tyjzdn9uo9wy6yit59gnuzck5lb4it2vksl8n1pi5x8a9n714if\"\n  }, {\n    \"violations\" : [ {\n      \"correctiveRecommendations\" : {\n        \"productRecommendation\" : { },\n        \"aspectRecommendations\" : [ { }, { }, { } ]\n      },\n      \"reasonCode\" : \"l2uzjft19bpb2vpk0nfsnejg9glpu37jk7f51iknkhpwqxm6tuay0ae96lopuwl5k99majhzuzb0vfedz7xxnqpoqmzupodj4u50e7gq7rcbgwx6dtzwqmpp\",\n      \"violationData\" : [ { }, { }, { } ],\n      \"complianceState\" : \"Georgia\",\n      \"message\" : \"Dolor eligendi omnis dolorem non. Saepe est laborum nulla deleniti explicabo nemo. Mollitia rem excepturi et deserunt nam occaecati. Autem repellendus sint. Rerum commodi dolorum modi voluptas magnam \",\n      \"variation\" : {\n        \"variationAspects\" : [ { }, { }, { }, { }, { }, { }, { }, { } ],\n        \"sku\" : \"e3vxlsa60b4xu8xvtdqf1k6o4a66oghcgslb0cbafbsavpk\"\n      }\n    } ],\n    \"offerId\" : \"3hsx\",\n    \"listingId\" : \"4lb6\",\n    \"sku\" : \"asd4v32lzbrfblioa1i1sooxehwfqt1xdip9swy6opzcyxn\",\n    \"complianceType\" : \"3ce1wfyp9z80zbeehu5d2m4c7z3njol24zjcobwaacldyq2tbmggad6wxzz84p2ek4wmirfmqfwvxy9rpd16zjks077kdh3vmyj37318p5iqyfyx4n6dpaus07rm94xqembcq6gb3da90sypupq9vz3shw80tm89cz01wqo98bk19n9h\"\n  } ]\n}",
      "headers" : {
        "Content-Type" : "application/json;charset=UTF-8"
      }
    },
    "uuid" : "c6985b39-f2c8-42a1-9152-bbb772ef9a8d",
    "persistent" : true,
    "metadata" : {
      "mocklab" : {
        "created" : {
          "at" : "2023-03-06T18:54:48.353159Z",
          "via" : "OAS3_IMPORT"
        },
        "oas" : {
          "operationId" : "getListingViolations",
          "schema" : {
            "description" : "This type is the base response type of the getListingViolations method.",
            "properties" : {
              "href" : {
                "description" : "The URI of the getListingViolations call request that produced the current page of the result set.",
                "type" : "string"
              },
              "limit" : {
                "description" : "The maximum number of listing violations returned per page of the result set. The limit and offset query parameters are used to control the pagination of the output. Note: If this is the last or only page in the result set, it may contain fewer listing violations than the limit value. To determine the number of pages in the result set, divide this value into the value of total and round up to the next integer. Default: 50 Max: 200",
                "format" : "int32",
                "type" : "integer"
              },
              "listingViolations" : {
                "description" : "An array of listing violations that match the criteria in the call request, including pagination control {if set). As long as there is at least one listing violation that matches the input criteria, this container will be returned. If no listing violations are found for the seller, an HTTP status code of 204 No Content is returned, and there is no response body.",
                "items" : {
                  "$ref" : "#/components/schemas/ComplianceViolation"
                },
                "type" : "array"
              },
              "next" : {
                "description" : "The getListingViolations call URI to use to view the next page of the result set. For example, the following URI returns listing violations 21 thru 30 from the collection of policy violations: path/listing_violation?limit=10&amp;offset=20 This field is only returned if an additional page of listing violations exists.",
                "type" : "string"
              },
              "offset" : {
                "description" : "This integer value shows the offset of the current page of results. The offset value controls the first listing violation in the result set that will be displayed at the top of the response. The offset and limit query parameters are used to control the pagination of the output. For example, if offset is set to 10 and limit is set to 10, the call retrieves listing violations 11 thru 20 from the resulting collection of violations. Note: This feature employs a zero-based index, where the first item in the list has an offset of 0. Default: 0 {zero)",
                "format" : "int32",
                "type" : "integer"
              },
              "prev" : {
                "description" : "The getListingViolations call URI to use to view the previous page of the result set. For example, the following URI returns listing violations 1 thru 10 from the collection of policy violations: path/listing_violation?limit=10&amp;offset=0 This field is only returned if an previous page of listing violations exists.",
                "type" : "string"
              },
              "total" : {
                "description" : "The total number of listing violations in the result set. If this value is higher than the limit value, there are multiple pages in the result set to view.",
                "format" : "int32",
                "type" : "integer"
              }
            },
            "type" : "object"
          }
        }
      }
    }
  } ]
}