{
  "mappings" : [ {
    "id" : "d1b27257-bd99-46b6-b448-ac8774b69181",
    "name" : "Retrieve call logs for your account",
    "request" : {
      "urlPath" : "/accounts/92la/call-logs",
      "method" : "GET",
      "queryParameters" : {
        "start:gte" : {
          "equalTo" : "mbkkllggem9qg38igicq0vjadnvn0rwdy94w994uvzrykr6kwr4texi8hbabys4gvhkn3ipd2oi7s6apbcg6iouddyd7a3ir11nv1l80g95utaybxbai7th8tyxhxt0x07dv7s0wvx7t3ukulyd7mzkltf3eq43n"
        },
        "page" : {
          "equalTo" : "3.8984094151925557E307"
        },
        "start:lte" : {
          "equalTo" : "ochz93xmbyghre0k5d7y8sxqe0jywh21yfn4zoec34cayhhzqaw796ru1ppryc0pmjbycw2vmu2ackikys8kgpl4t58o28ws029zgf82gt6m7u6vbtoyfovhvg0ygltnp1we8g7ivlaw6sdzlr0zn4ytvi"
        },
        "page_size" : {
          "equalTo" : "1.1274258551712906E308"
        }
      }
    },
    "response" : {
      "status" : 400,
      "body" : "{\n  \"instance\" : \"nr5smxsirz91a5ddppfhuyf43ql6m\",\n  \"title\" : \"Consequuntur sed neque et rerum non nam.\",\n  \"invalid_parameters\" : [ {\n    \"reason\" : \"090tvldu1erp24hn2vjo1m88ceelmo04jqwytvsvgdcekrxcj54ns75fw3jgbjtjzas3mokca5dfmbo6bk6bsp14wmx5vgn94l6s282e1w2yd3a2ikimilagwjqi1oizunolegml6bsq3n6vwknfxemmrxpe6ip91oxatb3op2ye7\",\n    \"name\" : \"Ms. Jerome Zboncak\"\n  }, {\n    \"reason\" : \"3fwetvr0cjza4jzdcaphvdy9ky3xfdcppkbhxe2n\",\n    \"name\" : \"Jena Rath\"\n  }, {\n    \"reason\" : \"76fx08xfdut6md7c5yh6iocla7serfklwrwdb0lpd2fum1ja2amf8hb8ljloxwa83r0fyige0d9z2czrvhq405fkh2lg5q49rb84sqdyi747w2x8rgflylup5akx91sbwpv3n3sx2m4mrz3ajyiretqna3tcvg1tnzu\",\n    \"name\" : \"Ms. Israel Stanton\"\n  }, {\n    \"reason\" : \"qgjtumvkka2bshg8h572jtp5tzuinzmb3hls3shtybmgbhpl89yylnvdxmqqfysztxp61roahssw5spxmlke5s1x5yn4qhzfrsvqdra5locd48ncdzyc80n0fbks2kv8xhmuxom97srl8b14\",\n    \"name\" : \"Foster Ebert\"\n  } ],\n  \"status\" : 1.2333923815708891E308\n}",
      "headers" : {
        "Content-Type" : "application/json"
      }
    },
    "uuid" : "d1b27257-bd99-46b6-b448-ac8774b69181",
    "persistent" : true,
    "metadata" : {
      "mocklab" : {
        "created" : {
          "at" : "2023-03-28T09:24:33.799967Z",
          "via" : "OAS3_IMPORT"
        },
        "oas" : {
          "operationId" : "getCallLogs",
          "schema" : {
            "properties" : {
              "instance" : {
                "description" : "Error Track ID",
                "type" : "string"
              },
              "invalid_parameters" : {
                "description" : "Invalid parameters and their reason for failing",
                "items" : {
                  "$ref" : "#/components/schemas/DetailedInvalidParam"
                },
                "type" : "array"
              },
              "status" : {
                "description" : "Error status code",
                "type" : "number"
              },
              "title" : {
                "description" : "Error title",
                "type" : "string"
              }
            },
            "type" : "object"
          }
        }
      }
    },
    "insertionIndex" : 0
  }, {
    "id" : "d1e68d99-6ea7-400c-8aa6-6431253b0e7c",
    "name" : "Retrieve call logs for your account",
    "request" : {
      "urlPath" : "/accounts/03l1/call-logs",
      "method" : "GET",
      "queryParameters" : {
        "start:gte" : {
          "equalTo" : "p06cy5uvbwrkooz16kr45gfn3pjw3u40hs8qv"
        },
        "page" : {
          "equalTo" : "1.7551986884350475E308"
        },
        "start:lte" : {
          "equalTo" : "6qqn89zn5j1a9cbt3c9ft396dwj2qakj80fbpq43q0722zwkjw5czyfep4r0swpf97s7y8qj3c9064rqag75x51drx9r7qfwpjfgpk1x0r4csloenjlkhnzbzv5p511o7q669vh9kcqmdctk4dshleng0lu"
        },
        "page_size" : {
          "equalTo" : "2.0927953173626837E307"
        }
      }
    },
    "response" : {
      "status" : 200,
      "body" : "{\n  \"_embedded\" : {\n    \"call_logs\" : [ {\n      \"charge\" : 0,\n      \"destination_user\" : \"JSmith\",\n      \"length\" : 60,\n      \"start\" : \"2019-01-01 00:00:00\",\n      \"source_device_name\" : \"Smith\",\n      \"in_network\" : true,\n      \"recorded\" : true,\n      \"destination_extension\" : 1000,\n      \"destination_sip_id\" : \"VH1111111\",\n      \"result\" : \"Answered\",\n      \"source_extension\" : 1000,\n      \"rate\" : 0,\n      \"source_sip_id\" : \"VH1111111\",\n      \"destination_user_full_name\" : \"John Smith\",\n      \"end\" : \"2019-01-01 00:00:00\",\n      \"from\" : 17325550100,\n      \"source_user\" : \"JSmith\",\n      \"source_user_full_name\" : \"John Smith\",\n      \"id\" : \"f27b937d-6dde-441a-9595-006e7302eac1\",\n      \"to\" : 17325550100,\n      \"international\" : false,\n      \"destination_device_name\" : \"Smith\",\n      \"direction\" : \"Inbound\"\n    }, {\n      \"charge\" : 0,\n      \"destination_user\" : \"JSmith\",\n      \"length\" : 60,\n      \"start\" : \"2019-01-01 00:00:00\",\n      \"source_device_name\" : \"Smith\",\n      \"in_network\" : true,\n      \"recorded\" : true,\n      \"destination_extension\" : 1000,\n      \"destination_sip_id\" : \"VH1111111\",\n      \"result\" : \"Answered\",\n      \"source_extension\" : 1000,\n      \"rate\" : 0,\n      \"source_sip_id\" : \"VH1111111\",\n      \"destination_user_full_name\" : \"John Smith\",\n      \"end\" : \"2019-01-01 00:00:00\",\n      \"from\" : 17325550100,\n      \"source_user\" : \"JSmith\",\n      \"source_user_full_name\" : \"John Smith\",\n      \"id\" : \"f27b937d-6dde-441a-9595-006e7302eac1\",\n      \"to\" : 17325550100,\n      \"international\" : false,\n      \"destination_device_name\" : \"Smith\",\n      \"direction\" : \"Inbound\"\n    }, {\n      \"charge\" : 0,\n      \"destination_user\" : \"JSmith\",\n      \"length\" : 60,\n      \"start\" : \"2019-01-01 00:00:00\",\n      \"source_device_name\" : \"Smith\",\n      \"in_network\" : true,\n      \"recorded\" : true,\n      \"destination_extension\" : 1000,\n      \"destination_sip_id\" : \"VH1111111\",\n      \"result\" : \"Answered\",\n      \"source_extension\" : 1000,\n      \"rate\" : 0,\n      \"source_sip_id\" : \"VH1111111\",\n      \"destination_user_full_name\" : \"John Smith\",\n      \"end\" : \"2019-01-01 00:00:00\",\n      \"from\" : 17325550100,\n      \"source_user\" : \"JSmith\",\n      \"source_user_full_name\" : \"John Smith\",\n      \"id\" : \"f27b937d-6dde-441a-9595-006e7302eac1\",\n      \"to\" : 17325550100,\n      \"international\" : false,\n      \"destination_device_name\" : \"Smith\",\n      \"direction\" : \"Inbound\"\n    }, {\n      \"charge\" : 0,\n      \"destination_user\" : \"JSmith\",\n      \"length\" : 60,\n      \"start\" : \"2019-01-01 00:00:00\",\n      \"source_device_name\" : \"Smith\",\n      \"in_network\" : true,\n      \"recorded\" : true,\n      \"destination_extension\" : 1000,\n      \"destination_sip_id\" : \"VH1111111\",\n      \"result\" : \"Answered\",\n      \"source_extension\" : 1000,\n      \"rate\" : 0,\n      \"source_sip_id\" : \"VH1111111\",\n      \"destination_user_full_name\" : \"John Smith\",\n      \"end\" : \"2019-01-01 00:00:00\",\n      \"from\" : 17325550100,\n      \"source_user\" : \"JSmith\",\n      \"source_user_full_name\" : \"John Smith\",\n      \"id\" : \"f27b937d-6dde-441a-9595-006e7302eac1\",\n      \"to\" : 17325550100,\n      \"international\" : false,\n      \"destination_device_name\" : \"Smith\",\n      \"direction\" : \"Inbound\"\n    }, {\n      \"charge\" : 0,\n      \"destination_user\" : \"JSmith\",\n      \"length\" : 60,\n      \"start\" : \"2019-01-01 00:00:00\",\n      \"source_device_name\" : \"Smith\",\n      \"in_network\" : true,\n      \"recorded\" : true,\n      \"destination_extension\" : 1000,\n      \"destination_sip_id\" : \"VH1111111\",\n      \"result\" : \"Answered\",\n      \"source_extension\" : 1000,\n      \"rate\" : 0,\n      \"source_sip_id\" : \"VH1111111\",\n      \"destination_user_full_name\" : \"John Smith\",\n      \"end\" : \"2019-01-01 00:00:00\",\n      \"from\" : 17325550100,\n      \"source_user\" : \"JSmith\",\n      \"source_user_full_name\" : \"John Smith\",\n      \"id\" : \"f27b937d-6dde-441a-9595-006e7302eac1\",\n      \"to\" : 17325550100,\n      \"international\" : false,\n      \"destination_device_name\" : \"Smith\",\n      \"direction\" : \"Inbound\"\n    }, {\n      \"charge\" : 0,\n      \"destination_user\" : \"JSmith\",\n      \"length\" : 60,\n      \"start\" : \"2019-01-01 00:00:00\",\n      \"source_device_name\" : \"Smith\",\n      \"in_network\" : true,\n      \"recorded\" : true,\n      \"destination_extension\" : 1000,\n      \"destination_sip_id\" : \"VH1111111\",\n      \"result\" : \"Answered\",\n      \"source_extension\" : 1000,\n      \"rate\" : 0,\n      \"source_sip_id\" : \"VH1111111\",\n      \"destination_user_full_name\" : \"John Smith\",\n      \"end\" : \"2019-01-01 00:00:00\",\n      \"from\" : 17325550100,\n      \"source_user\" : \"JSmith\",\n      \"source_user_full_name\" : \"John Smith\",\n      \"id\" : \"f27b937d-6dde-441a-9595-006e7302eac1\",\n      \"to\" : 17325550100,\n      \"international\" : false,\n      \"destination_device_name\" : \"Smith\",\n      \"direction\" : \"Inbound\"\n    }, {\n      \"charge\" : 0,\n      \"destination_user\" : \"JSmith\",\n      \"length\" : 60,\n      \"start\" : \"2019-01-01 00:00:00\",\n      \"source_device_name\" : \"Smith\",\n      \"in_network\" : true,\n      \"recorded\" : true,\n      \"destination_extension\" : 1000,\n      \"destination_sip_id\" : \"VH1111111\",\n      \"result\" : \"Answered\",\n      \"source_extension\" : 1000,\n      \"rate\" : 0,\n      \"source_sip_id\" : \"VH1111111\",\n      \"destination_user_full_name\" : \"John Smith\",\n      \"end\" : \"2019-01-01 00:00:00\",\n      \"from\" : 17325550100,\n      \"source_user\" : \"JSmith\",\n      \"source_user_full_name\" : \"John Smith\",\n      \"id\" : \"f27b937d-6dde-441a-9595-006e7302eac1\",\n      \"to\" : 17325550100,\n      \"international\" : false,\n      \"destination_device_name\" : \"Smith\",\n      \"direction\" : \"Inbound\"\n    } ]\n  },\n  \"_links\" : {\n    \"next\" : {\n      \"href\" : \"kco98dg8tcx8r733gp7rs9yqv99mz\"\n    },\n    \"prev\" : {\n      \"href\" : \"ke86zuezbc8huteebw1zd3tcpbl1ve8eiyoph02flqsxc6z7gdqcmd84bg66h1wwzkypi2dj4vcgqxgvy\"\n    },\n    \"self\" : {\n      \"href\" : \"5jrvfxr5w6k5t8t0iojgnxjo54lpp3c5yit8au7ba74xrw1gyof8l46tsow2isbn7phfjgdbmf7g8yc0denshykteqglilwlp2umgv10vzcnqya5m8vmknj4n1sibmlva5pjmffzm6c3i54h6uuomn2z4y5ofrbis4e7t\"\n    },\n    \"first\" : {\n      \"href\" : \"jfv0h9crbbz2e3f9c499uefhh0ldk2vi0uj40flbf0lqh34q3p7o7icag77gb0bowxjv06kj31r5xcrkunpgopqaakvdzm3azgddqx8jzs6t1bdze0hu8evrepawrb8y63o725brc05db0jygvvkktomo9ry0wyqgvxzjp0qhxxd8uzy7o2scbxjociue56kc\"\n    }\n  },\n  \"total_page\" : 10,\n  \"page\" : 1,\n  \"total_items\" : 100,\n  \"page_size\" : 10\n}",
      "headers" : {
        "Content-Type" : "application/json"
      }
    },
    "uuid" : "d1e68d99-6ea7-400c-8aa6-6431253b0e7c",
    "persistent" : true,
    "metadata" : {
      "mocklab" : {
        "created" : {
          "at" : "2023-03-28T09:24:33.799386Z",
          "via" : "OAS3_IMPORT"
        },
        "oas" : {
          "operationId" : "getCallLogs",
          "schema" : {
            "properties" : {
              "_embedded" : {
                "$ref" : "#/components/schemas/CallLogsEmbeddedObject"
              },
              "_links" : {
                "$ref" : "#/components/schemas/Links"
              },
              "page" : {
                "description" : "Current page number",
                "example" : 1,
                "type" : "number"
              },
              "page_size" : {
                "description" : "Number of records per page",
                "example" : 10,
                "type" : "number"
              },
              "total_items" : {
                "description" : "Total number of records",
                "example" : 100,
                "type" : "number"
              },
              "total_page" : {
                "description" : "Total number of pages",
                "example" : 10,
                "type" : "number"
              }
            },
            "type" : "object"
          }
        }
      }
    },
    "insertionIndex" : 1
  } ]
}